Description,Product,Product Code,Language,Language Code,Theme,Theme Code,Price,Price code,Start Date,End Date,Weekdays,Playing At,Store Listing File
Pork Texan Steak R59.99 kg WC CH CHHY EX HAL Eng,Pork Texan Steak,A0229,English,L02,Standard,T0001,R59.99,PR005999,26/12/2016,01/01/2017,1234567,10,WC CH CHHY ENG.DSF
Pork Texan Steak R59.99 kg WC CH CHHY EX HAL Eng2,Pork Texan Steak,A0229,English,L02,Standard,T0001,R59.99,PR005999,26/12/2016,01/01/2017,1234567,14,WC CH CHHY ENG.DSF
Pork Texan Steak R59.99 kg WC CH CHHY EX HAL Afr,Pork Texan Steak,A0229,Afrikaans,L01,Standard,T0001,R59.99,PR005999,26/12/2016,01/01/2017,1234567,11,WC CH CHHY AFR.DSF
Pork Texan Steak R59.99 kg WC CH CHHY EX HAL Afr2,Pork Texan Steak,A0229,Afrikaans,L01,Standard,T0001,R59.99,PR005999,26/12/2016,01/01/2017,1234567,15,WC CH CHHY AFR.DSF
Steak pack R89.99 kg WC CH CHHY Eng,Steak pack,A0058,English,L02,Standard,T0001,R89.99,PR008999,26/12/2016,01/01/2017,1234567,12,WC CH CHHY ENG.DSF
Steak pack R89.99 kg WC CH CHHY Eng2,Steak pack,A0058,English,L02,Standard,T0001,R89.99,PR008999,26/12/2016,01/01/2017,1234567,16,WC CH CHHY ENG.DSF
Steak pack R89.99 kg WC CH CHHY Afr,Steak pack,A0058,Afrikaans,L01,Standard,T0001,R89.99,PR008999,26/12/2016,01/01/2017,1234567,13,WC CH CHHY AFR.DSF
Steak pack R89.99 kg WC CH CHHY Afr2,Steak pack,A0058,Afrikaans,L01,Standard,T0001,R89.99,PR008999,26/12/2016,01/01/2017,1234567,17,WC CH CHHY AFR.DSF
Beef sosaties R8.99 100g WC CH CHHY Eng,Beef sosaties,A0006,English,L02,Standard,T0001,R8.99,PR000899,26/12/2016,01/01/2017,1234567,10,WC CH CHHY ENG.DSF
Beef sosaties R8.99 100g WC CH CHHY Eng2,Beef sosaties,A0006,English,L02,Standard,T0001,R8.99,PR000899,26/12/2016,01/01/2017,1234567,14,WC CH CHHY ENG.DSF
Beef sosaties R8.99 100g WC CH CHHY Afr,Beef sosaties,A0006,Afrikaans,L01,Standard,T0001,R8.99,PR000899,26/12/2016,01/01/2017,1234567,11,WC CH CHHY AFR.DSF
Beef sosaties R8.99 100g WC CH CHHY Afr2,Beef sosaties,A0006,Afrikaans,L01,Standard,T0001,R8.99,PR000899,26/12/2016,01/01/2017,1234567,15,WC CH CHHY AFR.DSF
Chicken sosaties R8.99 100g WC CH CHHY Eng,Chicken sosaties,A0009,English,L02,Standard,T0001,R8.99,PR000899,26/12/2016,01/01/2017,1234567,12,WC CH CHHY ENG.DSF
Chicken sosaties R8.99 100g WC CH CHHY Eng2,Chicken sosaties,A0009,English,L02,Standard,T0001,R8.99,PR000899,26/12/2016,01/01/2017,1234567,16,WC CH CHHY ENG.DSF
Chicken sosaties R8.99 100g WC CH CHHY Afr,Chicken sosaties,A0009,Afrikaans,L01,Standard,T0001,R8.99,PR000899,26/12/2016,01/01/2017,1234567,13,WC CH CHHY AFR.DSF
Chicken sosaties R8.99 100g WC CH CHHY Afr2,Chicken sosaties,A0009,Afrikaans,L01,Standard,T0001,R8.99,PR000899,26/12/2016,01/01/2017,1234567,17,WC CH CHHY AFR.DSF
Pork sosaties R8.99 100g WC CH CHHY EX HAL Eng,Pork sosaties,A0021,English,L02,Standard,T0001,R8.99,PR000899,26/12/2016,01/01/2017,1234567,10,WC CH CHHY ENG.DSF
Pork sosaties R8.99 100g WC CH CHHY EX HAL Eng2,Pork sosaties,A0021,English,L02,Standard,T0001,R8.99,PR000899,26/12/2016,01/01/2017,1234567,14,WC CH CHHY ENG.DSF
Pork sosaties R8.99 100g WC CH CHHY EX HAL Afr,Pork sosaties,A0021,Afrikaans,L01,Standard,T0001,R8.99,PR000899,26/12/2016,01/01/2017,1234567,11,WC CH CHHY AFR.DSF
Pork sosaties R8.99 100g WC CH CHHY EX HAL Afr2,Pork sosaties,A0021,Afrikaans,L01,Standard,T0001,R8.99,PR000899,26/12/2016,01/01/2017,1234567,15,WC CH CHHY AFR.DSF
Lamb braai chops R119.99 kg WC CH CHHY Eng,Lamb braai chops,A0015,English,L02,Standard,T0001,R119.99,PR011999,26/12/2016,01/01/2017,1234567,12,WC CH CHHY ENG.DSF
Lamb braai chops R119.99 kg WC CH CHHY Eng2,Lamb braai chops,A0015,English,L02,Standard,T0001,R119.99,PR011999,26/12/2016,01/01/2017,1234567,16,WC CH CHHY ENG.DSF
Lamb braai chops R119.99 kg WC CH CHHY Afr,Lamb braai chops,A0015,Afrikaans,L01,Standard,T0001,R119.99,PR011999,26/12/2016,01/01/2017,1234567,13,WC CH CHHY AFR.DSF
Lamb braai chops R119.99 kg WC CH CHHY Afr2,Lamb braai chops,A0015,Afrikaans,L01,Standard,T0001,R119.99,PR011999,26/12/2016,01/01/2017,1234567,17,WC CH CHHY AFR.DSF
Pork Texan Steak R59.99 kg WC CH CHHY EX HAL Eng,Pork Texan Steak,A0229,English,L02,Standard,T0001,R59.99,PR005999,26/12/2016,01/01/2017,1234567,10,WC CH CHHY ENG.DSF
Pork Texan Steak R59.99 kg WC CH CHHY EX HAL Eng2,Pork Texan Steak,A0229,English,L02,Standard,T0001,R59.99,PR005999,26/12/2016,01/01/2017,1234567,14,WC CH CHHY ENG.DSF
Pork Texan Steak R59.99 kg WC CH CHHY EX HAL Afr,Pork Texan Steak,A0229,Afrikaans,L01,Standard,T0001,R59.99,PR005999,26/12/2016,01/01/2017,1234567,11,WC CH CHHY AFR.DSF
Pork Texan Steak R59.99 kg WC CH CHHY EX HAL Afr2,Pork Texan Steak,A0229,Afrikaans,L01,Standard,T0001,R59.99,PR005999,26/12/2016,01/01/2017,1234567,15,WC CH CHHY AFR.DSF
Steak pack R84.99 kg WC CH CHHY Eng,Steak pack,A0058,English,L02,Standard,T0001,R84.99,PR008499,26/12/2016,01/01/2017,1234567,12,WC CH CHHY ENG.DSF
Steak pack R84.99 kg WC CH CHHY Eng2,Steak pack,A0058,English,L02,Standard,T0001,R84.99,PR008499,26/12/2016,01/01/2017,1234567,16,WC CH CHHY ENG.DSF
Steak pack R84.99 kg WC CH CHHY Afr,Steak pack,A0058,Afrikaans,L01,Standard,T0001,R84.99,PR008499,26/12/2016,01/01/2017,1234567,13,WC CH CHHY AFR.DSF
Steak pack R84.99 kg WC CH CHHY Afr2,Steak pack,A0058,Afrikaans,L01,Standard,T0001,R84.99,PR008499,26/12/2016,01/01/2017,1234567,17,WC CH CHHY AFR.DSF
Corned beef Tongue Afr R68.99 kg WC SR Eng,Corned beef Tongue Afr,A0192,English,L02,Standard,T0001,R68.99,PR006899,26/12/2016,27/12/2016,12,10,WC SR ENG.DSF
Corned beef Tongue Afr R68.99 kg WC SR Eng2,Corned beef Tongue Afr,A0192,English,L02,Standard,T0001,R68.99,PR006899,26/12/2016,27/12/2016,12,14,WC SR ENG.DSF
Corned beef Tongue Afr R68.99 kg WC SR Afr,Corned beef Tongue Afr,A0192,Afrikaans,L01,Standard,T0001,R68.99,PR006899,26/12/2016,27/12/2016,12,11,WC SR AFR.DSF
Corned beef Tongue Afr R68.99 kg WC SR Afr2,Corned beef Tongue Afr,A0192,Afrikaans,L01,Standard,T0001,R68.99,PR006899,26/12/2016,27/12/2016,12,15,WC SR AFR.DSF
Corned beef R78.99 kg WC SR Eng,Corned beef,A0077,English,L02,Standard,T0001,R78.99,PR007899,26/12/2016,27/12/2016,12,12,WC SR ENG.DSF
Corned beef R78.99 kg WC SR Eng2,Corned beef,A0077,English,L02,Standard,T0001,R78.99,PR007899,26/12/2016,27/12/2016,12,16,WC SR ENG.DSF
Corned beef R78.99 kg WC SR Afr,Corned beef,A0077,Afrikaans,L01,Standard,T0001,R78.99,PR007899,26/12/2016,27/12/2016,12,13,WC SR AFR.DSF
Corned beef R78.99 kg WC SR Afr2,Corned beef,A0077,Afrikaans,L01,Standard,T0001,R78.99,PR007899,26/12/2016,27/12/2016,12,17,WC SR AFR.DSF
Championship Boerewors Thick R64.99 kg WC SR Eng,Championship Boerewors Thick,A0261,English,L02,Standard,T0001,R64.99,PR006499,26/12/2016,31/12/2016,123456,10,WC SR ENG.DSF
Championship Boerewors Thick R64.99 kg WC SR Eng2,Championship Boerewors Thick,A0261,English,L02,Standard,T0001,R64.99,PR006499,26/12/2016,31/12/2016,123456,14,WC SR ENG.DSF
Championship Boerewors Thick R64.99 kg WC SR Afr,Championship Boerewors Thick,A0261,Afrikaans,L01,Standard,T0001,R64.99,PR006499,26/12/2016,31/12/2016,123456,11,WC SR AFR.DSF
Championship Boerewors Thick R64.99 kg WC SR Afr2,Championship Boerewors Thick,A0261,Afrikaans,L01,Standard,T0001,R64.99,PR006499,26/12/2016,31/12/2016,123456,15,WC SR AFR.DSF
All Roast Beef R79.99 kg WC SR Eng,All Roast Beef,A0201,English,L02,Standard,T0001,R79.99,PR007999,26/12/2016,27/12/2016,12,12,WC SR ENG.DSF
All Roast Beef R79.99 kg WC SR Eng2,All Roast Beef,A0201,English,L02,Standard,T0001,R79.99,PR007999,26/12/2016,27/12/2016,12,16,WC SR ENG.DSF
All Roast Beef R79.99 kg WC SR Afr,All Roast Beef,A0201,Afrikaans,L01,Standard,T0001,R79.99,PR007999,26/12/2016,27/12/2016,12,13,WC SR AFR.DSF
All Roast Beef R79.99 kg WC SR Afr2,All Roast Beef,A0201,Afrikaans,L01,Standard,T0001,R79.99,PR007999,26/12/2016,27/12/2016,12,17,WC SR AFR.DSF
Tenderised steak R79.99 kg WC SR Eng,Tenderised steak,A0029,English,L02,Standard,T0001,R79.99,PR007999,26/12/2016,31/12/2016,123456,10,WC SR ENG.DSF
Tenderised steak R79.99 kg WC SR Eng2,Tenderised steak,A0029,English,L02,Standard,T0001,R79.99,PR007999,26/12/2016,31/12/2016,123456,14,WC SR ENG.DSF
Tenderised steak R79.99 kg WC SR Afr,Tenderised steak,A0029,Afrikaans,L01,Standard,T0001,R79.99,PR007999,26/12/2016,31/12/2016,123456,11,WC SR AFR.DSF
Tenderised steak R79.99 kg WC SR Afr2,Tenderised steak,A0029,Afrikaans,L01,Standard,T0001,R79.99,PR007999,26/12/2016,31/12/2016,123456,15,WC SR AFR.DSF
Chicken Breast fillet R59.99 kg WC SR Eng,Chicken Breast fillet,A0150,English,L02,Standard,T0001,R59.99,PR005999,26/12/2016,31/12/2016,123456,12,WC SR ENG.DSF
Chicken Breast fillet R59.99 kg WC SR Eng2,Chicken Breast fillet,A0150,English,L02,Standard,T0001,R59.99,PR005999,26/12/2016,31/12/2016,123456,16,WC SR ENG.DSF
Chicken Breast fillet R59.99 kg WC SR Afr,Chicken Breast fillet,A0150,Afrikaans,L01,Standard,T0001,R59.99,PR005999,26/12/2016,31/12/2016,123456,13,WC SR AFR.DSF
Chicken Breast fillet R59.99 kg WC SR Afr2,Chicken Breast fillet,A0150,Afrikaans,L01,Standard,T0001,R59.99,PR005999,26/12/2016,31/12/2016,123456,17,WC SR AFR.DSF
Steak pack R79.99 kg WC SR Eng,Steak pack,A0058,English,L02,Standard,T0001,R79.99,PR007999,26/12/2016,27/12/2016,12,10,WC SR ENG.DSF
Steak pack R79.99 kg WC SR Eng2,Steak pack,A0058,English,L02,Standard,T0001,R79.99,PR007999,26/12/2016,27/12/2016,12,14,WC SR ENG.DSF
Steak pack R79.99 kg WC SR Afr,Steak pack,A0058,Afrikaans,L01,Standard,T0001,R79.99,PR007999,26/12/2016,27/12/2016,12,11,WC SR AFR.DSF
Steak pack R79.99 kg WC SR Afr2,Steak pack,A0058,Afrikaans,L01,Standard,T0001,R79.99,PR007999,26/12/2016,27/12/2016,12,15,WC SR AFR.DSF
Boneless Gammon R69.99 kg WC SR Eng,Boneless Gammon,A0147,English,L02,Standard,T0001,R69.99,PR006999,26/12/2016,27/12/2016,12,12,WC SR ENG.DSF
Boneless Gammon R69.99 kg WC SR Eng2,Boneless Gammon,A0147,English,L02,Standard,T0001,R69.99,PR006999,26/12/2016,27/12/2016,12,16,WC SR ENG.DSF
Boneless Gammon R69.99 kg WC SR Afr,Boneless Gammon,A0147,Afrikaans,L01,Standard,T0001,R69.99,PR006999,26/12/2016,27/12/2016,12,13,WC SR AFR.DSF
Boneless Gammon R69.99 kg WC SR Afr2,Boneless Gammon,A0147,Afrikaans,L01,Standard,T0001,R69.99,PR006999,26/12/2016,27/12/2016,12,17,WC SR AFR.DSF
Pork Texan Steak R59.99 kg WC SR EX HAL Eng,Pork Texan Steak,A0229,English,L02,Standard,T0001,R59.99,PR005999,26/12/2016,31/12/2016,123456,10,WC SR ENG.DSF
Pork Texan Steak R59.99 kg WC SR EX HAL Eng2,Pork Texan Steak,A0229,English,L02,Standard,T0001,R59.99,PR005999,26/12/2016,31/12/2016,123456,14,WC SR ENG.DSF
Pork Texan Steak R59.99 kg WC SR EX HAL Afr,Pork Texan Steak,A0229,Afrikaans,L01,Standard,T0001,R59.99,PR005999,26/12/2016,31/12/2016,123456,11,WC SR AFR.DSF
Pork Texan Steak R59.99 kg WC SR EX HAL Afr2,Pork Texan Steak,A0229,Afrikaans,L01,Standard,T0001,R59.99,PR005999,26/12/2016,31/12/2016,123456,15,WC SR AFR.DSF
Championship Boerewors Thick R64.99 kg EC CH CHHY Eng,Championship Boerewors Thick,A0261,English,L02,Standard,T0001,R64.99,PR006499,26/12/2016,01/01/2017,1234567,12,EC CH CHHY ENG.DSF
Championship Boerewors Thick R64.99 kg EC CH CHHY Eng2,Championship Boerewors Thick,A0261,English,L02,Standard,T0001,R64.99,PR006499,26/12/2016,01/01/2017,1234567,16,EC CH CHHY ENG.DSF
Texan steak R69.99 kg EC CH CHHY Eng,Texan steak,A0030,English,L02,Standard,T0001,R69.99,PR006999,26/12/2016,01/01/2017,1234567,13,EC CH CHHY ENG.DSF
Texan steak R69.99 kg EC CH CHHY Eng2,Texan steak,A0030,English,L02,Standard,T0001,R69.99,PR006999,26/12/2016,01/01/2017,1234567,17,EC CH CHHY ENG.DSF
Steak pack R84.99 kg EC CH CHHY Eng,Steak pack,A0058,English,L02,Standard,T0001,R84.99,PR008499,26/12/2016,01/01/2017,1234567,10,EC CH CHHY ENG.DSF
Steak pack R84.99 kg EC CH CHHY Eng2,Steak pack,A0058,English,L02,Standard,T0001,R84.99,PR008499,26/12/2016,01/01/2017,1234567,14,EC CH CHHY ENG.DSF
Grabouw boerewors (thick & thin) R56.99 kg KZN SR Eng,Grabouw boerewors (thick & thin),A0074,English,L02,Standard,T0001,R56.99,PR005699,28/12/2016,01/01/2017,34567,11,KZN SR ENG.DSF
Grabouw boerewors (thick & thin) R56.99 kg KZN SR Eng2,Grabouw boerewors (thick & thin),A0074,English,L02,Standard,T0001,R56.99,PR005699,28/12/2016,01/01/2017,34567,15,KZN SR ENG.DSF
Pork braai chops R59.99 kg KZN SR EX HAL Eng,Pork braai chops,A0018,English,L02,Standard,T0001,R59.99,PR005999,28/12/2016,01/01/2017,34567,12,KZN SR ENG.DSF
Pork braai chops R59.99 kg KZN SR EX HAL Eng2,Pork braai chops,A0018,English,L02,Standard,T0001,R59.99,PR005999,28/12/2016,01/01/2017,34567,16,KZN SR ENG.DSF
Mutton braai chops R79.99 kg KZN SR Eng,Mutton braai chops,A0052,English,L02,Standard,T0001,R79.99,PR007999,28/12/2016,01/01/2017,34567,13,KZN SR ENG.DSF
Mutton braai chops R79.99 kg KZN SR Eng2,Mutton braai chops,A0052,English,L02,Standard,T0001,R79.99,PR007999,28/12/2016,01/01/2017,34567,17,KZN SR ENG.DSF
Steak pack R79.99 kg KZN CH CHHY Eng,Steak pack,A0058,English,L02,Standard,T0001,R79.99,PR007999,26/12/2016,01/01/2017,1234567,10,KZN CH CHHY ENG.DSF
Steak pack R79.99 kg KZN CH CHHY Eng2,Steak pack,A0058,English,L02,Standard,T0001,R79.99,PR007999,26/12/2016,01/01/2017,1234567,14,KZN CH CHHY ENG.DSF
Championship Boerewors Thick R64.99 kg KZN CH CHHY Eng,Championship Boerewors Thick,A0261,English,L02,Standard,T0001,R64.99,PR006499,26/12/2016,01/01/2017,1234567,11,KZN CH CHHY ENG.DSF
Championship Boerewors Thick R64.99 kg KZN CH CHHY Eng2,Championship Boerewors Thick,A0261,English,L02,Standard,T0001,R64.99,PR006499,26/12/2016,01/01/2017,1234567,15,KZN CH CHHY ENG.DSF
Bulk lamb braai chops R98.99 kg KZN CH CHHY Eng,Bulk lamb braai chops,A0036,English,L02,Standard,T0001,R98.99,PR009899,26/12/2016,01/01/2017,1234567,12,KZN CH CHHY ENG.DSF
Bulk lamb braai chops R98.99 kg KZN CH CHHY Eng2,Bulk lamb braai chops,A0036,English,L02,Standard,T0001,R98.99,PR009899,26/12/2016,01/01/2017,1234567,16,KZN CH CHHY ENG.DSF
Steak pack R79.99 kg KZN CH CHHY Eng,Steak pack,A0058,English,L02,Standard,T0001,R79.99,PR007999,28/12/2016,01/01/2017,34567,13,KZN CH CHHY ENG.DSF
Steak pack R79.99 kg KZN CH CHHY Eng2,Steak pack,A0058,English,L02,Standard,T0001,R79.99,PR007999,28/12/2016,01/01/2017,34567,17,KZN CH CHHY ENG.DSF
Pork braai chops R59.99 kg KZN CH CHHY EX HAL Eng,Pork braai chops,A0018,English,L02,Standard,T0001,R59.99,PR005999,28/12/2016,01/01/2017,34567,10,KZN CH CHHY ENG.DSF
Pork braai chops R59.99 kg KZN CH CHHY EX HAL Eng2,Pork braai chops,A0018,English,L02,Standard,T0001,R59.99,PR005999,28/12/2016,01/01/2017,34567,14,KZN CH CHHY ENG.DSF
Championship Boerewors Thick R59.99 kg OFS CH CHHY Eng,Championship Boerewors Thick,A0261,English,L02,Standard,T0001,R59.99,PR005999,26/12/2016,01/01/2017,1234567,11,OFS CH CHHY ENG.DSF
Championship Boerewors Thick R59.99 kg OFS CH CHHY Eng2,Championship Boerewors Thick,A0261,English,L02,Standard,T0001,R59.99,PR005999,26/12/2016,01/01/2017,1234567,15,OFS CH CHHY ENG.DSF
Championship Boerewors Thick R59.99 kg OFS CH CHHY Afr,Championship Boerewors Thick,A0261,Afrikaans,L01,Standard,T0001,R59.99,PR005999,26/12/2016,01/01/2017,1234567,12,OFS CH CHHY AFR.DSF
Championship Boerewors Thick R59.99 kg OFS CH CHHY Afr2,Championship Boerewors Thick,A0261,Afrikaans,L01,Standard,T0001,R59.99,PR005999,26/12/2016,01/01/2017,1234567,16,OFS CH CHHY AFR.DSF
Pork Texan Steak R56.99 kg OFS CH CHHY EX HAL Eng,Pork Texan Steak,A0229,English,L02,Standard,T0001,R56.99,PR005699,26/12/2016,01/01/2017,1234567,13,OFS CH CHHY ENG.DSF
Pork Texan Steak R56.99 kg OFS CH CHHY EX HAL Eng2,Pork Texan Steak,A0229,English,L02,Standard,T0001,R56.99,PR005699,26/12/2016,01/01/2017,1234567,17,OFS CH CHHY ENG.DSF
Pork Texan Steak R56.99 kg OFS CH CHHY EX HAL Afr,Pork Texan Steak,A0229,Afrikaans,L01,Standard,T0001,R56.99,PR005699,26/12/2016,01/01/2017,1234567,10,OFS CH CHHY AFR.DSF
Pork Texan Steak R56.99 kg OFS CH CHHY EX HAL Afr2,Pork Texan Steak,A0229,Afrikaans,L01,Standard,T0001,R56.99,PR005699,26/12/2016,01/01/2017,1234567,14,OFS CH CHHY AFR.DSF
Karoo Braaiwors R56.9 kg GN SR Eng,Karoo Braaiwors,A0265,English,L02,Standard,T0001,R56.90,PR005690,29/12/2016,01/01/2017,4567,11,GN SR ENG.DSF
Karoo Braaiwors R56.9 kg GN SR Eng2,Karoo Braaiwors,A0265,English,L02,Standard,T0001,R56.90,PR005690,29/12/2016,01/01/2017,4567,15,GN SR ENG.DSF
Karoo Braaiwors R56.9 kg GN SR Afr,Karoo Braaiwors,A0265,Afrikaans,L01,Standard,T0001,R56.90,PR005690,29/12/2016,01/01/2017,4567,12,GN SR AFR.DSF
Karoo Braaiwors R56.9 kg GN SR Afr2,Karoo Braaiwors,A0265,Afrikaans,L01,Standard,T0001,R56.90,PR005690,29/12/2016,01/01/2017,4567,16,GN SR AFR.DSF
Steak pack R69.9 kg GN SR Eng,Steak pack,A0058,English,L02,Standard,T0001,R69.90,PR006990,29/12/2016,01/01/2017,4567,13,GN SR ENG.DSF
Steak pack R69.9 kg GN SR Eng2,Steak pack,A0058,English,L02,Standard,T0001,R69.90,PR006990,29/12/2016,01/01/2017,4567,17,GN SR ENG.DSF
Steak pack R69.9 kg GN SR Afr,Steak pack,A0058,Afrikaans,L01,Standard,T0001,R69.90,PR006990,29/12/2016,01/01/2017,4567,10,GN SR AFR.DSF
Steak pack R69.9 kg GN SR Afr2,Steak pack,A0058,Afrikaans,L01,Standard,T0001,R69.90,PR006990,29/12/2016,01/01/2017,4567,14,GN SR AFR.DSF
Texan steak R59.9 kg GN SR Eng,Texan steak,A0030,English,L02,Standard,T0001,R59.90,PR005990,29/12/2016,01/01/2017,4567,11,GN SR ENG.DSF
Texan steak R59.9 kg GN SR Eng2,Texan steak,A0030,English,L02,Standard,T0001,R59.90,PR005990,29/12/2016,01/01/2017,4567,15,GN SR ENG.DSF
Texan steak R59.9 kg GN SR Afr,Texan steak,A0030,Afrikaans,L01,Standard,T0001,R59.90,PR005990,29/12/2016,01/01/2017,4567,12,GN SR AFR.DSF
Texan steak R59.9 kg GN SR Afr2,Texan steak,A0030,Afrikaans,L01,Standard,T0001,R59.90,PR005990,29/12/2016,01/01/2017,4567,16,GN SR AFR.DSF
Beef Club and T-Bone R79.9 kg GN CH CHHY Eng,Beef Club and T-Bone,A0215,English,L02,Standard,T0001,R79.90,PR007990,26/12/2016,01/01/2017,1234567,13,GN CH CHHY ENG.DSF
Beef Club and T-Bone R79.9 kg GN CH CHHY Eng2,Beef Club and T-Bone,A0215,English,L02,Standard,T0001,R79.90,PR007990,26/12/2016,01/01/2017,1234567,17,GN CH CHHY ENG.DSF
Beef Club and T-Bone R79.9 kg GN CH CHHY Afr,Beef Club and T-Bone,A0215,Afrikaans,L01,Standard,T0001,R79.90,PR007990,26/12/2016,01/01/2017,1234567,10,GN CH CHHY AFR.DSF
Beef Club and T-Bone R79.9 kg GN CH CHHY Afr2,Beef Club and T-Bone,A0215,Afrikaans,L01,Standard,T0001,R79.90,PR007990,26/12/2016,01/01/2017,1234567,14,GN CH CHHY AFR.DSF
Championship Boerewors Thick R65.0 kg GN CH CHHY Eng,Championship Boerewors Thick,A0261,English,L02,Standard,T0001,R65.00,PR006500,26/12/2016,01/01/2017,1234567,11,GN CH CHHY ENG.DSF
Championship Boerewors Thick R65.0 kg GN CH CHHY Eng2,Championship Boerewors Thick,A0261,English,L02,Standard,T0001,R65.00,PR006500,26/12/2016,01/01/2017,1234567,15,GN CH CHHY ENG.DSF
Championship Boerewors Thick R65.0 kg GN CH CHHY Afr,Championship Boerewors Thick,A0261,Afrikaans,L01,Standard,T0001,R65.00,PR006500,26/12/2016,01/01/2017,1234567,12,GN CH CHHY AFR.DSF
Championship Boerewors Thick R65.0 kg GN CH CHHY Afr2,Championship Boerewors Thick,A0261,Afrikaans,L01,Standard,T0001,R65.00,PR006500,26/12/2016,01/01/2017,1234567,16,GN CH CHHY AFR.DSF
Lamb braai rib R89.9 kg GN CH CHHY Eng,Lamb braai rib,A0064,English,L02,Standard,T0001,R89.90,PR008990,26/12/2016,01/01/2017,1234567,13,GN CH CHHY ENG.DSF
Lamb braai rib R89.9 kg GN CH CHHY Eng2,Lamb braai rib,A0064,English,L02,Standard,T0001,R89.90,PR008990,26/12/2016,01/01/2017,1234567,17,GN CH CHHY ENG.DSF
Lamb braai rib R89.9 kg GN CH CHHY Afr,Lamb braai rib,A0064,Afrikaans,L01,Standard,T0001,R89.90,PR008990,26/12/2016,01/01/2017,1234567,10,GN CH CHHY AFR.DSF
Lamb braai rib R89.9 kg GN CH CHHY Afr2,Lamb braai rib,A0064,Afrikaans,L01,Standard,T0001,R89.90,PR008990,26/12/2016,01/01/2017,1234567,14,GN CH CHHY AFR.DSF
Beef Club and T-Bone R79.9 kg GN CH CHHY Eng,Beef Club and T-Bone,A0215,English,L02,Standard,T0001,R79.90,PR007990,29/12/2016,01/01/2017,4567,11,GN CH CHHY ENG.DSF
Beef Club and T-Bone R79.9 kg GN CH CHHY Eng2,Beef Club and T-Bone,A0215,English,L02,Standard,T0001,R79.90,PR007990,29/12/2016,01/01/2017,4567,15,GN CH CHHY ENG.DSF
Beef Club and T-Bone R79.9 kg GN CH CHHY Afr,Beef Club and T-Bone,A0215,Afrikaans,L01,Standard,T0001,R79.90,PR007990,29/12/2016,01/01/2017,4567,12,GN CH CHHY AFR.DSF
Beef Club and T-Bone R79.9 kg GN CH CHHY Afr2,Beef Club and T-Bone,A0215,Afrikaans,L01,Standard,T0001,R79.90,PR007990,29/12/2016,01/01/2017,4567,16,GN CH CHHY AFR.DSF
Championship Boerewors Thick R65.0 kg GN CH CHHY Eng,Championship Boerewors Thick,A0261,English,L02,Standard,T0001,R65.00,PR006500,29/12/2016,01/01/2017,4567,13,GN CH CHHY ENG.DSF
Championship Boerewors Thick R65.0 kg GN CH CHHY Eng2,Championship Boerewors Thick,A0261,English,L02,Standard,T0001,R65.00,PR006500,29/12/2016,01/01/2017,4567,17,GN CH CHHY ENG.DSF
Championship Boerewors Thick R65.0 kg GN CH CHHY Afr,Championship Boerewors Thick,A0261,Afrikaans,L01,Standard,T0001,R65.00,PR006500,29/12/2016,01/01/2017,4567,10,GN CH CHHY AFR.DSF
Championship Boerewors Thick R65.0 kg GN CH CHHY Afr2,Championship Boerewors Thick,A0261,Afrikaans,L01,Standard,T0001,R65.00,PR006500,29/12/2016,01/01/2017,4567,14,GN CH CHHY AFR.DSF
Lamb braai rib R89.9 kg GN CH CHHY Eng,Lamb braai rib,A0064,English,L02,Standard,T0001,R89.90,PR008990,29/12/2016,01/01/2017,4567,11,GN CH CHHY ENG.DSF
Lamb braai rib R89.9 kg GN CH CHHY Eng2,Lamb braai rib,A0064,English,L02,Standard,T0001,R89.90,PR008990,29/12/2016,01/01/2017,4567,15,GN CH CHHY ENG.DSF
Lamb braai rib R89.9 kg GN CH CHHY Afr,Lamb braai rib,A0064,Afrikaans,L01,Standard,T0001,R89.90,PR008990,29/12/2016,01/01/2017,4567,12,GN CH CHHY AFR.DSF
Lamb braai rib R89.9 kg GN CH CHHY Afr2,Lamb braai rib,A0064,Afrikaans,L01,Standard,T0001,R89.90,PR008990,29/12/2016,01/01/2017,4567,16,GN CH CHHY AFR.DSF
Boneless Gammon R68.99 kg NAMIBIA SR Eng,Boneless Gammon,A0147,English,L02,Standard,T0001,R68.99,PR006899,26/12/2016,01/01/2017,1234567,13,NAMIBIA SR ENG.DSF
Boneless Gammon R68.99 kg NAMIBIA SR Eng2,Boneless Gammon,A0147,English,L02,Standard,T0001,R68.99,PR006899,26/12/2016,01/01/2017,1234567,17,NAMIBIA SR ENG.DSF
Corned beef Tongue Afr R64.99 kg NAMIBIA SR Eng,Corned beef Tongue Afr,A0192,English,L02,Standard,T0001,R64.99,PR006499,26/12/2016,01/01/2017,1234567,10,NAMIBIA SR ENG.DSF
Corned beef Tongue Afr R64.99 kg NAMIBIA SR Eng2,Corned beef Tongue Afr,A0192,English,L02,Standard,T0001,R64.99,PR006499,26/12/2016,01/01/2017,1234567,14,NAMIBIA SR ENG.DSF
Stewing beef R62.99 kg NAMIBIA SR Eng,Stewing beef,A0059,English,L02,Standard,T0001,R62.99,PR006299,26/12/2016,01/01/2017,1234567,11,NAMIBIA SR ENG.DSF
Stewing beef R62.99 kg NAMIBIA SR Eng2,Stewing beef,A0059,English,L02,Standard,T0001,R62.99,PR006299,26/12/2016,01/01/2017,1234567,15,NAMIBIA SR ENG.DSF
Boneless Gammon R68.99 kg NAMIBIA CH CHHY Eng,Boneless Gammon,A0147,English,L02,Standard,T0001,R68.99,PR006899,26/12/2016,01/01/2017,1234567,12,NAMIBIA CH CHHY ENG.DSF
Boneless Gammon R68.99 kg NAMIBIA CH CHHY Eng2,Boneless Gammon,A0147,English,L02,Standard,T0001,R68.99,PR006899,26/12/2016,01/01/2017,1234567,16,NAMIBIA CH CHHY ENG.DSF
Corned beef Tongue Afr R64.99 kg NAMIBIA CH CHHY Eng,Corned beef Tongue Afr,A0192,English,L02,Standard,T0001,R64.99,PR006499,26/12/2016,01/01/2017,1234567,13,NAMIBIA CH CHHY ENG.DSF
Corned beef Tongue Afr R64.99 kg NAMIBIA CH CHHY Eng2,Corned beef Tongue Afr,A0192,English,L02,Standard,T0001,R64.99,PR006499,26/12/2016,01/01/2017,1234567,17,NAMIBIA CH CHHY ENG.DSF
Pork roast R68.99 kg NAMIBIA CH CHHY EX HAL Eng,Pork roast,A0055,English,L02,Standard,T0001,R68.99,PR006899,26/12/2016,01/01/2017,1234567,10,NAMIBIA CH CHHY ENG.DSF
Pork roast R68.99 kg NAMIBIA CH CHHY EX HAL Eng2,Pork roast,A0055,English,L02,Standard,T0001,R68.99,PR006899,26/12/2016,01/01/2017,1234567,14,NAMIBIA CH CHHY ENG.DSF
