Description,Product,Product Code,Language,Language Code,Theme,Theme Code,Price,Price code,Start Date,End Date,Weekdays,Playing At,Store Listing File
Pork Texan Steak R59.99 kg WC CH CHHY EX HAL Eng,Pork Texan Steak,A0229,English,L02,Standard,T0001,R59.99,PR005999,25/01/2017,29/01/2017,34567,10,WC CH CHHY ENG.DSF
Pork Texan Steak R59.99 kg WC CH CHHY EX HAL Eng2,Pork Texan Steak,A0229,English,L02,Standard,T0001,R59.99,PR005999,25/01/2017,29/01/2017,34567,14,WC CH CHHY ENG.DSF
Pork Texan Steak R59.99 kg WC CH CHHY EX HAL Afr,Pork Texan Steak,A0229,Afrikaans,L01,Standard,T0001,R59.99,PR005999,25/01/2017,29/01/2017,34567,11,WC CH CHHY AFR.DSF
Pork Texan Steak R59.99 kg WC CH CHHY EX HAL Afr2,Pork Texan Steak,A0229,Afrikaans,L01,Standard,T0001,R59.99,PR005999,25/01/2017,29/01/2017,34567,15,WC CH CHHY AFR.DSF
Steak pack R79.99 kg WC SR Eng,Steak pack,A0058,English,L02,Standard,T0001,R79.99,PR007999,23/01/2017,29/01/2017,1234567,12,WC SR ENG.DSF
Steak pack R79.99 kg WC SR Eng2,Steak pack,A0058,English,L02,Standard,T0001,R79.99,PR007999,23/01/2017,29/01/2017,1234567,16,WC SR ENG.DSF
Steak pack R79.99 kg WC SR Afr,Steak pack,A0058,Afrikaans,L01,Standard,T0001,R79.99,PR007999,23/01/2017,29/01/2017,1234567,13,WC SR AFR.DSF
Steak pack R79.99 kg WC SR Afr2,Steak pack,A0058,Afrikaans,L01,Standard,T0001,R79.99,PR007999,23/01/2017,29/01/2017,1234567,17,WC SR AFR.DSF
Championship Boerewors Thick R64.99 kg WC SR Eng,Championship Boerewors Thick,A0261,English,L02,Standard,T0001,R64.99,PR006499,23/01/2017,29/01/2017,1234567,10,WC SR ENG.DSF
Championship Boerewors Thick R64.99 kg WC SR Eng2,Championship Boerewors Thick,A0261,English,L02,Standard,T0001,R64.99,PR006499,23/01/2017,29/01/2017,1234567,14,WC SR ENG.DSF
Championship Boerewors Thick R64.99 kg WC SR Afr,Championship Boerewors Thick,A0261,Afrikaans,L01,Standard,T0001,R64.99,PR006499,23/01/2017,29/01/2017,1234567,11,WC SR AFR.DSF
Championship Boerewors Thick R64.99 kg WC SR Afr2,Championship Boerewors Thick,A0261,Afrikaans,L01,Standard,T0001,R64.99,PR006499,23/01/2017,29/01/2017,1234567,15,WC SR AFR.DSF
Pork Texan Steak R59.99 kg WC SR EX HAL Eng,Pork Texan Steak,A0229,English,L02,Standard,T0001,R59.99,PR005999,23/01/2017,29/01/2017,1234567,12,WC SR ENG.DSF
Pork Texan Steak R59.99 kg WC SR EX HAL Eng2,Pork Texan Steak,A0229,English,L02,Standard,T0001,R59.99,PR005999,23/01/2017,29/01/2017,1234567,16,WC SR ENG.DSF
Pork Texan Steak R59.99 kg WC SR EX HAL Afr,Pork Texan Steak,A0229,Afrikaans,L01,Standard,T0001,R59.99,PR005999,23/01/2017,29/01/2017,1234567,13,WC SR AFR.DSF
Pork Texan Steak R59.99 kg WC SR EX HAL Afr2,Pork Texan Steak,A0229,Afrikaans,L01,Standard,T0001,R59.99,PR005999,23/01/2017,29/01/2017,1234567,17,WC SR AFR.DSF
Rooikrantz boerewors R64.99 kg EC CH CHHY Eng,Rooikrantz boerewors,A0023,English,L02,Standard,T0001,R64.99,PR006499,23/01/2017,29/01/2017,1234567,10,EC CH CHHY ENG.DSF
Rooikrantz boerewors R64.99 kg EC CH CHHY Eng2,Rooikrantz boerewors,A0023,English,L02,Standard,T0001,R64.99,PR006499,23/01/2017,29/01/2017,1234567,14,EC CH CHHY ENG.DSF
All Roast Beef R79.99 kg EC CH CHHY Eng,All Roast Beef,A0201,English,L02,Standard,T0001,R79.99,PR007999,23/01/2017,29/01/2017,1234567,11,EC CH CHHY ENG.DSF
All Roast Beef R79.99 kg EC CH CHHY Eng2,All Roast Beef,A0201,English,L02,Standard,T0001,R79.99,PR007999,23/01/2017,29/01/2017,1234567,15,EC CH CHHY ENG.DSF
Steak pack R84.99 kg EC CH CHHY Eng,Steak pack,A0058,English,L02,Standard,T0001,R84.99,PR008499,23/01/2017,29/01/2017,1234567,12,EC CH CHHY ENG.DSF
Steak pack R84.99 kg EC CH CHHY Eng2,Steak pack,A0058,English,L02,Standard,T0001,R84.99,PR008499,23/01/2017,29/01/2017,1234567,16,EC CH CHHY ENG.DSF
Lean beef mince R68.99 kg EC CH CHHY Eng,Lean beef mince,A0017,English,L02,Standard,T0001,R68.99,PR006899,23/01/2017,29/01/2017,1234567,13,EC CH CHHY ENG.DSF
Lean beef mince R68.99 kg EC CH CHHY Eng2,Lean beef mince,A0017,English,L02,Standard,T0001,R68.99,PR006899,23/01/2017,29/01/2017,1234567,17,EC CH CHHY ENG.DSF
Grabouw boerewors (thick & thin) R59.99 kg EC SR Eng,Grabouw boerewors (thick & thin),A0074,English,L02,Standard,T0001,R59.99,PR005999,23/01/2017,29/01/2017,1234567,10,EC SR ENG.DSF
Grabouw boerewors (thick & thin) R59.99 kg EC SR Eng2,Grabouw boerewors (thick & thin),A0074,English,L02,Standard,T0001,R59.99,PR005999,23/01/2017,29/01/2017,1234567,14,EC SR ENG.DSF
Pork braai chops R59.99 kg EC SR EX HAL Eng,Pork braai chops,A0018,English,L02,Standard,T0001,R59.99,PR005999,23/01/2017,29/01/2017,1234567,11,EC SR ENG.DSF
Pork braai chops R59.99 kg EC SR EX HAL Eng2,Pork braai chops,A0018,English,L02,Standard,T0001,R59.99,PR005999,23/01/2017,29/01/2017,1234567,15,EC SR ENG.DSF
Traditional ground beef R56.99 kg EC SR Eng,Traditional ground beef,A0032,English,L02,Standard,T0001,R56.99,PR005699,23/01/2017,29/01/2017,1234567,12,EC SR ENG.DSF
Traditional ground beef R56.99 kg EC SR Eng2,Traditional ground beef,A0032,English,L02,Standard,T0001,R56.99,PR005699,23/01/2017,29/01/2017,1234567,16,EC SR ENG.DSF
Beef potjiekos R58.99 kg EC SR Eng,Beef potjiekos,A0033,English,L02,Standard,T0001,R58.99,PR005899,23/01/2017,29/01/2017,1234567,13,EC SR ENG.DSF
Beef potjiekos R58.99 kg EC SR Eng2,Beef potjiekos,A0033,English,L02,Standard,T0001,R58.99,PR005899,23/01/2017,29/01/2017,1234567,17,EC SR ENG.DSF
Beef potjiekos R58.99 kg EC ECP Eng,Beef potjiekos,A0033,English,L02,Standard,T0001,R58.99,PR005899,23/01/2017,29/01/2017,1234567,10,EC ECP ENG.DSF
Beef potjiekos R58.99 kg EC ECP Eng2,Beef potjiekos,A0033,English,L02,Standard,T0001,R58.99,PR005899,23/01/2017,29/01/2017,1234567,14,EC ECP ENG.DSF
Traditional ground beef R56.99 kg EC ECP Eng,Traditional ground beef,A0032,English,L02,Standard,T0001,R56.99,PR005699,23/01/2017,29/01/2017,1234567,11,EC ECP ENG.DSF
Traditional ground beef R56.99 kg EC ECP Eng2,Traditional ground beef,A0032,English,L02,Standard,T0001,R56.99,PR005699,23/01/2017,29/01/2017,1234567,15,EC ECP ENG.DSF
Econo Braaiwors R39.99 kg EC ECP Eng,Econo Braaiwors,A0223,English,L02,Standard,T0001,R39.99,PR003999,23/01/2017,29/01/2017,1234567,12,EC ECP ENG.DSF
Econo Braaiwors R39.99 kg EC ECP Eng2,Econo Braaiwors,A0223,English,L02,Standard,T0001,R39.99,PR003999,23/01/2017,29/01/2017,1234567,16,EC ECP ENG.DSF
Pork braai chops R59.99 kg EC ECP EX HAL Eng,Pork braai chops,A0018,English,L02,Standard,T0001,R59.99,PR005999,23/01/2017,29/01/2017,1234567,13,EC ECP ENG.DSF
Pork braai chops R59.99 kg EC ECP EX HAL Eng2,Pork braai chops,A0018,English,L02,Standard,T0001,R59.99,PR005999,23/01/2017,29/01/2017,1234567,17,EC ECP ENG.DSF
Stewing beef R56.99 kg KZN SR Eng,Stewing beef,A0059,English,L02,Standard,T0001,R56.99,PR005699,23/01/2017,29/01/2017,1234567,10,KZN SR ENG.DSF
Stewing beef R56.99 kg KZN SR Eng2,Stewing beef,A0059,English,L02,Standard,T0001,R56.99,PR005699,23/01/2017,29/01/2017,1234567,14,KZN SR ENG.DSF
Traditional ground beef R46.99 kg KZN SR Eng,Traditional ground beef,A0032,English,L02,Standard,T0001,R46.99,PR004699,23/01/2017,29/01/2017,1234567,11,KZN SR ENG.DSF
Traditional ground beef R46.99 kg KZN SR Eng2,Traditional ground beef,A0032,English,L02,Standard,T0001,R46.99,PR004699,23/01/2017,29/01/2017,1234567,15,KZN SR ENG.DSF
Grabouw boerewors (thick & thin) R49.99 kg KZN SR Eng,Grabouw boerewors (thick & thin),A0074,English,L02,Standard,T0001,R49.99,PR004999,23/01/2017,29/01/2017,1234567,12,KZN SR ENG.DSF
Grabouw boerewors (thick & thin) R49.99 kg KZN SR Eng2,Grabouw boerewors (thick & thin),A0074,English,L02,Standard,T0001,R49.99,PR004999,23/01/2017,29/01/2017,1234567,16,KZN SR ENG.DSF
Steak pack R69.99 kg KZN CH CHHY Eng,Steak pack,A0058,English,L02,Standard,T0001,R69.99,PR006999,23/01/2017,29/01/2017,1234567,13,KZN CH CHHY ENG.DSF
Steak pack R69.99 kg KZN CH CHHY Eng2,Steak pack,A0058,English,L02,Standard,T0001,R69.99,PR006999,23/01/2017,29/01/2017,1234567,17,KZN CH CHHY ENG.DSF
Pork packs R49.99 kg SWAZILAND SR EX HAL Eng,Pork packs,A0019,English,L02,Standard,T0001,R49.99,PR004999,23/01/2017,29/01/2017,1234567,10,SWAZILAND SR ENG.DSF
Pork packs R49.99 kg SWAZILAND SR EX HAL Eng2,Pork packs,A0019,English,L02,Standard,T0001,R49.99,PR004999,23/01/2017,29/01/2017,1234567,14,SWAZILAND SR ENG.DSF
Traditional ground beef R46.99 kg SWAZILAND SR Eng,Traditional ground beef,A0032,English,L02,Standard,T0001,R46.99,PR004699,23/01/2017,29/01/2017,1234567,11,SWAZILAND SR ENG.DSF
Traditional ground beef R46.99 kg SWAZILAND SR Eng2,Traditional ground beef,A0032,English,L02,Standard,T0001,R46.99,PR004699,23/01/2017,29/01/2017,1234567,15,SWAZILAND SR ENG.DSF
Lean beef mince R64.99 kg OFS CH CHHY Eng,Lean beef mince,A0017,English,L02,Standard,T0001,R64.99,PR006499,25/01/2017,29/01/2017,34567,12,OFS CH CHHY ENG.DSF
Lean beef mince R64.99 kg OFS CH CHHY Eng2,Lean beef mince,A0017,English,L02,Standard,T0001,R64.99,PR006499,25/01/2017,29/01/2017,34567,16,OFS CH CHHY ENG.DSF
Lean beef mince R64.99 kg OFS CH CHHY Afr,Lean beef mince,A0017,Afrikaans,L01,Standard,T0001,R64.99,PR006499,25/01/2017,29/01/2017,34567,13,OFS CH CHHY AFR.DSF
Lean beef mince R64.99 kg OFS CH CHHY Afr2,Lean beef mince,A0017,Afrikaans,L01,Standard,T0001,R64.99,PR006499,25/01/2017,29/01/2017,34567,17,OFS CH CHHY AFR.DSF
Beef goulash R84.99 kg OFS CH CHHY Eng,Beef goulash,A0003,English,L02,Standard,T0001,R84.99,PR008499,25/01/2017,29/01/2017,34567,10,OFS CH CHHY ENG.DSF
Beef goulash R84.99 kg OFS CH CHHY Eng2,Beef goulash,A0003,English,L02,Standard,T0001,R84.99,PR008499,25/01/2017,29/01/2017,34567,14,OFS CH CHHY ENG.DSF
Beef goulash R84.99 kg OFS CH CHHY Afr,Beef goulash,A0003,Afrikaans,L01,Standard,T0001,R84.99,PR008499,25/01/2017,29/01/2017,34567,11,OFS CH CHHY AFR.DSF
Beef goulash R84.99 kg OFS CH CHHY Afr2,Beef goulash,A0003,Afrikaans,L01,Standard,T0001,R84.99,PR008499,25/01/2017,29/01/2017,34567,15,OFS CH CHHY AFR.DSF
Stewing beef R56.99 kg LESOTHO SR Eng,Stewing beef,A0059,English,L02,Standard,T0001,R56.99,PR005699,23/01/2017,29/01/2017,1234567,12,LESOTHO SR ENG.DSF
Stewing beef R56.99 kg LESOTHO SR Eng2,Stewing beef,A0059,English,L02,Standard,T0001,R56.99,PR005699,23/01/2017,29/01/2017,1234567,16,LESOTHO SR ENG.DSF
Traditional ground beef R49.99 kg LESOTHO SR Eng,Traditional ground beef,A0032,English,L02,Standard,T0001,R49.99,PR004999,23/01/2017,29/01/2017,1234567,13,LESOTHO SR ENG.DSF
Traditional ground beef R49.99 kg LESOTHO SR Eng2,Traditional ground beef,A0032,English,L02,Standard,T0001,R49.99,PR004999,23/01/2017,29/01/2017,1234567,17,LESOTHO SR ENG.DSF
Karoo Braaiwors R49.99 kg LESOTHO SR Eng,Karoo Braaiwors,A0265,English,L02,Standard,T0001,R49.99,PR004999,23/01/2017,29/01/2017,1234567,10,LESOTHO SR ENG.DSF
Karoo Braaiwors R49.99 kg LESOTHO SR Eng2,Karoo Braaiwors,A0265,English,L02,Standard,T0001,R49.99,PR004999,23/01/2017,29/01/2017,1234567,14,LESOTHO SR ENG.DSF
Karoo Braaiwors R56.9 kg GN SR Eng,Karoo Braaiwors,A0265,English,L02,Standard,T0001,R56.90,PR005690,23/01/2017,29/01/2017,1234567,11,GN SR ENG.DSF
Karoo Braaiwors R56.9 kg GN SR Eng2,Karoo Braaiwors,A0265,English,L02,Standard,T0001,R56.90,PR005690,23/01/2017,29/01/2017,1234567,15,GN SR ENG.DSF
Karoo Braaiwors R56.9 kg GN SR Afr,Karoo Braaiwors,A0265,Afrikaans,L01,Standard,T0001,R56.90,PR005690,23/01/2017,29/01/2017,1234567,12,GN SR AFR.DSF
Karoo Braaiwors R56.9 kg GN SR Afr2,Karoo Braaiwors,A0265,Afrikaans,L01,Standard,T0001,R56.90,PR005690,23/01/2017,29/01/2017,1234567,16,GN SR AFR.DSF
Highnoon burger mince R46.9 kg GN SR Eng,Highnoon burger mince,A0111,English,L02,Standard,T0001,R46.90,PR004690,23/01/2017,29/01/2017,1234567,13,GN SR ENG.DSF
Highnoon burger mince R46.9 kg GN SR Eng2,Highnoon burger mince,A0111,English,L02,Standard,T0001,R46.90,PR004690,23/01/2017,29/01/2017,1234567,17,GN SR ENG.DSF
Highnoon burger mince R46.9 kg GN SR Afr,Highnoon burger mince,A0111,Afrikaans,L01,Standard,T0001,R46.90,PR004690,23/01/2017,29/01/2017,1234567,10,GN SR AFR.DSF
Highnoon burger mince R46.9 kg GN SR Afr2,Highnoon burger mince,A0111,Afrikaans,L01,Standard,T0001,R46.90,PR004690,23/01/2017,29/01/2017,1234567,14,GN SR AFR.DSF
Steak pack R69.9 kg GN SR Eng,Steak pack,A0058,English,L02,Standard,T0001,R69.90,PR006990,23/01/2017,29/01/2017,1234567,11,GN SR ENG.DSF
Steak pack R69.9 kg GN SR Eng2,Steak pack,A0058,English,L02,Standard,T0001,R69.90,PR006990,23/01/2017,29/01/2017,1234567,15,GN SR ENG.DSF
Steak pack R69.9 kg GN SR Afr,Steak pack,A0058,Afrikaans,L01,Standard,T0001,R69.90,PR006990,23/01/2017,29/01/2017,1234567,12,GN SR AFR.DSF
Steak pack R69.9 kg GN SR Afr2,Steak pack,A0058,Afrikaans,L01,Standard,T0001,R69.90,PR006990,23/01/2017,29/01/2017,1234567,16,GN SR AFR.DSF
Lean beef mince R69.9 kg GN CH CHHY Eng,Lean beef mince,A0017,English,L02,Standard,T0001,R69.90,PR006990,23/01/2017,29/01/2017,1234567,13,GN CH CHHY ENG.DSF
Lean beef mince R69.9 kg GN CH CHHY Eng2,Lean beef mince,A0017,English,L02,Standard,T0001,R69.90,PR006990,23/01/2017,29/01/2017,1234567,17,GN CH CHHY ENG.DSF
Lean beef mince R69.9 kg GN CH CHHY Afr,Lean beef mince,A0017,Afrikaans,L01,Standard,T0001,R69.90,PR006990,23/01/2017,29/01/2017,1234567,10,GN CH CHHY AFR.DSF
Lean beef mince R69.9 kg GN CH CHHY Afr2,Lean beef mince,A0017,Afrikaans,L01,Standard,T0001,R69.90,PR006990,23/01/2017,29/01/2017,1234567,14,GN CH CHHY AFR.DSF
Steak House Classic Porterhouse Steak 300g R30.0 300g GN CH CHHY Eng,Steak House Classic Porterhouse Steak 300g,A0275,English,L02,Standard,T0001,R30.00,PR003000,23/01/2017,29/01/2017,1234567,11,GN CH CHHY ENG.DSF
Steak House Classic Porterhouse Steak 300g R30.0 300g GN CH CHHY Eng2,Steak House Classic Porterhouse Steak 300g,A0275,English,L02,Standard,T0001,R30.00,PR003000,23/01/2017,29/01/2017,1234567,15,GN CH CHHY ENG.DSF
Steak House Classic Porterhouse Steak 300g R30.0 300g GN CH CHHY Afr,Steak House Classic Porterhouse Steak 300g,A0275,Afrikaans,L01,Standard,T0001,R30.00,PR003000,23/01/2017,29/01/2017,1234567,12,GN CH CHHY AFR.DSF
Steak House Classic Porterhouse Steak 300g R30.0 300g GN CH CHHY Afr2,Steak House Classic Porterhouse Steak 300g,A0275,Afrikaans,L01,Standard,T0001,R30.00,PR003000,23/01/2017,29/01/2017,1234567,16,GN CH CHHY AFR.DSF
Steak House Classic Rump 300g R30.0 300g GN CH CHHY Eng,Steak House Classic Rump 300g,A0278,English,L02,Standard,T0001,R30.00,PR003000,23/01/2017,29/01/2017,1234567,13,GN CH CHHY ENG.DSF
Steak House Classic Rump 300g R30.0 300g GN CH CHHY Eng2,Steak House Classic Rump 300g,A0278,English,L02,Standard,T0001,R30.00,PR003000,23/01/2017,29/01/2017,1234567,17,GN CH CHHY ENG.DSF
Steak House Classic Rump 300g R30.0 300g GN CH CHHY Afr,Steak House Classic Rump 300g,A0278,Afrikaans,L01,Standard,T0001,R30.00,PR003000,23/01/2017,29/01/2017,1234567,10,GN CH CHHY AFR.DSF
Steak House Classic Rump 300g R30.0 300g GN CH CHHY Afr2,Steak House Classic Rump 300g,A0278,Afrikaans,L01,Standard,T0001,R30.00,PR003000,23/01/2017,29/01/2017,1234567,14,GN CH CHHY AFR.DSF
Texan steak R59.9 kg GN CH CHHY Eng,Texan steak,A0030,English,L02,Standard,T0001,R59.90,PR005990,23/01/2017,29/01/2017,1234567,11,GN CH CHHY ENG.DSF
Texan steak R59.9 kg GN CH CHHY Eng2,Texan steak,A0030,English,L02,Standard,T0001,R59.90,PR005990,23/01/2017,29/01/2017,1234567,15,GN CH CHHY ENG.DSF
Texan steak R59.9 kg GN CH CHHY Afr,Texan steak,A0030,Afrikaans,L01,Standard,T0001,R59.90,PR005990,23/01/2017,29/01/2017,1234567,12,GN CH CHHY AFR.DSF
Texan steak R59.9 kg GN CH CHHY Afr2,Texan steak,A0030,Afrikaans,L01,Standard,T0001,R59.90,PR005990,23/01/2017,29/01/2017,1234567,16,GN CH CHHY AFR.DSF
Pork Texan Steak R49.9 kg GN CH CHHY EX HAL Eng,Pork Texan Steak,A0229,English,L02,Standard,T0001,R49.90,PR004990,23/01/2017,29/01/2017,1234567,13,GN CH CHHY ENG.DSF
Pork Texan Steak R49.9 kg GN CH CHHY EX HAL Eng2,Pork Texan Steak,A0229,English,L02,Standard,T0001,R49.90,PR004990,23/01/2017,29/01/2017,1234567,17,GN CH CHHY ENG.DSF
Pork Texan Steak R49.9 kg GN CH CHHY EX HAL Afr,Pork Texan Steak,A0229,Afrikaans,L01,Standard,T0001,R49.90,PR004990,23/01/2017,29/01/2017,1234567,10,GN CH CHHY AFR.DSF
Pork Texan Steak R49.9 kg GN CH CHHY EX HAL Afr2,Pork Texan Steak,A0229,Afrikaans,L01,Standard,T0001,R49.90,PR004990,23/01/2017,29/01/2017,1234567,14,GN CH CHHY AFR.DSF
Ox Tails R79.9 kg GN CH CHHY Eng,Ox Tails,A0234,English,L02,Standard,T0001,R79.90,PR007990,23/01/2017,29/01/2017,1234567,11,GN CH CHHY ENG.DSF
Ox Tails R79.9 kg GN CH CHHY Eng2,Ox Tails,A0234,English,L02,Standard,T0001,R79.90,PR007990,23/01/2017,29/01/2017,1234567,15,GN CH CHHY ENG.DSF
Ox Tails R79.9 kg GN CH CHHY Afr,Ox Tails,A0234,Afrikaans,L01,Standard,T0001,R79.90,PR007990,23/01/2017,29/01/2017,1234567,12,GN CH CHHY AFR.DSF
Ox Tails R79.9 kg GN CH CHHY Afr2,Ox Tails,A0234,Afrikaans,L01,Standard,T0001,R79.90,PR007990,23/01/2017,29/01/2017,1234567,16,GN CH CHHY AFR.DSF
Grabouw boerewors (thick & thin) R49.0 kg GN CH CHHY Eng,Grabouw boerewors (thick & thin),A0074,English,L02,Standard,T0001,R49.00,PR004900,23/01/2017,29/01/2017,1234567,13,GN CH CHHY ENG.DSF
Grabouw boerewors (thick & thin) R49.0 kg GN CH CHHY Eng2,Grabouw boerewors (thick & thin),A0074,English,L02,Standard,T0001,R49.00,PR004900,23/01/2017,29/01/2017,1234567,17,GN CH CHHY ENG.DSF
Grabouw boerewors (thick & thin) R49.0 kg GN CH CHHY Afr,Grabouw boerewors (thick & thin),A0074,Afrikaans,L01,Standard,T0001,R49.00,PR004900,23/01/2017,29/01/2017,1234567,10,GN CH CHHY AFR.DSF
Grabouw boerewors (thick & thin) R49.0 kg GN CH CHHY Afr2,Grabouw boerewors (thick & thin),A0074,Afrikaans,L01,Standard,T0001,R49.00,PR004900,23/01/2017,29/01/2017,1234567,14,GN CH CHHY AFR.DSF
Bulk forequater pack R59.9 kg GN CH CHHY Eng,Bulk forequater pack,A0035,English,L02,Standard,T0001,R59.90,PR005990,23/01/2017,29/01/2017,1234567,11,GN CH CHHY ENG.DSF
Bulk forequater pack R59.9 kg GN CH CHHY Eng2,Bulk forequater pack,A0035,English,L02,Standard,T0001,R59.90,PR005990,23/01/2017,29/01/2017,1234567,15,GN CH CHHY ENG.DSF
Bulk forequater pack R59.9 kg GN CH CHHY Afr,Bulk forequater pack,A0035,Afrikaans,L01,Standard,T0001,R59.90,PR005990,23/01/2017,29/01/2017,1234567,12,GN CH CHHY AFR.DSF
Bulk forequater pack R59.9 kg GN CH CHHY Afr2,Bulk forequater pack,A0035,Afrikaans,L01,Standard,T0001,R59.90,PR005990,23/01/2017,29/01/2017,1234567,16,GN CH CHHY AFR.DSF
Traditional ground beef R49.0 kg GN CH CHHY Eng,Traditional ground beef,A0032,English,L02,Standard,T0001,R49.00,PR004900,23/01/2017,29/01/2017,1234567,13,GN CH CHHY ENG.DSF
Traditional ground beef R49.0 kg GN CH CHHY Eng2,Traditional ground beef,A0032,English,L02,Standard,T0001,R49.00,PR004900,23/01/2017,29/01/2017,1234567,17,GN CH CHHY ENG.DSF
Traditional ground beef R49.0 kg GN CH CHHY Afr,Traditional ground beef,A0032,Afrikaans,L01,Standard,T0001,R49.00,PR004900,23/01/2017,29/01/2017,1234567,10,GN CH CHHY AFR.DSF
Traditional ground beef R49.0 kg GN CH CHHY Afr2,Traditional ground beef,A0032,Afrikaans,L01,Standard,T0001,R49.00,PR004900,23/01/2017,29/01/2017,1234567,14,GN CH CHHY AFR.DSF
Traditional ground beef R54.99 kg NAMIBIA SR Eng,Traditional ground beef,A0032,English,L02,Standard,T0001,R54.99,PR005499,23/01/2017,29/01/2017,1234567,11,NAMIBIA SR ENG.DSF
Traditional ground beef R54.99 kg NAMIBIA SR Eng2,Traditional ground beef,A0032,English,L02,Standard,T0001,R54.99,PR005499,23/01/2017,29/01/2017,1234567,15,NAMIBIA SR ENG.DSF
Lean beef mince R69.99 kg NAMIBIA CH CHHY Eng,Lean beef mince,A0017,English,L02,Standard,T0001,R69.99,PR006999,23/01/2017,29/01/2017,1234567,12,NAMIBIA CH CHHY ENG.DSF
Lean beef mince R69.99 kg NAMIBIA CH CHHY Eng2,Lean beef mince,A0017,English,L02,Standard,T0001,R69.99,PR006999,23/01/2017,29/01/2017,1234567,16,NAMIBIA CH CHHY ENG.DSF
