Description,Product,Product Code,Language,Language Code,Theme,Theme Code,Price,Price code,Start Date,End Date,Weekdays,Playing At,Store Listing File
Ox Tails R65.99 kg WC CH CHHY Eng,Ox Tails,A0234,English,L02,Standard,T0001,R65.99,PR006599,25/11/2016,25/11/2016,5,10,WC CH CHHY ENG.DSF
Ox Tails R65.99 kg WC CH CHHY Eng2,Ox Tails,A0234,English,L02,Standard,T0001,R65.99,PR006599,25/11/2016,25/11/2016,5,14,WC CH CHHY ENG.DSF
Ox Tails R65.99 kg WC CH CHHY Afr,Ox Tails,A0234,Afrikaans,L01,Standard,T0001,R65.99,PR006599,25/11/2016,25/11/2016,5,11,WC CH CHHY AFR.DSF
Ox Tails R65.99 kg WC CH CHHY Afr2,Ox Tails,A0234,Afrikaans,L01,Standard,T0001,R65.99,PR006599,25/11/2016,25/11/2016,5,15,WC CH CHHY AFR.DSF
Corned beef Tongue Afr R44.99 kg WC CH CHHY Eng,Corned beef Tongue Afr,A0192,English,L02,Standard,T0001,R44.99,PR004499,25/11/2016,25/11/2016,5,12,WC CH CHHY ENG.DSF
Corned beef Tongue Afr R44.99 kg WC CH CHHY Eng2,Corned beef Tongue Afr,A0192,English,L02,Standard,T0001,R44.99,PR004499,25/11/2016,25/11/2016,5,16,WC CH CHHY ENG.DSF
Corned beef Tongue Afr R44.99 kg WC CH CHHY Afr,Corned beef Tongue Afr,A0192,Afrikaans,L01,Standard,T0001,R44.99,PR004499,25/11/2016,25/11/2016,5,13,WC CH CHHY AFR.DSF
Corned beef Tongue Afr R44.99 kg WC CH CHHY Afr2,Corned beef Tongue Afr,A0192,Afrikaans,L01,Standard,T0001,R44.99,PR004499,25/11/2016,25/11/2016,5,17,WC CH CHHY AFR.DSF
Grabouw boerewors (thick & thin) R59.99 kg WC CH CHHY Eng,Grabouw boerewors (thick & thin),A0074,English,L02,Standard,T0001,R59.99,PR005999,23/11/2016,27/11/2016,34567,10,WC CH CHHY ENG.DSF
Grabouw boerewors (thick & thin) R59.99 kg WC CH CHHY Eng2,Grabouw boerewors (thick & thin),A0074,English,L02,Standard,T0001,R59.99,PR005999,23/11/2016,27/11/2016,34567,14,WC CH CHHY ENG.DSF
Grabouw boerewors (thick & thin) R59.99 kg WC CH CHHY Afr,Grabouw boerewors (thick & thin),A0074,Afrikaans,L01,Standard,T0001,R59.99,PR005999,23/11/2016,27/11/2016,34567,11,WC CH CHHY AFR.DSF
Grabouw boerewors (thick & thin) R59.99 kg WC CH CHHY Afr2,Grabouw boerewors (thick & thin),A0074,Afrikaans,L01,Standard,T0001,R59.99,PR005999,23/11/2016,27/11/2016,34567,15,WC CH CHHY AFR.DSF
Pork braai chops R54.99 kg WC CH CHHY EX HAL Eng,Pork braai chops,A0018,English,L02,Standard,T0001,R54.99,PR005499,23/11/2016,27/11/2016,34567,12,WC CH CHHY ENG.DSF
Pork braai chops R54.99 kg WC CH CHHY EX HAL Eng2,Pork braai chops,A0018,English,L02,Standard,T0001,R54.99,PR005499,23/11/2016,27/11/2016,34567,16,WC CH CHHY ENG.DSF
Pork braai chops R54.99 kg WC CH CHHY EX HAL Afr,Pork braai chops,A0018,Afrikaans,L01,Standard,T0001,R54.99,PR005499,23/11/2016,27/11/2016,34567,13,WC CH CHHY AFR.DSF
Pork braai chops R54.99 kg WC CH CHHY EX HAL Afr2,Pork braai chops,A0018,Afrikaans,L01,Standard,T0001,R54.99,PR005499,23/11/2016,27/11/2016,34567,17,WC CH CHHY AFR.DSF
Pork fillet R79.99 kg WC CH CHHY EX HAL Eng,Pork fillet,A0188,English,L02,Standard,T0001,R79.99,PR007999,23/11/2016,27/11/2016,34567,10,WC CH CHHY ENG.DSF
Pork fillet R79.99 kg WC CH CHHY EX HAL Eng2,Pork fillet,A0188,English,L02,Standard,T0001,R79.99,PR007999,23/11/2016,27/11/2016,34567,14,WC CH CHHY ENG.DSF
Pork fillet R79.99 kg WC CH CHHY EX HAL Afr,Pork fillet,A0188,Afrikaans,L01,Standard,T0001,R79.99,PR007999,23/11/2016,27/11/2016,34567,11,WC CH CHHY AFR.DSF
Pork fillet R79.99 kg WC CH CHHY EX HAL Afr2,Pork fillet,A0188,Afrikaans,L01,Standard,T0001,R79.99,PR007999,23/11/2016,27/11/2016,34567,15,WC CH CHHY AFR.DSF
Texan steak R69.99 kg WC SR Eng,Texan steak,A0030,English,L02,Standard,T0001,R69.99,PR006999,21/11/2016,27/11/2016,1234567,12,WC SR ENG.DSF
Texan steak R69.99 kg WC SR Eng2,Texan steak,A0030,English,L02,Standard,T0001,R69.99,PR006999,21/11/2016,27/11/2016,1234567,16,WC SR ENG.DSF
Texan steak R69.99 kg WC SR Afr,Texan steak,A0030,Afrikaans,L01,Standard,T0001,R69.99,PR006999,21/11/2016,27/11/2016,1234567,13,WC SR AFR.DSF
Texan steak R69.99 kg WC SR Afr2,Texan steak,A0030,Afrikaans,L01,Standard,T0001,R69.99,PR006999,21/11/2016,27/11/2016,1234567,17,WC SR AFR.DSF
Championship Boerewors Thick R64.99 kg WC SR Eng,Championship Boerewors Thick,A0261,English,L02,Standard,T0001,R64.99,PR006499,21/11/2016,27/11/2016,1234567,10,WC SR ENG.DSF
Championship Boerewors Thick R64.99 kg WC SR Eng2,Championship Boerewors Thick,A0261,English,L02,Standard,T0001,R64.99,PR006499,21/11/2016,27/11/2016,1234567,14,WC SR ENG.DSF
Championship Boerewors Thick R64.99 kg WC SR Afr,Championship Boerewors Thick,A0261,Afrikaans,L01,Standard,T0001,R64.99,PR006499,21/11/2016,27/11/2016,1234567,11,WC SR AFR.DSF
Championship Boerewors Thick R64.99 kg WC SR Afr2,Championship Boerewors Thick,A0261,Afrikaans,L01,Standard,T0001,R64.99,PR006499,21/11/2016,27/11/2016,1234567,15,WC SR AFR.DSF
Traditional ground beef R54.99 kg WC SR Eng,Traditional ground beef,A0032,English,L02,Standard,T0001,R54.99,PR005499,21/11/2016,27/11/2016,1234567,12,WC SR ENG.DSF
Traditional ground beef R54.99 kg WC SR Eng2,Traditional ground beef,A0032,English,L02,Standard,T0001,R54.99,PR005499,21/11/2016,27/11/2016,1234567,16,WC SR ENG.DSF
Traditional ground beef R54.99 kg WC SR Afr,Traditional ground beef,A0032,Afrikaans,L01,Standard,T0001,R54.99,PR005499,21/11/2016,27/11/2016,1234567,13,WC SR AFR.DSF
Traditional ground beef R54.99 kg WC SR Afr2,Traditional ground beef,A0032,Afrikaans,L01,Standard,T0001,R54.99,PR005499,21/11/2016,27/11/2016,1234567,17,WC SR AFR.DSF
Mutton bangers R39.99 kg WC SR Eng,Mutton bangers,A0069,English,L02,Standard,T0001,R39.99,PR003999,21/11/2016,27/11/2016,1234567,10,WC SR ENG.DSF
Mutton bangers R39.99 kg WC SR Eng2,Mutton bangers,A0069,English,L02,Standard,T0001,R39.99,PR003999,21/11/2016,27/11/2016,1234567,14,WC SR ENG.DSF
Mutton bangers R39.99 kg WC SR Afr,Mutton bangers,A0069,Afrikaans,L01,Standard,T0001,R39.99,PR003999,21/11/2016,27/11/2016,1234567,11,WC SR AFR.DSF
Mutton bangers R39.99 kg WC SR Afr2,Mutton bangers,A0069,Afrikaans,L01,Standard,T0001,R39.99,PR003999,21/11/2016,27/11/2016,1234567,15,WC SR AFR.DSF
Pork Texan Steak R54.99 kg WC SR EX HAL Eng,Pork Texan Steak,A0229,English,L02,Standard,T0001,R54.99,PR005499,21/11/2016,27/11/2016,1234567,12,WC SR ENG.DSF
Pork Texan Steak R54.99 kg WC SR EX HAL Eng2,Pork Texan Steak,A0229,English,L02,Standard,T0001,R54.99,PR005499,21/11/2016,27/11/2016,1234567,16,WC SR ENG.DSF
Pork Texan Steak R54.99 kg WC SR EX HAL Afr,Pork Texan Steak,A0229,Afrikaans,L01,Standard,T0001,R54.99,PR005499,21/11/2016,27/11/2016,1234567,13,WC SR AFR.DSF
Pork Texan Steak R54.99 kg WC SR EX HAL Afr2,Pork Texan Steak,A0229,Afrikaans,L01,Standard,T0001,R54.99,PR005499,21/11/2016,27/11/2016,1234567,17,WC SR AFR.DSF
Ox Tails R65.99 kg EC CH CHHY Eng,Ox Tails,A0234,English,L02,Standard,T0001,R65.99,PR006599,25/11/2016,25/11/2016,5,10,EC CH CHHY ENG.DSF
Ox Tails R65.99 kg EC CH CHHY Eng2,Ox Tails,A0234,English,L02,Standard,T0001,R65.99,PR006599,25/11/2016,25/11/2016,5,14,EC CH CHHY ENG.DSF
Ox Tails R65.99 kg EC CH CHHY Afr,Ox Tails,A0234,Afrikaans,L01,Standard,T0001,R65.99,PR006599,25/11/2016,25/11/2016,5,11,EC CH CHHY AFR.DSF
Ox Tails R65.99 kg EC CH CHHY Afr2,Ox Tails,A0234,Afrikaans,L01,Standard,T0001,R65.99,PR006599,25/11/2016,25/11/2016,5,15,EC CH CHHY AFR.DSF
Pork Leg Roast R59.99 kg EC CH CHHY EX HAL Eng,Pork Leg Roast,A0220,English,L02,Standard,T0001,R59.99,PR005999,21/11/2016,27/11/2016,1234567,12,EC CH CHHY ENG.DSF
Pork Leg Roast R59.99 kg EC CH CHHY EX HAL Eng2,Pork Leg Roast,A0220,English,L02,Standard,T0001,R59.99,PR005999,21/11/2016,27/11/2016,1234567,16,EC CH CHHY ENG.DSF
Pork Leg Roast R59.99 kg EC CH CHHY EX HAL Afr,Pork Leg Roast,A0220,Afrikaans,L01,Standard,T0001,R59.99,PR005999,21/11/2016,27/11/2016,1234567,13,EC CH CHHY AFR.DSF
Pork Leg Roast R59.99 kg EC CH CHHY EX HAL Afr2,Pork Leg Roast,A0220,Afrikaans,L01,Standard,T0001,R59.99,PR005999,21/11/2016,27/11/2016,1234567,17,EC CH CHHY AFR.DSF
All Roast Beef R79.99 kg EC CH CHHY Eng,All Roast Beef,A0201,English,L02,Standard,T0001,R79.99,PR007999,21/11/2016,27/11/2016,1234567,10,EC CH CHHY ENG.DSF
All Roast Beef R79.99 kg EC CH CHHY Eng2,All Roast Beef,A0201,English,L02,Standard,T0001,R79.99,PR007999,21/11/2016,27/11/2016,1234567,14,EC CH CHHY ENG.DSF
All Roast Beef R79.99 kg EC CH CHHY Afr,All Roast Beef,A0201,Afrikaans,L01,Standard,T0001,R79.99,PR007999,21/11/2016,27/11/2016,1234567,11,EC CH CHHY AFR.DSF
All Roast Beef R79.99 kg EC CH CHHY Afr2,All Roast Beef,A0201,Afrikaans,L01,Standard,T0001,R79.99,PR007999,21/11/2016,27/11/2016,1234567,15,EC CH CHHY AFR.DSF
Rooikrantz boerewors R64.99 kg EC CH CHHY Eng,Rooikrantz boerewors,A0023,English,L02,Standard,T0001,R64.99,PR006499,21/11/2016,27/11/2016,1234567,12,EC CH CHHY ENG.DSF
Rooikrantz boerewors R64.99 kg EC CH CHHY Eng2,Rooikrantz boerewors,A0023,English,L02,Standard,T0001,R64.99,PR006499,21/11/2016,27/11/2016,1234567,16,EC CH CHHY ENG.DSF
Rooikrantz boerewors R64.99 kg EC CH CHHY Afr,Rooikrantz boerewors,A0023,Afrikaans,L01,Standard,T0001,R64.99,PR006499,21/11/2016,27/11/2016,1234567,13,EC CH CHHY AFR.DSF
Rooikrantz boerewors R64.99 kg EC CH CHHY Afr2,Rooikrantz boerewors,A0023,Afrikaans,L01,Standard,T0001,R64.99,PR006499,21/11/2016,27/11/2016,1234567,17,EC CH CHHY AFR.DSF
Pork bangers R49.99 kg EC SR EX HAL Eng,Pork bangers,A0067,English,L02,Standard,T0001,R49.99,PR004999,21/11/2016,27/11/2016,1234567,10,EC SR ENG.DSF
Pork bangers R49.99 kg EC SR EX HAL Eng2,Pork bangers,A0067,English,L02,Standard,T0001,R49.99,PR004999,21/11/2016,27/11/2016,1234567,14,EC SR ENG.DSF
Pork bangers R49.99 kg EC SR EX HAL Afr,Pork bangers,A0067,Afrikaans,L01,Standard,T0001,R49.99,PR004999,21/11/2016,27/11/2016,1234567,11,EC SR AFR.DSF
Pork bangers R49.99 kg EC SR EX HAL Afr2,Pork bangers,A0067,Afrikaans,L01,Standard,T0001,R49.99,PR004999,21/11/2016,27/11/2016,1234567,15,EC SR AFR.DSF
Traditional ground beef R56.99 kg EC SR Eng,Traditional ground beef,A0032,English,L02,Standard,T0001,R56.99,PR005699,21/11/2016,27/11/2016,1234567,12,EC SR ENG.DSF
Traditional ground beef R56.99 kg EC SR Eng2,Traditional ground beef,A0032,English,L02,Standard,T0001,R56.99,PR005699,21/11/2016,27/11/2016,1234567,16,EC SR ENG.DSF
Traditional ground beef R56.99 kg EC SR Afr,Traditional ground beef,A0032,Afrikaans,L01,Standard,T0001,R56.99,PR005699,21/11/2016,27/11/2016,1234567,13,EC SR AFR.DSF
Traditional ground beef R56.99 kg EC SR Afr2,Traditional ground beef,A0032,Afrikaans,L01,Standard,T0001,R56.99,PR005699,21/11/2016,27/11/2016,1234567,17,EC SR AFR.DSF
Beef potjiekos R59.99 kg EC SR Eng,Beef potjiekos,A0033,English,L02,Standard,T0001,R59.99,PR005999,21/11/2016,27/11/2016,1234567,10,EC SR ENG.DSF
Beef potjiekos R59.99 kg EC SR Eng2,Beef potjiekos,A0033,English,L02,Standard,T0001,R59.99,PR005999,21/11/2016,27/11/2016,1234567,14,EC SR ENG.DSF
Beef potjiekos R59.99 kg EC SR Afr,Beef potjiekos,A0033,Afrikaans,L01,Standard,T0001,R59.99,PR005999,21/11/2016,27/11/2016,1234567,11,EC SR AFR.DSF
Beef potjiekos R59.99 kg EC SR Afr2,Beef potjiekos,A0033,Afrikaans,L01,Standard,T0001,R59.99,PR005999,21/11/2016,27/11/2016,1234567,15,EC SR AFR.DSF
Pork packs R49.99 kg EC SR EX HAL Eng,Pork packs,A0019,English,L02,Standard,T0001,R49.99,PR004999,21/11/2016,27/11/2016,1234567,12,EC SR ENG.DSF
Pork packs R49.99 kg EC SR EX HAL Eng2,Pork packs,A0019,English,L02,Standard,T0001,R49.99,PR004999,21/11/2016,27/11/2016,1234567,16,EC SR ENG.DSF
Pork packs R49.99 kg EC SR EX HAL Afr,Pork packs,A0019,Afrikaans,L01,Standard,T0001,R49.99,PR004999,21/11/2016,27/11/2016,1234567,13,EC SR AFR.DSF
Pork packs R49.99 kg EC SR EX HAL Afr2,Pork packs,A0019,Afrikaans,L01,Standard,T0001,R49.99,PR004999,21/11/2016,27/11/2016,1234567,17,EC SR AFR.DSF
Traditional ground beef R56.99 kg EC ECP Eng,Traditional ground beef,A0032,English,L02,Standard,T0001,R56.99,PR005699,21/11/2016,27/11/2016,1234567,10,EC ECP ENG.DSF
Traditional ground beef R56.99 kg EC ECP Eng2,Traditional ground beef,A0032,English,L02,Standard,T0001,R56.99,PR005699,21/11/2016,27/11/2016,1234567,14,EC ECP ENG.DSF
Traditional ground beef R56.99 kg EC ECP Afr,Traditional ground beef,A0032,Afrikaans,L01,Standard,T0001,R56.99,PR005699,21/11/2016,27/11/2016,1234567,11,EC ECP AFR.DSF
Traditional ground beef R56.99 kg EC ECP Afr2,Traditional ground beef,A0032,Afrikaans,L01,Standard,T0001,R56.99,PR005699,21/11/2016,27/11/2016,1234567,15,EC ECP AFR.DSF
Beef potjiekos R59.99 kg EC ECP Eng,Beef potjiekos,A0033,English,L02,Standard,T0001,R59.99,PR005999,21/11/2016,27/11/2016,1234567,12,EC ECP ENG.DSF
Beef potjiekos R59.99 kg EC ECP Eng2,Beef potjiekos,A0033,English,L02,Standard,T0001,R59.99,PR005999,21/11/2016,27/11/2016,1234567,16,EC ECP ENG.DSF
Beef potjiekos R59.99 kg EC ECP Afr,Beef potjiekos,A0033,Afrikaans,L01,Standard,T0001,R59.99,PR005999,21/11/2016,27/11/2016,1234567,13,EC ECP AFR.DSF
Beef potjiekos R59.99 kg EC ECP Afr2,Beef potjiekos,A0033,Afrikaans,L01,Standard,T0001,R59.99,PR005999,21/11/2016,27/11/2016,1234567,17,EC ECP AFR.DSF
Econo Braaiwors R46.99 kg EC ECP Eng,Econo Braaiwors,A0223,English,L02,Standard,T0001,R46.99,PR004699,21/11/2016,27/11/2016,1234567,10,EC ECP ENG.DSF
Econo Braaiwors R46.99 kg EC ECP Eng2,Econo Braaiwors,A0223,English,L02,Standard,T0001,R46.99,PR004699,21/11/2016,27/11/2016,1234567,14,EC ECP ENG.DSF
Econo Braaiwors R46.99 kg EC ECP Afr,Econo Braaiwors,A0223,Afrikaans,L01,Standard,T0001,R46.99,PR004699,21/11/2016,27/11/2016,1234567,11,EC ECP AFR.DSF
Econo Braaiwors R46.99 kg EC ECP Afr2,Econo Braaiwors,A0223,Afrikaans,L01,Standard,T0001,R46.99,PR004699,21/11/2016,27/11/2016,1234567,15,EC ECP AFR.DSF
Quality Wors R39.99 kg KZN SR Eng,Quality Wors,A0179,English,L02,Standard,T0001,R39.99,PR003999,23/11/2016,23/11/2016,3,12,KZN SR ENG.DSF
Quality Wors R39.99 kg KZN SR Eng2,Quality Wors,A0179,English,L02,Standard,T0001,R39.99,PR003999,23/11/2016,23/11/2016,3,16,KZN SR ENG.DSF
Stewing beef R59.99 kg KZN SR Eng,Stewing beef,A0059,English,L02,Standard,T0001,R59.99,PR005999,21/11/2016,27/11/2016,1234567,13,KZN SR ENG.DSF
Stewing beef R59.99 kg KZN SR Eng2,Stewing beef,A0059,English,L02,Standard,T0001,R59.99,PR005999,21/11/2016,27/11/2016,1234567,17,KZN SR ENG.DSF
Traditional ground beef R46.99 kg KZN SR Eng,Traditional ground beef,A0032,English,L02,Standard,T0001,R46.99,PR004699,21/11/2016,27/11/2016,1234567,10,KZN SR ENG.DSF
Traditional ground beef R46.99 kg KZN SR Eng2,Traditional ground beef,A0032,English,L02,Standard,T0001,R46.99,PR004699,21/11/2016,27/11/2016,1234567,14,KZN SR ENG.DSF
Mutton packs R69.99 kg KZN SR Eng,Mutton packs,A0053,English,L02,Standard,T0001,R69.99,PR006999,21/11/2016,27/11/2016,1234567,11,KZN SR ENG.DSF
Mutton packs R69.99 kg KZN SR Eng2,Mutton packs,A0053,English,L02,Standard,T0001,R69.99,PR006999,21/11/2016,27/11/2016,1234567,15,KZN SR ENG.DSF
Ox Tails R65.99 kg KZN CH CHHY Eng,Ox Tails,A0234,English,L02,Standard,T0001,R65.99,PR006599,25/11/2016,25/11/2016,5,12,KZN CH CHHY ENG.DSF
Ox Tails R65.99 kg KZN CH CHHY Eng2,Ox Tails,A0234,English,L02,Standard,T0001,R65.99,PR006599,25/11/2016,25/11/2016,5,16,KZN CH CHHY ENG.DSF
Steak pack R79.99 kg KZN CH CHHY Eng,Steak pack,A0058,English,L02,Standard,T0001,R79.99,PR007999,21/11/2016,27/11/2016,1234567,13,KZN CH CHHY ENG.DSF
Steak pack R79.99 kg KZN CH CHHY Eng2,Steak pack,A0058,English,L02,Standard,T0001,R79.99,PR007999,21/11/2016,27/11/2016,1234567,17,KZN CH CHHY ENG.DSF
Lean beef mince R59.99 kg KZN CH CHHY Eng,Lean beef mince,A0017,English,L02,Standard,T0001,R59.99,PR005999,21/11/2016,27/11/2016,1234567,10,KZN CH CHHY ENG.DSF
Lean beef mince R59.99 kg KZN CH CHHY Eng2,Lean beef mince,A0017,English,L02,Standard,T0001,R59.99,PR005999,21/11/2016,27/11/2016,1234567,14,KZN CH CHHY ENG.DSF
Steak House Classic T - Bone Steak 300g R24.0 300g KZN CH CHHY Eng,Steak House Classic T - Bone Steak 300g,A0279,English,L02,Standard,T0001,R24.00,PR002400,21/11/2016,27/11/2016,1234567,11,KZN CH CHHY ENG.DSF
Steak House Classic T - Bone Steak 300g R24.0 300g KZN CH CHHY Eng2,Steak House Classic T - Bone Steak 300g,A0279,English,L02,Standard,T0001,R24.00,PR002400,21/11/2016,27/11/2016,1234567,15,KZN CH CHHY ENG.DSF
Pork packs R49.99 kg KZN SR EX HAL Eng,Pork packs,A0019,English,L02,Standard,T0001,R49.99,PR004999,21/11/2016,27/11/2016,1234567,12,KZN SR ENG.DSF
Pork packs R49.99 kg KZN SR EX HAL Eng2,Pork packs,A0019,English,L02,Standard,T0001,R49.99,PR004999,21/11/2016,27/11/2016,1234567,16,KZN SR ENG.DSF
Pork packs R49.99 kg SWAZILAND SR EX HAL Eng,Pork packs,A0019,English,L02,Standard,T0001,R49.99,PR004999,21/11/2016,27/11/2016,1234567,13,SWAZILAND SR ENG.DSF
Pork packs R49.99 kg SWAZILAND SR EX HAL Eng2,Pork packs,A0019,English,L02,Standard,T0001,R49.99,PR004999,21/11/2016,27/11/2016,1234567,17,SWAZILAND SR ENG.DSF
Pork braai chops R56.99 kg SWAZILAND SR EX HAL Eng,Pork braai chops,A0018,English,L02,Standard,T0001,R56.99,PR005699,21/11/2016,27/11/2016,1234567,10,SWAZILAND SR ENG.DSF
Pork braai chops R56.99 kg SWAZILAND SR EX HAL Eng2,Pork braai chops,A0018,English,L02,Standard,T0001,R56.99,PR005699,21/11/2016,27/11/2016,1234567,14,SWAZILAND SR ENG.DSF
Quality Wors R39.99 kg SWAZILAND SR Eng,Quality Wors,A0179,English,L02,Standard,T0001,R39.99,PR003999,21/11/2016,27/11/2016,1234567,11,SWAZILAND SR ENG.DSF
Quality Wors R39.99 kg SWAZILAND SR Eng2,Quality Wors,A0179,English,L02,Standard,T0001,R39.99,PR003999,21/11/2016,27/11/2016,1234567,15,SWAZILAND SR ENG.DSF
Traditional ground beef R39.99 kg SWAZILAND SR Eng,Traditional ground beef,A0032,English,L02,Standard,T0001,R39.99,PR003999,21/11/2016,27/11/2016,1234567,12,SWAZILAND SR ENG.DSF
Traditional ground beef R39.99 kg SWAZILAND SR Eng2,Traditional ground beef,A0032,English,L02,Standard,T0001,R39.99,PR003999,21/11/2016,27/11/2016,1234567,16,SWAZILAND SR ENG.DSF
Beef potjiekos R49.99 kg SWAZILAND SR Eng,Beef potjiekos,A0033,English,L02,Standard,T0001,R49.99,PR004999,21/11/2016,27/11/2016,1234567,13,SWAZILAND SR ENG.DSF
Beef potjiekos R49.99 kg SWAZILAND SR Eng2,Beef potjiekos,A0033,English,L02,Standard,T0001,R49.99,PR004999,21/11/2016,27/11/2016,1234567,17,SWAZILAND SR ENG.DSF
Ox Tails R65.99 kg SWAZILAND CH CHHY Eng,Ox Tails,A0234,English,L02,Standard,T0001,R65.99,PR006599,25/11/2016,25/11/2016,5,10,SWAZILAND CH CHHY ENG.DSF
Ox Tails R65.99 kg SWAZILAND CH CHHY Eng2,Ox Tails,A0234,English,L02,Standard,T0001,R65.99,PR006599,25/11/2016,25/11/2016,5,14,SWAZILAND CH CHHY ENG.DSF
Texan steak R64.99 kg SWAZILAND CH CHHY Eng,Texan steak,A0030,English,L02,Standard,T0001,R64.99,PR006499,25/11/2016,27/11/2016,567,11,SWAZILAND CH CHHY ENG.DSF
Texan steak R64.99 kg SWAZILAND CH CHHY Eng2,Texan steak,A0030,English,L02,Standard,T0001,R64.99,PR006499,25/11/2016,27/11/2016,567,15,SWAZILAND CH CHHY ENG.DSF
Boneless Gammon R69.99 kg SWAZILAND CH CHHY Eng,Boneless Gammon,A0147,English,L02,Standard,T0001,R69.99,PR006999,25/11/2016,27/11/2016,567,12,SWAZILAND CH CHHY ENG.DSF
Boneless Gammon R69.99 kg SWAZILAND CH CHHY Eng2,Boneless Gammon,A0147,English,L02,Standard,T0001,R69.99,PR006999,25/11/2016,27/11/2016,567,16,SWAZILAND CH CHHY ENG.DSF
Stewing beef R49.99 kg SWAZILAND SR Eng,Stewing beef,A0059,English,L02,Standard,T0001,R49.99,PR004999,21/11/2016,27/11/2016,1234567,13,SWAZILAND SR ENG.DSF
Stewing beef R49.99 kg SWAZILAND SR Eng2,Stewing beef,A0059,English,L02,Standard,T0001,R49.99,PR004999,21/11/2016,27/11/2016,1234567,17,SWAZILAND SR ENG.DSF
Karoo Braaiwors R42.99 kg SWAZILAND SR Eng,Karoo Braaiwors,A0265,English,L02,Standard,T0001,R42.99,PR004299,21/11/2016,27/11/2016,1234567,10,SWAZILAND SR ENG.DSF
Karoo Braaiwors R42.99 kg SWAZILAND SR Eng2,Karoo Braaiwors,A0265,English,L02,Standard,T0001,R42.99,PR004299,21/11/2016,27/11/2016,1234567,14,SWAZILAND SR ENG.DSF
Traditional ground beef R44.99 kg SWAZILAND SR Eng,Traditional ground beef,A0032,English,L02,Standard,T0001,R44.99,PR004499,21/11/2016,27/11/2016,1234567,11,SWAZILAND SR ENG.DSF
Traditional ground beef R44.99 kg SWAZILAND SR Eng2,Traditional ground beef,A0032,English,L02,Standard,T0001,R44.99,PR004499,21/11/2016,27/11/2016,1234567,15,SWAZILAND SR ENG.DSF
Stewing beef R58.99 kg LESOTHO SR Eng,Stewing beef,A0059,English,L02,Standard,T0001,R58.99,PR005899,24/11/2016,27/11/2016,4567,12,LESOTHO SR ENG.DSF
Stewing beef R58.99 kg LESOTHO SR Eng2,Stewing beef,A0059,English,L02,Standard,T0001,R58.99,PR005899,24/11/2016,27/11/2016,4567,16,LESOTHO SR ENG.DSF
Pork packs R58.99 kg LESOTHO SR EX HAL Eng,Pork packs,A0019,English,L02,Standard,T0001,R58.99,PR005899,24/11/2016,27/11/2016,4567,13,LESOTHO SR ENG.DSF
Pork packs R58.99 kg LESOTHO SR EX HAL Eng2,Pork packs,A0019,English,L02,Standard,T0001,R58.99,PR005899,24/11/2016,27/11/2016,4567,17,LESOTHO SR ENG.DSF
Traditional ground beef R52.99 kg LESOTHO SR Eng,Traditional ground beef,A0032,English,L02,Standard,T0001,R52.99,PR005299,24/11/2016,27/11/2016,4567,10,LESOTHO SR ENG.DSF
Traditional ground beef R52.99 kg LESOTHO SR Eng2,Traditional ground beef,A0032,English,L02,Standard,T0001,R52.99,PR005299,24/11/2016,27/11/2016,4567,14,LESOTHO SR ENG.DSF
Texan steak R56.9 kg GN SR Eng,Texan steak,A0030,English,L02,Standard,T0001,R56.90,PR005690,23/11/2016,27/11/2016,34567,11,GN SR ENG.DSF
Texan steak R56.9 kg GN SR Eng2,Texan steak,A0030,English,L02,Standard,T0001,R56.90,PR005690,23/11/2016,27/11/2016,34567,15,GN SR ENG.DSF
Texan steak R56.9 kg GN SR Afr,Texan steak,A0030,Afrikaans,L01,Standard,T0001,R56.90,PR005690,23/11/2016,27/11/2016,34567,12,GN SR AFR.DSF
Texan steak R56.9 kg GN SR Afr2,Texan steak,A0030,Afrikaans,L01,Standard,T0001,R56.90,PR005690,23/11/2016,27/11/2016,34567,16,GN SR AFR.DSF
Ox Tails R65.9 kg GN CH CHHY Eng,Ox Tails,A0234,English,L02,Standard,T0001,R65.90,PR006590,25/11/2016,25/11/2016,5,13,GN CH CHHY ENG.DSF
Ox Tails R65.9 kg GN CH CHHY Eng2,Ox Tails,A0234,English,L02,Standard,T0001,R65.90,PR006590,25/11/2016,25/11/2016,5,17,GN CH CHHY ENG.DSF
Ox Tails R65.9 kg GN CH CHHY Afr,Ox Tails,A0234,Afrikaans,L01,Standard,T0001,R65.90,PR006590,25/11/2016,25/11/2016,5,10,GN CH CHHY AFR.DSF
Ox Tails R65.9 kg GN CH CHHY Afr2,Ox Tails,A0234,Afrikaans,L01,Standard,T0001,R65.90,PR006590,25/11/2016,25/11/2016,5,14,GN CH CHHY AFR.DSF
Championship Boerewors Thick R65.0 kg GN CH CHHY Eng,Championship Boerewors Thick,A0261,English,L02,Standard,T0001,R65.00,PR006500,23/11/2016,27/11/2016,34567,11,GN CH CHHY ENG.DSF
Championship Boerewors Thick R65.0 kg GN CH CHHY Eng2,Championship Boerewors Thick,A0261,English,L02,Standard,T0001,R65.00,PR006500,23/11/2016,27/11/2016,34567,15,GN CH CHHY ENG.DSF
Championship Boerewors Thick R65.0 kg GN CH CHHY Afr,Championship Boerewors Thick,A0261,Afrikaans,L01,Standard,T0001,R65.00,PR006500,23/11/2016,27/11/2016,34567,12,GN CH CHHY AFR.DSF
Championship Boerewors Thick R65.0 kg GN CH CHHY Afr2,Championship Boerewors Thick,A0261,Afrikaans,L01,Standard,T0001,R65.00,PR006500,23/11/2016,27/11/2016,34567,16,GN CH CHHY AFR.DSF
Beef sosaties R69.9 kg GN CH CHHY Eng,Beef sosaties,A0006,English,L02,Standard,T0001,R69.90,PR006990,23/11/2016,27/11/2016,34567,13,GN CH CHHY ENG.DSF
Beef sosaties R69.9 kg GN CH CHHY Eng2,Beef sosaties,A0006,English,L02,Standard,T0001,R69.90,PR006990,23/11/2016,27/11/2016,34567,17,GN CH CHHY ENG.DSF
Beef sosaties R69.9 kg GN CH CHHY Afr,Beef sosaties,A0006,Afrikaans,L01,Standard,T0001,R69.90,PR006990,23/11/2016,27/11/2016,34567,10,GN CH CHHY AFR.DSF
Beef sosaties R69.9 kg GN CH CHHY Afr2,Beef sosaties,A0006,Afrikaans,L01,Standard,T0001,R69.90,PR006990,23/11/2016,27/11/2016,34567,14,GN CH CHHY AFR.DSF
Chicken sosaties R69.9 kg GN CH CHHY Eng,Chicken sosaties,A0009,English,L02,Standard,T0001,R69.90,PR006990,23/11/2016,27/11/2016,34567,11,GN CH CHHY ENG.DSF
Chicken sosaties R69.9 kg GN CH CHHY Eng2,Chicken sosaties,A0009,English,L02,Standard,T0001,R69.90,PR006990,23/11/2016,27/11/2016,34567,15,GN CH CHHY ENG.DSF
Chicken sosaties R69.9 kg GN CH CHHY Afr,Chicken sosaties,A0009,Afrikaans,L01,Standard,T0001,R69.90,PR006990,23/11/2016,27/11/2016,34567,12,GN CH CHHY AFR.DSF
Chicken sosaties R69.9 kg GN CH CHHY Afr2,Chicken sosaties,A0009,Afrikaans,L01,Standard,T0001,R69.90,PR006990,23/11/2016,27/11/2016,34567,16,GN CH CHHY AFR.DSF
Pork sosaties R69.9 kg GN CH CHHY EX HAL Eng,Pork sosaties,A0021,English,L02,Standard,T0001,R69.90,PR006990,23/11/2016,27/11/2016,34567,13,GN CH CHHY ENG.DSF
Pork sosaties R69.9 kg GN CH CHHY EX HAL Eng2,Pork sosaties,A0021,English,L02,Standard,T0001,R69.90,PR006990,23/11/2016,27/11/2016,34567,17,GN CH CHHY ENG.DSF
Pork sosaties R69.9 kg GN CH CHHY EX HAL Afr,Pork sosaties,A0021,Afrikaans,L01,Standard,T0001,R69.90,PR006990,23/11/2016,27/11/2016,34567,10,GN CH CHHY AFR.DSF
Pork sosaties R69.9 kg GN CH CHHY EX HAL Afr2,Pork sosaties,A0021,Afrikaans,L01,Standard,T0001,R69.90,PR006990,23/11/2016,27/11/2016,34567,14,GN CH CHHY AFR.DSF
Texan steak R69.9 kg GN CH CHHY Eng,Texan steak,A0030,English,L02,Standard,T0001,R69.90,PR006990,23/11/2016,27/11/2016,34567,11,GN CH CHHY ENG.DSF
Texan steak R69.9 kg GN CH CHHY Eng2,Texan steak,A0030,English,L02,Standard,T0001,R69.90,PR006990,23/11/2016,27/11/2016,34567,15,GN CH CHHY ENG.DSF
Texan steak R69.9 kg GN CH CHHY Afr,Texan steak,A0030,Afrikaans,L01,Standard,T0001,R69.90,PR006990,23/11/2016,27/11/2016,34567,12,GN CH CHHY AFR.DSF
Texan steak R69.9 kg GN CH CHHY Afr2,Texan steak,A0030,Afrikaans,L01,Standard,T0001,R69.90,PR006990,23/11/2016,27/11/2016,34567,16,GN CH CHHY AFR.DSF
Pork Texan Steak R49.9 kg GN CH CHHY EX HAL Eng,Pork Texan Steak,A0229,English,L02,Standard,T0001,R49.90,PR004990,23/11/2016,27/11/2016,34567,13,GN CH CHHY ENG.DSF
Pork Texan Steak R49.9 kg GN CH CHHY EX HAL Eng2,Pork Texan Steak,A0229,English,L02,Standard,T0001,R49.90,PR004990,23/11/2016,27/11/2016,34567,17,GN CH CHHY ENG.DSF
Pork Texan Steak R49.9 kg GN CH CHHY EX HAL Afr,Pork Texan Steak,A0229,Afrikaans,L01,Standard,T0001,R49.90,PR004990,23/11/2016,27/11/2016,34567,10,GN CH CHHY AFR.DSF
Pork Texan Steak R49.9 kg GN CH CHHY EX HAL Afr2,Pork Texan Steak,A0229,Afrikaans,L01,Standard,T0001,R49.90,PR004990,23/11/2016,27/11/2016,34567,14,GN CH CHHY AFR.DSF
All Roast Beef R69.9 kg GN CH CHHY Eng,All Roast Beef,A0201,English,L02,Standard,T0001,R69.90,PR006990,23/11/2016,27/11/2016,34567,11,GN CH CHHY ENG.DSF
All Roast Beef R69.9 kg GN CH CHHY Eng2,All Roast Beef,A0201,English,L02,Standard,T0001,R69.90,PR006990,23/11/2016,27/11/2016,34567,15,GN CH CHHY ENG.DSF
All Roast Beef R69.9 kg GN CH CHHY Afr,All Roast Beef,A0201,Afrikaans,L01,Standard,T0001,R69.90,PR006990,23/11/2016,27/11/2016,34567,12,GN CH CHHY AFR.DSF
All Roast Beef R69.9 kg GN CH CHHY Afr2,All Roast Beef,A0201,Afrikaans,L01,Standard,T0001,R69.90,PR006990,23/11/2016,27/11/2016,34567,16,GN CH CHHY AFR.DSF
Pork roast R49.0 kg GN CH CHHY EX HAL Eng,Pork roast,A0055,English,L02,Standard,T0001,R49.00,PR004900,23/11/2016,27/11/2016,34567,13,GN CH CHHY ENG.DSF
Pork roast R49.0 kg GN CH CHHY EX HAL Eng2,Pork roast,A0055,English,L02,Standard,T0001,R49.00,PR004900,23/11/2016,27/11/2016,34567,17,GN CH CHHY ENG.DSF
Pork roast R49.0 kg GN CH CHHY EX HAL Afr,Pork roast,A0055,Afrikaans,L01,Standard,T0001,R49.00,PR004900,23/11/2016,27/11/2016,34567,10,GN CH CHHY AFR.DSF
Pork roast R49.0 kg GN CH CHHY EX HAL Afr2,Pork roast,A0055,Afrikaans,L01,Standard,T0001,R49.00,PR004900,23/11/2016,27/11/2016,34567,14,GN CH CHHY AFR.DSF
Karoo Braaiwors R49.0 kg GN CH CHHY Eng,Karoo Braaiwors,A0265,English,L02,Standard,T0001,R49.00,PR004900,23/11/2016,27/11/2016,34567,11,GN CH CHHY ENG.DSF
Karoo Braaiwors R49.0 kg GN CH CHHY Eng2,Karoo Braaiwors,A0265,English,L02,Standard,T0001,R49.00,PR004900,23/11/2016,27/11/2016,34567,15,GN CH CHHY ENG.DSF
Karoo Braaiwors R49.0 kg GN CH CHHY Afr,Karoo Braaiwors,A0265,Afrikaans,L01,Standard,T0001,R49.00,PR004900,23/11/2016,27/11/2016,34567,12,GN CH CHHY AFR.DSF
Karoo Braaiwors R49.0 kg GN CH CHHY Afr2,Karoo Braaiwors,A0265,Afrikaans,L01,Standard,T0001,R49.00,PR004900,23/11/2016,27/11/2016,34567,16,GN CH CHHY AFR.DSF
Spatchcock chicken R45.99 kg NAMIBIA SR Eng,Spatchcock chicken,A0027,English,L02,Standard,T0001,R45.99,PR004599,21/11/2016,27/11/2016,1234567,13,NAMIBIA SR ENG.DSF
Spatchcock chicken R45.99 kg NAMIBIA SR Eng2,Spatchcock chicken,A0027,English,L02,Standard,T0001,R45.99,PR004599,21/11/2016,27/11/2016,1234567,17,NAMIBIA SR ENG.DSF
Pork Texan Steak R64.99 kg NAMIBIA SR EX HAL Eng,Pork Texan Steak,A0229,English,L02,Standard,T0001,R64.99,PR006499,21/11/2016,27/11/2016,1234567,10,NAMIBIA SR ENG.DSF
Pork Texan Steak R64.99 kg NAMIBIA SR EX HAL Eng2,Pork Texan Steak,A0229,English,L02,Standard,T0001,R64.99,PR006499,21/11/2016,27/11/2016,1234567,14,NAMIBIA SR ENG.DSF
Stewing beef R56.99 kg NAMIBIA SR Eng,Stewing beef,A0059,English,L02,Standard,T0001,R56.99,PR005699,21/11/2016,27/11/2016,1234567,11,NAMIBIA SR ENG.DSF
Stewing beef R56.99 kg NAMIBIA SR Eng2,Stewing beef,A0059,English,L02,Standard,T0001,R56.99,PR005699,21/11/2016,27/11/2016,1234567,15,NAMIBIA SR ENG.DSF
Championship Boerewors Thick R69.99 kg NAMIBIA CH CHHY Eng,Championship Boerewors Thick,A0261,English,L02,Standard,T0001,R69.99,PR006999,21/11/2016,27/11/2016,1234567,12,NAMIBIA CH CHHY ENG.DSF
Championship Boerewors Thick R69.99 kg NAMIBIA CH CHHY Eng2,Championship Boerewors Thick,A0261,English,L02,Standard,T0001,R69.99,PR006999,21/11/2016,27/11/2016,1234567,16,NAMIBIA CH CHHY ENG.DSF
Spatchcock chicken R45.99 kg NAMIBIA CH CHHY Eng,Spatchcock chicken,A0027,English,L02,Standard,T0001,R45.99,PR004599,21/11/2016,27/11/2016,1234567,13,NAMIBIA CH CHHY ENG.DSF
Spatchcock chicken R45.99 kg NAMIBIA CH CHHY Eng2,Spatchcock chicken,A0027,English,L02,Standard,T0001,R45.99,PR004599,21/11/2016,27/11/2016,1234567,17,NAMIBIA CH CHHY ENG.DSF
Steak pack R79.99 kg NAMIBIA CH CHHY Eng,Steak pack,A0058,English,L02,Standard,T0001,R79.99,PR007999,21/11/2016,27/11/2016,1234567,10,NAMIBIA CH CHHY ENG.DSF
Steak pack R79.99 kg NAMIBIA CH CHHY Eng2,Steak pack,A0058,English,L02,Standard,T0001,R79.99,PR007999,21/11/2016,27/11/2016,1234567,14,NAMIBIA CH CHHY ENG.DSF
Pork Texan Steak R64.99 kg NAMIBIA CH CHHY EX HAL Eng,Pork Texan Steak,A0229,English,L02,Standard,T0001,R64.99,PR006499,21/11/2016,27/11/2016,1234567,11,NAMIBIA CH CHHY ENG.DSF
Pork Texan Steak R64.99 kg NAMIBIA CH CHHY EX HAL Eng2,Pork Texan Steak,A0229,English,L02,Standard,T0001,R64.99,PR006499,21/11/2016,27/11/2016,1234567,15,NAMIBIA CH CHHY ENG.DSF
