Description,Product,Product Code,Language,Language Code,Theme,Theme Code,Price,Price code,Start Date,End Date,Weekdays,Playing At,Store Listing File
Championship Boerewors Thick R64.99 kg WC CH CHHY Eng,Championship Boerewors Thick,A0261,English,L02,Standard,T0001,R64.99,PR006499,31/10/2016,06/11/2016,1234567,10,WC CH CHHY ENG.DSF
Championship Boerewors Thick R64.99 kg WC CH CHHY Eng2,Championship Boerewors Thick,A0261,English,L02,Standard,T0001,R64.99,PR006499,31/10/2016,06/11/2016,1234567,14,WC CH CHHY ENG.DSF
Championship Boerewors Thick R64.99 kg WC CH CHHY Afr,Championship Boerewors Thick,A0261,Afrikaans,L01,Standard,T0001,R64.99,PR006499,31/10/2016,06/11/2016,1234567,11,WC CH CHHY AFR.DSF
Championship Boerewors Thick R64.99 kg WC CH CHHY Afr2,Championship Boerewors Thick,A0261,Afrikaans,L01,Standard,T0001,R64.99,PR006499,31/10/2016,06/11/2016,1234567,15,WC CH CHHY AFR.DSF
Corned beef R89.99 kg WC SR Eng,Corned beef,A0077,English,L02,Standard,T0001,R89.99,PR008999,31/10/2016,06/11/2016,1234567,12,WC SR ENG.DSF
Corned beef R89.99 kg WC SR Eng2,Corned beef,A0077,English,L02,Standard,T0001,R89.99,PR008999,31/10/2016,06/11/2016,1234567,16,WC SR ENG.DSF
Corned beef R89.99 kg WC SR Afr,Corned beef,A0077,Afrikaans,L01,Standard,T0001,R89.99,PR008999,31/10/2016,06/11/2016,1234567,13,WC SR AFR.DSF
Corned beef R89.99 kg WC SR Afr2,Corned beef,A0077,Afrikaans,L01,Standard,T0001,R89.99,PR008999,31/10/2016,06/11/2016,1234567,17,WC SR AFR.DSF
Corned beef Tongue Afr R69.99 kg WC SR Eng,Corned beef Tongue Afr,A0192,English,L02,Standard,T0001,R69.99,PR006999,31/10/2016,06/11/2016,1234567,10,WC SR ENG.DSF
Corned beef Tongue Afr R69.99 kg WC SR Eng2,Corned beef Tongue Afr,A0192,English,L02,Standard,T0001,R69.99,PR006999,31/10/2016,06/11/2016,1234567,14,WC SR ENG.DSF
Corned beef Tongue Afr R69.99 kg WC SR Afr,Corned beef Tongue Afr,A0192,Afrikaans,L01,Standard,T0001,R69.99,PR006999,31/10/2016,06/11/2016,1234567,11,WC SR AFR.DSF
Corned beef Tongue Afr R69.99 kg WC SR Afr2,Corned beef Tongue Afr,A0192,Afrikaans,L01,Standard,T0001,R69.99,PR006999,31/10/2016,06/11/2016,1234567,15,WC SR AFR.DSF
Championship Boerewors Thick R64.99 kg WC SR Eng,Championship Boerewors Thick,A0261,English,L02,Standard,T0001,R64.99,PR006499,31/10/2016,06/11/2016,1234567,12,WC SR ENG.DSF
Championship Boerewors Thick R64.99 kg WC SR Eng2,Championship Boerewors Thick,A0261,English,L02,Standard,T0001,R64.99,PR006499,31/10/2016,06/11/2016,1234567,16,WC SR ENG.DSF
Championship Boerewors Thick R64.99 kg WC SR Afr,Championship Boerewors Thick,A0261,Afrikaans,L01,Standard,T0001,R64.99,PR006499,31/10/2016,06/11/2016,1234567,13,WC SR AFR.DSF
Championship Boerewors Thick R64.99 kg WC SR Afr2,Championship Boerewors Thick,A0261,Afrikaans,L01,Standard,T0001,R64.99,PR006499,31/10/2016,06/11/2016,1234567,17,WC SR AFR.DSF
Boneless Gammon R69.99 kg WC SR Eng,Boneless Gammon,A0147,English,L02,Standard,T0001,R69.99,PR006999,31/10/2016,06/11/2016,1234567,10,WC SR ENG.DSF
Boneless Gammon R69.99 kg WC SR Eng2,Boneless Gammon,A0147,English,L02,Standard,T0001,R69.99,PR006999,31/10/2016,06/11/2016,1234567,14,WC SR ENG.DSF
Boneless Gammon R69.99 kg WC SR Afr,Boneless Gammon,A0147,Afrikaans,L01,Standard,T0001,R69.99,PR006999,31/10/2016,06/11/2016,1234567,11,WC SR AFR.DSF
Boneless Gammon R69.99 kg WC SR Afr2,Boneless Gammon,A0147,Afrikaans,L01,Standard,T0001,R69.99,PR006999,31/10/2016,06/11/2016,1234567,15,WC SR AFR.DSF
Pork Texan Steak R54.99 kg WC SR EX HAL Eng,Pork Texan Steak,A0229,English,L02,Standard,T0001,R54.99,PR005499,31/10/2016,06/11/2016,1234567,12,WC SR ENG.DSF
Pork Texan Steak R54.99 kg WC SR EX HAL Eng2,Pork Texan Steak,A0229,English,L02,Standard,T0001,R54.99,PR005499,31/10/2016,06/11/2016,1234567,16,WC SR ENG.DSF
Pork Texan Steak R54.99 kg WC SR EX HAL Afr,Pork Texan Steak,A0229,Afrikaans,L01,Standard,T0001,R54.99,PR005499,31/10/2016,06/11/2016,1234567,13,WC SR AFR.DSF
Pork Texan Steak R54.99 kg WC SR EX HAL Afr2,Pork Texan Steak,A0229,Afrikaans,L01,Standard,T0001,R54.99,PR005499,31/10/2016,06/11/2016,1234567,17,WC SR AFR.DSF
Pork braai chops R49.99 kg EC SR EX HAL Eng,Pork braai chops,A0018,English,L02,Standard,T0001,R49.99,PR004999,31/10/2016,06/11/2016,1234567,10,EC SR ENG.DSF
Pork braai chops R49.99 kg EC SR EX HAL Eng2,Pork braai chops,A0018,English,L02,Standard,T0001,R49.99,PR004999,31/10/2016,06/11/2016,1234567,14,EC SR ENG.DSF
Pork braai chops R49.99 kg EC SR EX HAL Afr,Pork braai chops,A0018,Afrikaans,L01,Standard,T0001,R49.99,PR004999,31/10/2016,06/11/2016,1234567,11,EC SR AFR.DSF
Pork braai chops R49.99 kg EC SR EX HAL Afr2,Pork braai chops,A0018,Afrikaans,L01,Standard,T0001,R49.99,PR004999,31/10/2016,06/11/2016,1234567,15,EC SR AFR.DSF
Beef potjiekos R58.99 kg EC SR Eng,Beef potjiekos,A0033,English,L02,Standard,T0001,R58.99,PR005899,31/10/2016,06/11/2016,1234567,12,EC SR ENG.DSF
Beef potjiekos R58.99 kg EC SR Eng2,Beef potjiekos,A0033,English,L02,Standard,T0001,R58.99,PR005899,31/10/2016,06/11/2016,1234567,16,EC SR ENG.DSF
Beef potjiekos R58.99 kg EC SR Afr,Beef potjiekos,A0033,Afrikaans,L01,Standard,T0001,R58.99,PR005899,31/10/2016,06/11/2016,1234567,13,EC SR AFR.DSF
Beef potjiekos R58.99 kg EC SR Afr2,Beef potjiekos,A0033,Afrikaans,L01,Standard,T0001,R58.99,PR005899,31/10/2016,06/11/2016,1234567,17,EC SR AFR.DSF
Beef mince R59.99 kg EC SR Eng,Beef mince,A0004,English,L02,Standard,T0001,R59.99,PR005999,31/10/2016,06/11/2016,1234567,10,EC SR ENG.DSF
Beef mince R59.99 kg EC SR Eng2,Beef mince,A0004,English,L02,Standard,T0001,R59.99,PR005999,31/10/2016,06/11/2016,1234567,14,EC SR ENG.DSF
Beef mince R59.99 kg EC SR Afr,Beef mince,A0004,Afrikaans,L01,Standard,T0001,R59.99,PR005999,31/10/2016,06/11/2016,1234567,11,EC SR AFR.DSF
Beef mince R59.99 kg EC SR Afr2,Beef mince,A0004,Afrikaans,L01,Standard,T0001,R59.99,PR005999,31/10/2016,06/11/2016,1234567,15,EC SR AFR.DSF
Pork bangers R46.99 kg EC SR EX HAL Eng,Pork bangers,A0067,English,L02,Standard,T0001,R46.99,PR004699,31/10/2016,06/11/2016,1234567,12,EC SR ENG.DSF
Pork bangers R46.99 kg EC SR EX HAL Eng2,Pork bangers,A0067,English,L02,Standard,T0001,R46.99,PR004699,31/10/2016,06/11/2016,1234567,16,EC SR ENG.DSF
Pork bangers R46.99 kg EC SR EX HAL Afr,Pork bangers,A0067,Afrikaans,L01,Standard,T0001,R46.99,PR004699,31/10/2016,06/11/2016,1234567,13,EC SR AFR.DSF
Pork bangers R46.99 kg EC SR EX HAL Afr2,Pork bangers,A0067,Afrikaans,L01,Standard,T0001,R46.99,PR004699,31/10/2016,06/11/2016,1234567,17,EC SR AFR.DSF
Econo Braaiwors R39.99 kg EC ECP Eng,Econo Braaiwors,A0223,English,L02,Standard,T0001,R39.99,PR003999,31/10/2016,06/11/2016,1234567,10,EC ECP ENG.DSF
Econo Braaiwors R39.99 kg EC ECP Eng2,Econo Braaiwors,A0223,English,L02,Standard,T0001,R39.99,PR003999,31/10/2016,06/11/2016,1234567,14,EC ECP ENG.DSF
Econo Braaiwors R39.99 kg EC ECP Afr,Econo Braaiwors,A0223,Afrikaans,L01,Standard,T0001,R39.99,PR003999,31/10/2016,06/11/2016,1234567,11,EC ECP AFR.DSF
Econo Braaiwors R39.99 kg EC ECP Afr2,Econo Braaiwors,A0223,Afrikaans,L01,Standard,T0001,R39.99,PR003999,31/10/2016,06/11/2016,1234567,15,EC ECP AFR.DSF
Beef potjiekos R58.99 kg EC ECP Eng,Beef potjiekos,A0033,English,L02,Standard,T0001,R58.99,PR005899,31/10/2016,06/11/2016,1234567,12,EC ECP ENG.DSF
Beef potjiekos R58.99 kg EC ECP Eng2,Beef potjiekos,A0033,English,L02,Standard,T0001,R58.99,PR005899,31/10/2016,06/11/2016,1234567,16,EC ECP ENG.DSF
Beef potjiekos R58.99 kg EC ECP Afr,Beef potjiekos,A0033,Afrikaans,L01,Standard,T0001,R58.99,PR005899,31/10/2016,06/11/2016,1234567,13,EC ECP AFR.DSF
Beef potjiekos R58.99 kg EC ECP Afr2,Beef potjiekos,A0033,Afrikaans,L01,Standard,T0001,R58.99,PR005899,31/10/2016,06/11/2016,1234567,17,EC ECP AFR.DSF
Traditional ground beef R52.99 kg EC ECP Eng,Traditional ground beef,A0032,English,L02,Standard,T0001,R52.99,PR005299,31/10/2016,06/11/2016,1234567,10,EC ECP ENG.DSF
Traditional ground beef R52.99 kg EC ECP Eng2,Traditional ground beef,A0032,English,L02,Standard,T0001,R52.99,PR005299,31/10/2016,06/11/2016,1234567,14,EC ECP ENG.DSF
Traditional ground beef R52.99 kg EC ECP Afr,Traditional ground beef,A0032,Afrikaans,L01,Standard,T0001,R52.99,PR005299,31/10/2016,06/11/2016,1234567,11,EC ECP AFR.DSF
Traditional ground beef R52.99 kg EC ECP Afr2,Traditional ground beef,A0032,Afrikaans,L01,Standard,T0001,R52.99,PR005299,31/10/2016,06/11/2016,1234567,15,EC ECP AFR.DSF
Ox Tails R69.99 kg EC CH CHHY Eng,Ox Tails,A0234,English,L02,Standard,T0001,R69.99,PR006999,31/10/2016,06/11/2016,1234567,12,EC CH CHHY ENG.DSF
Ox Tails R69.99 kg EC CH CHHY Eng2,Ox Tails,A0234,English,L02,Standard,T0001,R69.99,PR006999,31/10/2016,06/11/2016,1234567,16,EC CH CHHY ENG.DSF
Ox Tails R69.99 kg EC CH CHHY Afr,Ox Tails,A0234,Afrikaans,L01,Standard,T0001,R69.99,PR006999,31/10/2016,06/11/2016,1234567,13,EC CH CHHY AFR.DSF
Ox Tails R69.99 kg EC CH CHHY Afr2,Ox Tails,A0234,Afrikaans,L01,Standard,T0001,R69.99,PR006999,31/10/2016,06/11/2016,1234567,17,EC CH CHHY AFR.DSF
Lamb braai chops R89.99 kg EC CH CHHY Eng,Lamb braai chops,A0015,English,L02,Standard,T0001,R89.99,PR008999,31/10/2016,06/11/2016,1234567,10,EC CH CHHY ENG.DSF
Lamb braai chops R89.99 kg EC CH CHHY Eng2,Lamb braai chops,A0015,English,L02,Standard,T0001,R89.99,PR008999,31/10/2016,06/11/2016,1234567,14,EC CH CHHY ENG.DSF
Lamb braai chops R89.99 kg EC CH CHHY Afr,Lamb braai chops,A0015,Afrikaans,L01,Standard,T0001,R89.99,PR008999,31/10/2016,06/11/2016,1234567,11,EC CH CHHY AFR.DSF
Lamb braai chops R89.99 kg EC CH CHHY Afr2,Lamb braai chops,A0015,Afrikaans,L01,Standard,T0001,R89.99,PR008999,31/10/2016,06/11/2016,1234567,15,EC CH CHHY AFR.DSF
Steak pack R79.99 kg EC CH CHHY Eng,Steak pack,A0058,English,L02,Standard,T0001,R79.99,PR007999,31/10/2016,06/11/2016,1234567,12,EC CH CHHY ENG.DSF
Steak pack R79.99 kg EC CH CHHY Eng2,Steak pack,A0058,English,L02,Standard,T0001,R79.99,PR007999,31/10/2016,06/11/2016,1234567,16,EC CH CHHY ENG.DSF
Steak pack R79.99 kg EC CH CHHY Afr,Steak pack,A0058,Afrikaans,L01,Standard,T0001,R79.99,PR007999,31/10/2016,06/11/2016,1234567,13,EC CH CHHY AFR.DSF
Steak pack R79.99 kg EC CH CHHY Afr2,Steak pack,A0058,Afrikaans,L01,Standard,T0001,R79.99,PR007999,31/10/2016,06/11/2016,1234567,17,EC CH CHHY AFR.DSF
Beef goulash R74.99 kg EC CH CHHY Eng,Beef goulash,A0003,English,L02,Standard,T0001,R74.99,PR007499,31/10/2016,06/11/2016,1234567,10,EC CH CHHY ENG.DSF
Beef goulash R74.99 kg EC CH CHHY Eng2,Beef goulash,A0003,English,L02,Standard,T0001,R74.99,PR007499,31/10/2016,06/11/2016,1234567,14,EC CH CHHY ENG.DSF
Beef goulash R74.99 kg EC CH CHHY Afr,Beef goulash,A0003,Afrikaans,L01,Standard,T0001,R74.99,PR007499,31/10/2016,06/11/2016,1234567,11,EC CH CHHY AFR.DSF
Beef goulash R74.99 kg EC CH CHHY Afr2,Beef goulash,A0003,Afrikaans,L01,Standard,T0001,R74.99,PR007499,31/10/2016,06/11/2016,1234567,15,EC CH CHHY AFR.DSF
Stewing beef R49.99 kg KZN SR Eng,Stewing beef,A0059,English,L02,Standard,T0001,R49.99,PR004999,02/11/2016,02/11/2016,3,12,KZN SR ENG.DSF
Stewing beef R49.99 kg KZN SR Eng2,Stewing beef,A0059,English,L02,Standard,T0001,R49.99,PR004999,02/11/2016,02/11/2016,3,16,KZN SR ENG.DSF
Chuck and blade beef R59.99 kg KZN SR Eng,Chuck and blade beef,A0043,English,L02,Standard,T0001,R59.99,PR005999,31/10/2016,06/11/2016,1234567,13,KZN SR ENG.DSF
Chuck and blade beef R59.99 kg KZN SR Eng2,Chuck and blade beef,A0043,English,L02,Standard,T0001,R59.99,PR005999,31/10/2016,06/11/2016,1234567,17,KZN SR ENG.DSF
Beef potjiekos R49.99 kg KZN SR Eng,Beef potjiekos,A0033,English,L02,Standard,T0001,R49.99,PR004999,31/10/2016,06/11/2016,1234567,10,KZN SR ENG.DSF
Beef potjiekos R49.99 kg KZN SR Eng2,Beef potjiekos,A0033,English,L02,Standard,T0001,R49.99,PR004999,31/10/2016,06/11/2016,1234567,14,KZN SR ENG.DSF
Grabouw boerewors (thick & thin) R49.99 kg KZN SR Eng,Grabouw boerewors (thick & thin),A0074 & A0079,English,L02,Standard,T0001,R49.99,PR004999,31/10/2016,06/11/2016,1234567,11,KZN SR ENG.DSF
Grabouw boerewors (thick & thin) R49.99 kg KZN SR Eng2,Grabouw boerewors (thick & thin),A0074 & A0079,English,L02,Standard,T0001,R49.99,PR004999,31/10/2016,06/11/2016,1234567,15,KZN SR ENG.DSF
Traditional ground beef R39.99 kg KZN SR Eng,Traditional ground beef,A0032,English,L02,Standard,T0001,R39.99,PR003999,31/10/2016,06/11/2016,1234567,12,KZN SR ENG.DSF
Traditional ground beef R39.99 kg KZN SR Eng2,Traditional ground beef,A0032,English,L02,Standard,T0001,R39.99,PR003999,31/10/2016,06/11/2016,1234567,16,KZN SR ENG.DSF
Lamb packs R89.99 kg KZN CH CHHY Eng,Lamb packs,A0016,English,L02,Standard,T0001,R89.99,PR008999,31/10/2016,06/11/2016,1234567,13,KZN CH CHHY ENG.DSF
Lamb packs R89.99 kg KZN CH CHHY Eng2,Lamb packs,A0016,English,L02,Standard,T0001,R89.99,PR008999,31/10/2016,06/11/2016,1234567,17,KZN CH CHHY ENG.DSF
Lean beef mince R59.99 kg KZN CH CHHY Eng,Lean beef mince,A0017,English,L02,Standard,T0001,R59.99,PR005999,31/10/2016,06/11/2016,1234567,10,KZN CH CHHY ENG.DSF
Lean beef mince R59.99 kg KZN CH CHHY Eng2,Lean beef mince,A0017,English,L02,Standard,T0001,R59.99,PR005999,31/10/2016,06/11/2016,1234567,14,KZN CH CHHY ENG.DSF
Steak House Classic Rump 300g R98.0 kg KZN CH CHHY Eng,Steak House Classic Rump 300g,A0278,English,L02,Standard,T0001,R98.00,PR009800,31/10/2016,06/11/2016,1234567,11,KZN CH CHHY ENG.DSF
Steak House Classic Rump 300g R98.0 kg KZN CH CHHY Eng2,Steak House Classic Rump 300g,A0278,English,L02,Standard,T0001,R98.00,PR009800,31/10/2016,06/11/2016,1234567,15,KZN CH CHHY ENG.DSF
Championship Boerewors Thick R64.99 kg KZN CH CHHY Eng,Championship Boerewors Thick,A0261,English,L02,Standard,T0001,R64.99,PR006499,31/10/2016,06/11/2016,1234567,12,KZN CH CHHY ENG.DSF
Championship Boerewors Thick R64.99 kg KZN CH CHHY Eng2,Championship Boerewors Thick,A0261,English,L02,Standard,T0001,R64.99,PR006499,31/10/2016,06/11/2016,1234567,16,KZN CH CHHY ENG.DSF
Steak House Classic Rump 300g R30.0 300g KZN CH CHHY Eng,Steak House Classic Rump 300g,A0278,English,L02,Standard,T0001,R30.00,PR003000,31/10/2016,06/11/2016,1234567,13,KZN CH CHHY ENG.DSF
Steak House Classic Rump 300g R30.0 300g KZN CH CHHY Eng2,Steak House Classic Rump 300g,A0278,English,L02,Standard,T0001,R30.00,PR003000,31/10/2016,06/11/2016,1234567,17,KZN CH CHHY ENG.DSF
Stewing beef R59.99 kg KZN SR Eng,Stewing beef,A0059,English,L02,Standard,T0001,R59.99,PR005999,31/10/2016,06/11/2016,1234567,10,KZN SR ENG.DSF
Stewing beef R59.99 kg KZN SR Eng2,Stewing beef,A0059,English,L02,Standard,T0001,R59.99,PR005999,31/10/2016,06/11/2016,1234567,14,KZN SR ENG.DSF
Grabouw boerewors (thick & thin) R49.99 kg KZN SR Eng,Grabouw boerewors (thick & thin),A0074 & A0079,English,L02,Standard,T0001,R49.99,PR004999,31/10/2016,06/11/2016,1234567,11,KZN SR ENG.DSF
Grabouw boerewors (thick & thin) R49.99 kg KZN SR Eng2,Grabouw boerewors (thick & thin),A0074 & A0079,English,L02,Standard,T0001,R49.99,PR004999,31/10/2016,06/11/2016,1234567,15,KZN SR ENG.DSF
Traditional ground beef R52.99 kg KZN LESOTHO SR Eng,Traditional ground beef,A0032,English,L02,Standard,T0001,R52.99,PR005299,31/10/2016,06/11/2016,1234567,12,KZN LESOTHO SR ENG.DSF
Traditional ground beef R52.99 kg KZN LESOTHO SR Eng2,Traditional ground beef,A0032,English,L02,Standard,T0001,R52.99,PR005299,31/10/2016,06/11/2016,1234567,16,KZN LESOTHO SR ENG.DSF
Beef bangers R36.0 kg GN SR Eng,Beef bangers,A0068,English,L02,Standard,T0001,R36.00,PR003600,31/10/2016,06/11/2016,1234567,13,GN SR ENG.DSF
Beef bangers R36.0 kg GN SR Eng2,Beef bangers,A0068,English,L02,Standard,T0001,R36.00,PR003600,31/10/2016,06/11/2016,1234567,17,GN SR ENG.DSF
Beef bangers R36.0 kg GN SR Afr,Beef bangers,A0068,Afrikaans,L01,Standard,T0001,R36.00,PR003600,31/10/2016,06/11/2016,1234567,10,GN SR AFR.DSF
Beef bangers R36.0 kg GN SR Afr2,Beef bangers,A0068,Afrikaans,L01,Standard,T0001,R36.00,PR003600,31/10/2016,06/11/2016,1234567,14,GN SR AFR.DSF
Beef potjiekos R56.0 kg GN SR Eng,Beef potjiekos,A0033,English,L02,Standard,T0001,R56.00,PR005600,31/10/2016,06/11/2016,1234567,11,GN SR ENG.DSF
Beef potjiekos R56.0 kg GN SR Eng2,Beef potjiekos,A0033,English,L02,Standard,T0001,R56.00,PR005600,31/10/2016,06/11/2016,1234567,15,GN SR ENG.DSF
Beef potjiekos R56.0 kg GN SR Afr,Beef potjiekos,A0033,Afrikaans,L01,Standard,T0001,R56.00,PR005600,31/10/2016,06/11/2016,1234567,12,GN SR AFR.DSF
Beef potjiekos R56.0 kg GN SR Afr2,Beef potjiekos,A0033,Afrikaans,L01,Standard,T0001,R56.00,PR005600,31/10/2016,06/11/2016,1234567,16,GN SR AFR.DSF
Beef mince R52.0 kg GN SR Eng,Beef mince,A0004,English,L02,Standard,T0001,R52.00,PR005200,31/10/2016,06/11/2016,1234567,13,GN SR ENG.DSF
Beef mince R52.0 kg GN SR Eng2,Beef mince,A0004,English,L02,Standard,T0001,R52.00,PR005200,31/10/2016,06/11/2016,1234567,17,GN SR ENG.DSF
Beef mince R52.0 kg GN SR Afr,Beef mince,A0004,Afrikaans,L01,Standard,T0001,R52.00,PR005200,31/10/2016,06/11/2016,1234567,10,GN SR AFR.DSF
Beef mince R52.0 kg GN SR Afr2,Beef mince,A0004,Afrikaans,L01,Standard,T0001,R52.00,PR005200,31/10/2016,06/11/2016,1234567,14,GN SR AFR.DSF
Pork braai chops R49.0 kg GN SR EX HAL Eng,Pork braai chops,A0018,English,L02,Standard,T0001,R49.00,PR004900,31/10/2016,06/11/2016,1234567,11,GN SR ENG.DSF
Pork braai chops R49.0 kg GN SR EX HAL Eng2,Pork braai chops,A0018,English,L02,Standard,T0001,R49.00,PR004900,31/10/2016,06/11/2016,1234567,15,GN SR ENG.DSF
Pork braai chops R49.0 kg GN SR EX HAL Afr,Pork braai chops,A0018,Afrikaans,L01,Standard,T0001,R49.00,PR004900,31/10/2016,06/11/2016,1234567,12,GN SR AFR.DSF
Pork braai chops R49.0 kg GN SR EX HAL Afr2,Pork braai chops,A0018,Afrikaans,L01,Standard,T0001,R49.00,PR004900,31/10/2016,06/11/2016,1234567,16,GN SR AFR.DSF
Beef burgers R59.9 kg GN CH CHHY Eng,Beef burgers,A0062,English,L02,Standard,T0001,R59.90,PR005990,31/10/2016,06/11/2016,1234567,13,GN CH CHHY ENG.DSF
Beef burgers R59.9 kg GN CH CHHY Eng2,Beef burgers,A0062,English,L02,Standard,T0001,R59.90,PR005990,31/10/2016,06/11/2016,1234567,17,GN CH CHHY ENG.DSF
Beef burgers R59.9 kg GN CH CHHY Afr,Beef burgers,A0062,Afrikaans,L01,Standard,T0001,R59.90,PR005990,31/10/2016,06/11/2016,1234567,10,GN CH CHHY AFR.DSF
Beef burgers R59.9 kg GN CH CHHY Afr2,Beef burgers,A0062,Afrikaans,L01,Standard,T0001,R59.90,PR005990,31/10/2016,06/11/2016,1234567,14,GN CH CHHY AFR.DSF
Chargrill burger patties R59.9 kg GN CH CHHY Eng,Chargrill burger patties,A0103,English,L02,Standard,T0001,R59.90,PR005990,31/10/2016,06/11/2016,1234567,11,GN CH CHHY ENG.DSF
Chargrill burger patties R59.9 kg GN CH CHHY Eng2,Chargrill burger patties,A0103,English,L02,Standard,T0001,R59.90,PR005990,31/10/2016,06/11/2016,1234567,15,GN CH CHHY ENG.DSF
Chargrill burger patties R59.9 kg GN CH CHHY Afr,Chargrill burger patties,A0103,Afrikaans,L01,Standard,T0001,R59.90,PR005990,31/10/2016,06/11/2016,1234567,12,GN CH CHHY AFR.DSF
Chargrill burger patties R59.9 kg GN CH CHHY Afr2,Chargrill burger patties,A0103,Afrikaans,L01,Standard,T0001,R59.90,PR005990,31/10/2016,06/11/2016,1234567,16,GN CH CHHY AFR.DSF
Pepper burgers R59.9 kg GN CH CHHY Eng,Pepper burgers,A0065,English,L02,Standard,T0001,R59.90,PR005990,31/10/2016,06/11/2016,1234567,13,GN CH CHHY ENG.DSF
Pepper burgers R59.9 kg GN CH CHHY Eng2,Pepper burgers,A0065,English,L02,Standard,T0001,R59.90,PR005990,31/10/2016,06/11/2016,1234567,17,GN CH CHHY ENG.DSF
Pepper burgers R59.9 kg GN CH CHHY Afr,Pepper burgers,A0065,Afrikaans,L01,Standard,T0001,R59.90,PR005990,31/10/2016,06/11/2016,1234567,10,GN CH CHHY AFR.DSF
Pepper burgers R59.9 kg GN CH CHHY Afr2,Pepper burgers,A0065,Afrikaans,L01,Standard,T0001,R59.90,PR005990,31/10/2016,06/11/2016,1234567,14,GN CH CHHY AFR.DSF
Kameeldoring Boerewors R65.0 kg GN CH CHHY Eng,Kameeldoring Boerewors,A0264,English,L02,Standard,T0001,R65.00,PR006500,31/10/2016,06/11/2016,1234567,11,GN CH CHHY ENG.DSF
Kameeldoring Boerewors R65.0 kg GN CH CHHY Eng2,Kameeldoring Boerewors,A0264,English,L02,Standard,T0001,R65.00,PR006500,31/10/2016,06/11/2016,1234567,15,GN CH CHHY ENG.DSF
Kameeldoring Boerewors R65.0 kg GN CH CHHY Afr,Kameeldoring Boerewors,A0264,Afrikaans,L01,Standard,T0001,R65.00,PR006500,31/10/2016,06/11/2016,1234567,12,GN CH CHHY AFR.DSF
Kameeldoring Boerewors R65.0 kg GN CH CHHY Afr2,Kameeldoring Boerewors,A0264,Afrikaans,L01,Standard,T0001,R65.00,PR006500,31/10/2016,06/11/2016,1234567,16,GN CH CHHY AFR.DSF
Spatchcock chicken R39.9 kg GN CH CHHY Eng,Spatchcock chicken,A0027,English,L02,Standard,T0001,R39.90,PR003990,31/10/2016,06/11/2016,1234567,13,GN CH CHHY ENG.DSF
Spatchcock chicken R39.9 kg GN CH CHHY Eng2,Spatchcock chicken,A0027,English,L02,Standard,T0001,R39.90,PR003990,31/10/2016,06/11/2016,1234567,17,GN CH CHHY ENG.DSF
Spatchcock chicken R39.9 kg GN CH CHHY Afr,Spatchcock chicken,A0027,Afrikaans,L01,Standard,T0001,R39.90,PR003990,31/10/2016,06/11/2016,1234567,10,GN CH CHHY AFR.DSF
Spatchcock chicken R39.9 kg GN CH CHHY Afr2,Spatchcock chicken,A0027,Afrikaans,L01,Standard,T0001,R39.90,PR003990,31/10/2016,06/11/2016,1234567,14,GN CH CHHY AFR.DSF
Grabouw boerewors (thick & thin) R49.0 kg GN CH CHHY Eng,Grabouw boerewors (thick & thin),A0074 & A0079,English,L02,Standard,T0001,R49.00,PR004900,31/10/2016,06/11/2016,1234567,11,GN CH CHHY ENG.DSF
Grabouw boerewors (thick & thin) R49.0 kg GN CH CHHY Eng2,Grabouw boerewors (thick & thin),A0074 & A0079,English,L02,Standard,T0001,R49.00,PR004900,31/10/2016,06/11/2016,1234567,15,GN CH CHHY ENG.DSF
Grabouw boerewors (thick & thin) R49.0 kg GN CH CHHY Afr,Grabouw boerewors (thick & thin),A0074 & A0079,Afrikaans,L01,Standard,T0001,R49.00,PR004900,31/10/2016,06/11/2016,1234567,12,GN CH CHHY AFR.DSF
Grabouw boerewors (thick & thin) R49.0 kg GN CH CHHY Afr2,Grabouw boerewors (thick & thin),A0074 & A0079,Afrikaans,L01,Standard,T0001,R49.00,PR004900,31/10/2016,06/11/2016,1234567,16,GN CH CHHY AFR.DSF
Traditional ground beef R49.0 kg GN CH CHHY Eng,Traditional ground beef,A0032,English,L02,Standard,T0001,R49.00,PR004900,31/10/2016,06/11/2016,1234567,13,GN CH CHHY ENG.DSF
Traditional ground beef R49.0 kg GN CH CHHY Eng2,Traditional ground beef,A0032,English,L02,Standard,T0001,R49.00,PR004900,31/10/2016,06/11/2016,1234567,17,GN CH CHHY ENG.DSF
Traditional ground beef R49.0 kg GN CH CHHY Afr,Traditional ground beef,A0032,Afrikaans,L01,Standard,T0001,R49.00,PR004900,31/10/2016,06/11/2016,1234567,10,GN CH CHHY AFR.DSF
Traditional ground beef R49.0 kg GN CH CHHY Afr2,Traditional ground beef,A0032,Afrikaans,L01,Standard,T0001,R49.00,PR004900,31/10/2016,06/11/2016,1234567,14,GN CH CHHY AFR.DSF
Championship Boerewors Thick R69.99 kg NAMIBIA SR Eng,Championship Boerewors Thick,A0261,English,L02,Standard,T0001,R69.99,PR006999,31/10/2016,06/11/2016,1234567,11,NAMIBIA SR ENG.DSF
Championship Boerewors Thick R69.99 kg NAMIBIA SR Eng2,Championship Boerewors Thick,A0261,English,L02,Standard,T0001,R69.99,PR006999,31/10/2016,06/11/2016,1234567,15,NAMIBIA SR ENG.DSF
Tenderised steak R69.99 kg NAMIBIA SR Eng,Tenderised steak,A0029,English,L02,Standard,T0001,R69.99,PR006999,31/10/2016,06/11/2016,1234567,12,NAMIBIA SR ENG.DSF
Tenderised steak R69.99 kg NAMIBIA SR Eng2,Tenderised steak,A0029,English,L02,Standard,T0001,R69.99,PR006999,31/10/2016,06/11/2016,1234567,16,NAMIBIA SR ENG.DSF
Pork Texan Steak R64.99 kg NAMIBIA SR EX HAL Eng,Pork Texan Steak,A0229,English,L02,Standard,T0001,R64.99,PR006499,31/10/2016,06/11/2016,1234567,13,NAMIBIA SR ENG.DSF
Pork Texan Steak R64.99 kg NAMIBIA SR EX HAL Eng2,Pork Texan Steak,A0229,English,L02,Standard,T0001,R64.99,PR006499,31/10/2016,06/11/2016,1234567,17,NAMIBIA SR ENG.DSF
Stewing beef R49.99 kg NAMIBIA CH CHHY Eng,Stewing beef,A0059,English,L02,Standard,T0001,R49.99,PR004999,31/10/2016,06/11/2016,1234567,10,NAMIBIA CH CHHY ENG.DSF
Stewing beef R49.99 kg NAMIBIA CH CHHY Eng2,Stewing beef,A0059,English,L02,Standard,T0001,R49.99,PR004999,31/10/2016,06/11/2016,1234567,14,NAMIBIA CH CHHY ENG.DSF
Championship Boerewors Thick R69.99 kg NAMIBIA CH CHHY Eng,Championship Boerewors Thick,A0261,English,L02,Standard,T0001,R69.99,PR006999,31/10/2016,06/11/2016,1234567,11,NAMIBIA CH CHHY ENG.DSF
Championship Boerewors Thick R69.99 kg NAMIBIA CH CHHY Eng2,Championship Boerewors Thick,A0261,English,L02,Standard,T0001,R69.99,PR006999,31/10/2016,06/11/2016,1234567,15,NAMIBIA CH CHHY ENG.DSF
Lamb braai chops R89.99 kg NAMIBIA CH CHHY Eng,Lamb braai chops,A0015,English,L02,Standard,T0001,R89.99,PR008999,31/10/2016,06/11/2016,1234567,12,NAMIBIA CH CHHY ENG.DSF
Lamb braai chops R89.99 kg NAMIBIA CH CHHY Eng2,Lamb braai chops,A0015,English,L02,Standard,T0001,R89.99,PR008999,31/10/2016,06/11/2016,1234567,16,NAMIBIA CH CHHY ENG.DSF
Texan steak R64.99 kg NAMIBIA CH CHHY Eng,Texan steak,A0030,English,L02,Standard,T0001,R64.99,PR006499,31/10/2016,06/11/2016,1234567,13,NAMIBIA CH CHHY ENG.DSF
Texan steak R64.99 kg NAMIBIA CH CHHY Eng2,Texan steak,A0030,English,L02,Standard,T0001,R64.99,PR006499,31/10/2016,06/11/2016,1234567,17,NAMIBIA CH CHHY ENG.DSF
Pork Texan Steak R64.99 kg NAMIBIA CH CHHY EX HAL Eng,Pork Texan Steak,A0229,English,L02,Standard,T0001,R64.99,PR006499,31/10/2016,06/11/2016,1234567,10,NAMIBIA CH CHHY ENG.DSF
Pork Texan Steak R64.99 kg NAMIBIA CH CHHY EX HAL Eng2,Pork Texan Steak,A0229,English,L02,Standard,T0001,R64.99,PR006499,31/10/2016,06/11/2016,1234567,14,NAMIBIA CH CHHY ENG.DSF
