Description,Product,Product Code,Language,Language Code,Theme,Theme Code,Price,Price code,Start Date,End Date,Weekdays,Playing At,Store Listing File
Karoo Braaiwors R69.99 kg WC CH CHHY Eng,Karoo Braaiwors,A0265,English,L02,Standard,T0001,R69.99,PR006999,17/07/2017,23/07/2017,1234567,10,WC CH CHHY ENG.DSF
Karoo Braaiwors R69.99 kg WC CH CHHY Eng2,Karoo Braaiwors,A0265,English,L02,Standard,T0001,R69.99,PR006999,17/07/2017,23/07/2017,1234567,14,WC CH CHHY ENG.DSF
Karoo Braaiwors R69.99 kg WC CH CHHY Afr,Karoo Braaiwors,A0265,Afrikaans,L01,Standard,T0001,R69.99,PR006999,17/07/2017,23/07/2017,1234567,11,WC CH CHHY AFR.DSF
Karoo Braaiwors R69.99 kg WC CH CHHY Afr2,Karoo Braaiwors,A0265,Afrikaans,L01,Standard,T0001,R69.99,PR006999,17/07/2017,23/07/2017,1234567,15,WC CH CHHY AFR.DSF
Pork Texan Steak R59.99 kg WC CH CHHY EX HAL Eng,Pork Texan Steak,A0229,English,L02,Standard,T0001,R59.99,PR005999,17/07/2017,23/07/2017,1234567,12,WC CH CHHY ENG.DSF
Pork Texan Steak R59.99 kg WC CH CHHY EX HAL Eng2,Pork Texan Steak,A0229,English,L02,Standard,T0001,R59.99,PR005999,17/07/2017,23/07/2017,1234567,16,WC CH CHHY ENG.DSF
Pork Texan Steak R59.99 kg WC CH CHHY EX HAL Afr,Pork Texan Steak,A0229,Afrikaans,L01,Standard,T0001,R59.99,PR005999,17/07/2017,23/07/2017,1234567,13,WC CH CHHY AFR.DSF
Pork Texan Steak R59.99 kg WC CH CHHY EX HAL Afr2,Pork Texan Steak,A0229,Afrikaans,L01,Standard,T0001,R59.99,PR005999,17/07/2017,23/07/2017,1234567,17,WC CH CHHY AFR.DSF
Beef goulash R79.99 kg WC CH CHHY Eng,Beef goulash,A0003,English,L02,Standard,T0001,R79.99,PR007999,17/07/2017,23/07/2017,1234567,10,WC CH CHHY ENG.DSF
Beef goulash R79.99 kg WC CH CHHY Eng2,Beef goulash,A0003,English,L02,Standard,T0001,R79.99,PR007999,17/07/2017,23/07/2017,1234567,14,WC CH CHHY ENG.DSF
Beef goulash R79.99 kg WC CH CHHY Afr,Beef goulash,A0003,Afrikaans,L01,Standard,T0001,R79.99,PR007999,17/07/2017,23/07/2017,1234567,11,WC CH CHHY AFR.DSF
Beef goulash R79.99 kg WC CH CHHY Afr2,Beef goulash,A0003,Afrikaans,L01,Standard,T0001,R79.99,PR007999,17/07/2017,23/07/2017,1234567,15,WC CH CHHY AFR.DSF
Pork bangers R49.99 kg WC CH CHHY EX HAL Eng,Pork bangers,A0067,English,L02,Standard,T0001,R49.99,PR004999,17/07/2017,23/07/2017,1234567,12,WC CH CHHY ENG.DSF
Pork bangers R49.99 kg WC CH CHHY EX HAL Eng2,Pork bangers,A0067,English,L02,Standard,T0001,R49.99,PR004999,17/07/2017,23/07/2017,1234567,16,WC CH CHHY ENG.DSF
Pork bangers R49.99 kg WC CH CHHY EX HAL Afr,Pork bangers,A0067,Afrikaans,L01,Standard,T0001,R49.99,PR004999,17/07/2017,23/07/2017,1234567,13,WC CH CHHY AFR.DSF
Pork bangers R49.99 kg WC CH CHHY EX HAL Afr2,Pork bangers,A0067,Afrikaans,L01,Standard,T0001,R49.99,PR004999,17/07/2017,23/07/2017,1234567,17,WC CH CHHY AFR.DSF
Pork fillet R94.99 kg WC CH CHHY EX HAL Eng,Pork fillet,A0188,English,L02,Standard,T0001,R94.99,PR009499,17/07/2017,23/07/2017,1234567,10,WC CH CHHY ENG.DSF
Pork fillet R94.99 kg WC CH CHHY EX HAL Eng2,Pork fillet,A0188,English,L02,Standard,T0001,R94.99,PR009499,17/07/2017,23/07/2017,1234567,14,WC CH CHHY ENG.DSF
Pork fillet R94.99 kg WC CH CHHY EX HAL Afr,Pork fillet,A0188,Afrikaans,L01,Standard,T0001,R94.99,PR009499,17/07/2017,23/07/2017,1234567,11,WC CH CHHY AFR.DSF
Pork fillet R94.99 kg WC CH CHHY EX HAL Afr2,Pork fillet,A0188,Afrikaans,L01,Standard,T0001,R94.99,PR009499,17/07/2017,23/07/2017,1234567,15,WC CH CHHY AFR.DSF
Beef bangers R56.99 kg WC SR Eng,Beef bangers,A0068,English,L02,Standard,T0001,R56.99,PR005699,17/07/2017,23/07/2017,1234567,12,WC SR ENG.DSF
Beef bangers R56.99 kg WC SR Eng2,Beef bangers,A0068,English,L02,Standard,T0001,R56.99,PR005699,17/07/2017,23/07/2017,1234567,16,WC SR ENG.DSF
Beef bangers R56.99 kg WC SR Afr,Beef bangers,A0068,Afrikaans,L01,Standard,T0001,R56.99,PR005699,17/07/2017,23/07/2017,1234567,13,WC SR AFR.DSF
Beef bangers R56.99 kg WC SR Afr2,Beef bangers,A0068,Afrikaans,L01,Standard,T0001,R56.99,PR005699,17/07/2017,23/07/2017,1234567,17,WC SR AFR.DSF
Beef mince R64.99 kg WC SR Eng,Beef mince,A0004,English,L02,Standard,T0001,R64.99,PR006499,17/07/2017,23/07/2017,1234567,10,WC SR ENG.DSF
Beef mince R64.99 kg WC SR Eng2,Beef mince,A0004,English,L02,Standard,T0001,R64.99,PR006499,17/07/2017,23/07/2017,1234567,14,WC SR ENG.DSF
Beef mince R64.99 kg WC SR Afr,Beef mince,A0004,Afrikaans,L01,Standard,T0001,R64.99,PR006499,17/07/2017,23/07/2017,1234567,11,WC SR AFR.DSF
Beef mince R64.99 kg WC SR Afr2,Beef mince,A0004,Afrikaans,L01,Standard,T0001,R64.99,PR006499,17/07/2017,23/07/2017,1234567,15,WC SR AFR.DSF
Beef goulash R79.99 kg WC SR Eng,Beef goulash,A0003,English,L02,Standard,T0001,R79.99,PR007999,17/07/2017,23/07/2017,1234567,12,WC SR ENG.DSF
Beef goulash R79.99 kg WC SR Eng2,Beef goulash,A0003,English,L02,Standard,T0001,R79.99,PR007999,17/07/2017,23/07/2017,1234567,16,WC SR ENG.DSF
Beef goulash R79.99 kg WC SR Afr,Beef goulash,A0003,Afrikaans,L01,Standard,T0001,R79.99,PR007999,17/07/2017,23/07/2017,1234567,13,WC SR AFR.DSF
Beef goulash R79.99 kg WC SR Afr2,Beef goulash,A0003,Afrikaans,L01,Standard,T0001,R79.99,PR007999,17/07/2017,23/07/2017,1234567,17,WC SR AFR.DSF
Pork Texan Steak R59.99 kg WC SR EX HAL Eng,Pork Texan Steak,A0229,English,L02,Standard,T0001,R59.99,PR005999,17/07/2017,23/07/2017,1234567,10,WC SR ENG.DSF
Pork Texan Steak R59.99 kg WC SR EX HAL Eng2,Pork Texan Steak,A0229,English,L02,Standard,T0001,R59.99,PR005999,17/07/2017,23/07/2017,1234567,14,WC SR ENG.DSF
Pork Texan Steak R59.99 kg WC SR EX HAL Afr,Pork Texan Steak,A0229,Afrikaans,L01,Standard,T0001,R59.99,PR005999,17/07/2017,23/07/2017,1234567,11,WC SR AFR.DSF
Pork Texan Steak R59.99 kg WC SR EX HAL Afr2,Pork Texan Steak,A0229,Afrikaans,L01,Standard,T0001,R59.99,PR005999,17/07/2017,23/07/2017,1234567,15,WC SR AFR.DSF
Pork bangers R49.99 kg WC SR EX HAL Eng,Pork bangers,A0067,English,L02,Standard,T0001,R49.99,PR004999,17/07/2017,23/07/2017,1234567,12,WC SR ENG.DSF
Pork bangers R49.99 kg WC SR EX HAL Eng2,Pork bangers,A0067,English,L02,Standard,T0001,R49.99,PR004999,17/07/2017,23/07/2017,1234567,16,WC SR ENG.DSF
Pork bangers R49.99 kg WC SR EX HAL Afr,Pork bangers,A0067,Afrikaans,L01,Standard,T0001,R49.99,PR004999,17/07/2017,23/07/2017,1234567,13,WC SR AFR.DSF
Pork bangers R49.99 kg WC SR EX HAL Afr2,Pork bangers,A0067,Afrikaans,L01,Standard,T0001,R49.99,PR004999,17/07/2017,23/07/2017,1234567,17,WC SR AFR.DSF
All Roast Beef R79.99 kg EC CH CHHY Eng,All Roast Beef,A0201,English,L02,Standard,T0001,R79.99,PR007999,17/07/2017,23/07/2017,1234567,10,EC CH CHHY ENG.DSF
All Roast Beef R79.99 kg EC CH CHHY Eng2,All Roast Beef,A0201,English,L02,Standard,T0001,R79.99,PR007999,17/07/2017,23/07/2017,1234567,14,EC CH CHHY ENG.DSF
Beef Club and T-Bone R89.99 kg EC CH CHHY Eng,Beef Club and T-Bone,A0215,English,L02,Standard,T0001,R89.99,PR008999,17/07/2017,23/07/2017,1234567,11,EC CH CHHY ENG.DSF
Beef Club and T-Bone R89.99 kg EC CH CHHY Eng2,Beef Club and T-Bone,A0215,English,L02,Standard,T0001,R89.99,PR008999,17/07/2017,23/07/2017,1234567,15,EC CH CHHY ENG.DSF
Extra lean beef mince R89.99 kg KZN CH CHHY Eng,Extra lean beef mince,A0044,English,L02,Standard,T0001,R89.99,PR008999,17/07/2017,23/07/2017,1234567,12,KZN CH CHHY ENG.DSF
Extra lean beef mince R89.99 kg KZN CH CHHY Eng2,Extra lean beef mince,A0044,English,L02,Standard,T0001,R89.99,PR008999,17/07/2017,23/07/2017,1234567,16,KZN CH CHHY ENG.DSF
Steak pack R86.99 kg KZN CH CHHY Eng,Steak pack,A0058,English,L02,Standard,T0001,R86.99,PR008699,17/07/2017,23/07/2017,1234567,13,KZN CH CHHY ENG.DSF
Steak pack R86.99 kg KZN CH CHHY Eng2,Steak pack,A0058,English,L02,Standard,T0001,R86.99,PR008699,17/07/2017,23/07/2017,1234567,17,KZN CH CHHY ENG.DSF
Championship Boerewors Thick R67.99 kg KZN CH CHHY Eng,Championship Boerewors Thick,A0261,English,L02,Standard,T0001,R67.99,PR006799,17/07/2017,23/07/2017,1234567,10,KZN CH CHHY ENG.DSF
Championship Boerewors Thick R67.99 kg KZN CH CHHY Eng2,Championship Boerewors Thick,A0261,English,L02,Standard,T0001,R67.99,PR006799,17/07/2017,23/07/2017,1234567,14,KZN CH CHHY ENG.DSF
Pork braai chops R69.99 kg KZN SR EX HAL Eng,Pork braai chops,A0018,English,L02,Standard,T0001,R69.99,PR006999,17/07/2017,23/07/2017,1234567,11,KZN SR ENG.DSF
Pork braai chops R69.99 kg KZN SR EX HAL Eng2,Pork braai chops,A0018,English,L02,Standard,T0001,R69.99,PR006999,17/07/2017,23/07/2017,1234567,15,KZN SR ENG.DSF
Beef mince R64.99 kg KZN SR Eng,Beef mince,A0004,English,L02,Standard,T0001,R64.99,PR006499,17/07/2017,23/07/2017,1234567,12,KZN SR ENG.DSF
Beef mince R64.99 kg KZN SR Eng2,Beef mince,A0004,English,L02,Standard,T0001,R64.99,PR006499,17/07/2017,23/07/2017,1234567,16,KZN SR ENG.DSF
Traditional ground beef R59.99 kg OFS SR Eng,Traditional ground beef,A0032,English,L02,Standard,T0001,R59.99,PR005999,17/07/2017,23/07/2017,1234567,13,OFS SR ENG.DSF
Traditional ground beef R59.99 kg OFS SR Eng2,Traditional ground beef,A0032,English,L02,Standard,T0001,R59.99,PR005999,17/07/2017,23/07/2017,1234567,17,OFS SR ENG.DSF
Traditional ground beef R59.99 kg OFS SR Afr,Traditional ground beef,A0032,Afrikaans,L01,Standard,T0001,R59.99,PR005999,17/07/2017,23/07/2017,1234567,10,OFS SR AFR.DSF
Traditional ground beef R59.99 kg OFS SR Afr2,Traditional ground beef,A0032,Afrikaans,L01,Standard,T0001,R59.99,PR005999,17/07/2017,23/07/2017,1234567,14,OFS SR AFR.DSF
Pork packs R48.99 kg OFS SR EX HAL Eng,Pork packs,A0019,English,L02,Standard,T0001,R48.99,PR004899,17/07/2017,23/07/2017,1234567,11,OFS SR ENG.DSF
Pork packs R48.99 kg OFS SR EX HAL Eng2,Pork packs,A0019,English,L02,Standard,T0001,R48.99,PR004899,17/07/2017,23/07/2017,1234567,15,OFS SR ENG.DSF
Pork packs R48.99 kg OFS SR EX HAL Afr,Pork packs,A0019,Afrikaans,L01,Standard,T0001,R48.99,PR004899,17/07/2017,23/07/2017,1234567,12,OFS SR AFR.DSF
Pork packs R48.99 kg OFS SR EX HAL Afr2,Pork packs,A0019,Afrikaans,L01,Standard,T0001,R48.99,PR004899,17/07/2017,23/07/2017,1234567,16,OFS SR AFR.DSF
Grabouw boerewors (thick & thin) R54.99 kg OFS SR Eng,Grabouw boerewors (thick & thin),A0074,English,L02,Standard,T0001,R54.99,PR005499,17/07/2017,23/07/2017,1234567,13,OFS SR ENG.DSF
Grabouw boerewors (thick & thin) R54.99 kg OFS SR Eng2,Grabouw boerewors (thick & thin),A0074,English,L02,Standard,T0001,R54.99,PR005499,17/07/2017,23/07/2017,1234567,17,OFS SR ENG.DSF
Grabouw boerewors (thick & thin) R54.99 kg OFS SR Afr,Grabouw boerewors (thick & thin),A0074,Afrikaans,L01,Standard,T0001,R54.99,PR005499,17/07/2017,23/07/2017,1234567,10,OFS SR AFR.DSF
Grabouw boerewors (thick & thin) R54.99 kg OFS SR Afr2,Grabouw boerewors (thick & thin),A0074,Afrikaans,L01,Standard,T0001,R54.99,PR005499,17/07/2017,23/07/2017,1234567,14,OFS SR AFR.DSF
Championship Boerewors Thick R69.99 kg OFS CH CHHY Eng,Championship Boerewors Thick,A0261,English,L02,Standard,T0001,R69.99,PR006999,17/07/2017,23/07/2017,1234567,11,OFS CH CHHY ENG.DSF
Championship Boerewors Thick R69.99 kg OFS CH CHHY Eng2,Championship Boerewors Thick,A0261,English,L02,Standard,T0001,R69.99,PR006999,17/07/2017,23/07/2017,1234567,15,OFS CH CHHY ENG.DSF
Championship Boerewors Thick R69.99 kg OFS CH CHHY Afr,Championship Boerewors Thick,A0261,Afrikaans,L01,Standard,T0001,R69.99,PR006999,17/07/2017,23/07/2017,1234567,12,OFS CH CHHY AFR.DSF
Championship Boerewors Thick R69.99 kg OFS CH CHHY Afr2,Championship Boerewors Thick,A0261,Afrikaans,L01,Standard,T0001,R69.99,PR006999,17/07/2017,23/07/2017,1234567,16,OFS CH CHHY AFR.DSF
Beef Club and T-Bone R79.99 kg OFS CH CHHY Eng,Beef Club and T-Bone,A0215,English,L02,Standard,T0001,R79.99,PR007999,17/07/2017,23/07/2017,1234567,13,OFS CH CHHY ENG.DSF
Beef Club and T-Bone R79.99 kg OFS CH CHHY Eng2,Beef Club and T-Bone,A0215,English,L02,Standard,T0001,R79.99,PR007999,17/07/2017,23/07/2017,1234567,17,OFS CH CHHY ENG.DSF
Beef Club and T-Bone R79.99 kg OFS CH CHHY Afr,Beef Club and T-Bone,A0215,Afrikaans,L01,Standard,T0001,R79.99,PR007999,17/07/2017,23/07/2017,1234567,10,OFS CH CHHY AFR.DSF
Beef Club and T-Bone R79.99 kg OFS CH CHHY Afr2,Beef Club and T-Bone,A0215,Afrikaans,L01,Standard,T0001,R79.99,PR007999,17/07/2017,23/07/2017,1234567,14,OFS CH CHHY AFR.DSF
Rooikrantz boerewors R69.9 kg GN CH CHHY Eng,Rooikrantz boerewors,A0023,English,L02,Standard,T0001,R69.90,PR006990,17/07/2017,23/07/2017,1234567,11,GN CH CHHY ENG.DSF
Rooikrantz boerewors R69.9 kg GN CH CHHY Eng2,Rooikrantz boerewors,A0023,English,L02,Standard,T0001,R69.90,PR006990,17/07/2017,23/07/2017,1234567,15,GN CH CHHY ENG.DSF
Rooikrantz boerewors R69.9 kg GN CH CHHY Afr,Rooikrantz boerewors,A0023,Afrikaans,L01,Standard,T0001,R69.90,PR006990,17/07/2017,23/07/2017,1234567,12,GN CH CHHY AFR.DSF
Rooikrantz boerewors R69.9 kg GN CH CHHY Afr2,Rooikrantz boerewors,A0023,Afrikaans,L01,Standard,T0001,R69.90,PR006990,17/07/2017,23/07/2017,1234567,16,GN CH CHHY AFR.DSF
Rooikrantz boerewors thin R69.9 kg GN CH CHHY Eng,Rooikrantz boerewors thin,A0057,English,L02,Standard,T0001,R69.90,PR006990,17/07/2017,23/07/2017,1234567,13,GN CH CHHY ENG.DSF
Rooikrantz boerewors thin R69.9 kg GN CH CHHY Eng2,Rooikrantz boerewors thin,A0057,English,L02,Standard,T0001,R69.90,PR006990,17/07/2017,23/07/2017,1234567,17,GN CH CHHY ENG.DSF
Rooikrantz boerewors thin R69.9 kg GN CH CHHY Afr,Rooikrantz boerewors thin,A0057,Afrikaans,L01,Standard,T0001,R69.90,PR006990,17/07/2017,23/07/2017,1234567,10,GN CH CHHY AFR.DSF
Rooikrantz boerewors thin R69.9 kg GN CH CHHY Afr2,Rooikrantz boerewors thin,A0057,Afrikaans,L01,Standard,T0001,R69.90,PR006990,17/07/2017,23/07/2017,1234567,14,GN CH CHHY AFR.DSF
Ostrich Neck R39.9 kg GN CH CHHY Eng,Ostrich Neck,A0112,English,L02,Standard,T0001,R39.90,PR003990,17/07/2017,23/07/2017,1234567,11,GN CH CHHY ENG.DSF
Ostrich Neck R39.9 kg GN CH CHHY Eng2,Ostrich Neck,A0112,English,L02,Standard,T0001,R39.90,PR003990,17/07/2017,23/07/2017,1234567,15,GN CH CHHY ENG.DSF
Ostrich Neck R39.9 kg GN CH CHHY Afr,Ostrich Neck,A0112,Afrikaans,L01,Standard,T0001,R39.90,PR003990,17/07/2017,23/07/2017,1234567,12,GN CH CHHY AFR.DSF
Ostrich Neck R39.9 kg GN CH CHHY Afr2,Ostrich Neck,A0112,Afrikaans,L01,Standard,T0001,R39.90,PR003990,17/07/2017,23/07/2017,1234567,16,GN CH CHHY AFR.DSF
Steak House Classic T - Bone Steak 300g R24.0 300g GN CH CHHY Eng,Steak House Classic T - Bone Steak 300g,A0279,English,L02,Standard,T0001,R24.00,PR002400,17/07/2017,23/07/2017,1234567,13,GN CH CHHY ENG.DSF
Steak House Classic T - Bone Steak 300g R24.0 300g GN CH CHHY Eng2,Steak House Classic T - Bone Steak 300g,A0279,English,L02,Standard,T0001,R24.00,PR002400,17/07/2017,23/07/2017,1234567,17,GN CH CHHY ENG.DSF
Steak House Classic T - Bone Steak 300g R24.0 300g GN CH CHHY Afr,Steak House Classic T - Bone Steak 300g,A0279,Afrikaans,L01,Standard,T0001,R24.00,PR002400,17/07/2017,23/07/2017,1234567,10,GN CH CHHY AFR.DSF
Steak House Classic T - Bone Steak 300g R24.0 300g GN CH CHHY Afr2,Steak House Classic T - Bone Steak 300g,A0279,Afrikaans,L01,Standard,T0001,R24.00,PR002400,17/07/2017,23/07/2017,1234567,14,GN CH CHHY AFR.DSF
Steak House Classic Club Steak R24.0 300g GN CH CHHY Eng,Steak House Classic Club Steak,A0238,English,L02,Standard,T0001,R24.00,PR002400,17/07/2017,23/07/2017,1234567,11,GN CH CHHY ENG.DSF
Steak House Classic Club Steak R24.0 300g GN CH CHHY Eng2,Steak House Classic Club Steak,A0238,English,L02,Standard,T0001,R24.00,PR002400,17/07/2017,23/07/2017,1234567,15,GN CH CHHY ENG.DSF
Steak House Classic Club Steak R24.0 300g GN CH CHHY Afr,Steak House Classic Club Steak,A0238,Afrikaans,L01,Standard,T0001,R24.00,PR002400,17/07/2017,23/07/2017,1234567,12,GN CH CHHY AFR.DSF
Steak House Classic Club Steak R24.0 300g GN CH CHHY Afr2,Steak House Classic Club Steak,A0238,Afrikaans,L01,Standard,T0001,R24.00,PR002400,17/07/2017,23/07/2017,1234567,16,GN CH CHHY AFR.DSF
Stewing beef R69.9 kg GN SR Eng,Stewing beef,A0059,English,L02,Standard,T0001,R69.90,PR006990,17/07/2017,23/07/2017,1234567,13,GN SR ENG.DSF
Stewing beef R69.9 kg GN SR Eng2,Stewing beef,A0059,English,L02,Standard,T0001,R69.90,PR006990,17/07/2017,23/07/2017,1234567,17,GN SR ENG.DSF
Stewing beef R69.9 kg GN SR Afr,Stewing beef,A0059,Afrikaans,L01,Standard,T0001,R69.90,PR006990,17/07/2017,23/07/2017,1234567,10,GN SR AFR.DSF
Stewing beef R69.9 kg GN SR Afr2,Stewing beef,A0059,Afrikaans,L01,Standard,T0001,R69.90,PR006990,17/07/2017,23/07/2017,1234567,14,GN SR AFR.DSF
Traditional ground beef R54.9 kg GN SR Eng,Traditional ground beef,A0032,English,L02,Standard,T0001,R54.90,PR005490,17/07/2017,23/07/2017,1234567,11,GN SR ENG.DSF
Traditional ground beef R54.9 kg GN SR Eng2,Traditional ground beef,A0032,English,L02,Standard,T0001,R54.90,PR005490,17/07/2017,23/07/2017,1234567,15,GN SR ENG.DSF
Traditional ground beef R54.9 kg GN SR Afr,Traditional ground beef,A0032,Afrikaans,L01,Standard,T0001,R54.90,PR005490,17/07/2017,23/07/2017,1234567,12,GN SR AFR.DSF
Traditional ground beef R54.9 kg GN SR Afr2,Traditional ground beef,A0032,Afrikaans,L01,Standard,T0001,R54.90,PR005490,17/07/2017,23/07/2017,1234567,16,GN SR AFR.DSF
Pork braai chops R59.9 kg GN SR EX HAL Eng,Pork braai chops,A0018,English,L02,Standard,T0001,R59.90,PR005990,17/07/2017,23/07/2017,1234567,13,GN SR ENG.DSF
Pork braai chops R59.9 kg GN SR EX HAL Eng2,Pork braai chops,A0018,English,L02,Standard,T0001,R59.90,PR005990,17/07/2017,23/07/2017,1234567,17,GN SR ENG.DSF
Pork braai chops R59.9 kg GN SR EX HAL Afr,Pork braai chops,A0018,Afrikaans,L01,Standard,T0001,R59.90,PR005990,17/07/2017,23/07/2017,1234567,10,GN SR AFR.DSF
Pork braai chops R59.9 kg GN SR EX HAL Afr2,Pork braai chops,A0018,Afrikaans,L01,Standard,T0001,R59.90,PR005990,17/07/2017,23/07/2017,1234567,14,GN SR AFR.DSF
Karoo Braaiwors R52.9 kg GN SR Eng,Karoo Braaiwors,A0265,English,L02,Standard,T0001,R52.90,PR005290,17/07/2017,23/07/2017,1234567,11,GN SR ENG.DSF
Karoo Braaiwors R52.9 kg GN SR Eng2,Karoo Braaiwors,A0265,English,L02,Standard,T0001,R52.90,PR005290,17/07/2017,23/07/2017,1234567,15,GN SR ENG.DSF
Karoo Braaiwors R52.9 kg GN SR Afr,Karoo Braaiwors,A0265,Afrikaans,L01,Standard,T0001,R52.90,PR005290,17/07/2017,23/07/2017,1234567,12,GN SR AFR.DSF
Karoo Braaiwors R52.9 kg GN SR Afr2,Karoo Braaiwors,A0265,Afrikaans,L01,Standard,T0001,R52.90,PR005290,17/07/2017,23/07/2017,1234567,16,GN SR AFR.DSF
