Description,Product,Product Code,Language,Language Code,Theme,Theme Code,Price,Price code,Start Date,End Date,Weekdays,Playing At,Store Listing File
Ooskaapse Braaiwors R54.99 kg EC SR Eng,Ooskaapse Braaiwors,A0267,English,L02,Standard,T0001,R54.99,PR005499,20/02/2017,26/02/2017,1234567,10,EC SR ENG.DSF
Ooskaapse Braaiwors R54.99 kg EC SR Eng2,Ooskaapse Braaiwors,A0267,English,L02,Standard,T0001,R54.99,PR005499,20/02/2017,26/02/2017,1234567,14,EC SR ENG.DSF
Stewing beef R69.99 kg EC SR Eng,Stewing beef,A0059,English,L02,Standard,T0001,R69.99,PR006999,20/02/2017,26/02/2017,1234567,11,EC SR ENG.DSF
Stewing beef R69.99 kg EC SR Eng2,Stewing beef,A0059,English,L02,Standard,T0001,R69.99,PR006999,20/02/2017,26/02/2017,1234567,15,EC SR ENG.DSF
Pork braai chops R59.99 kg EC SR EX HAL Eng,Pork braai chops,A0018,English,L02,Standard,T0001,R59.99,PR005999,20/02/2017,26/02/2017,1234567,12,EC SR ENG.DSF
Pork braai chops R59.99 kg EC SR EX HAL Eng2,Pork braai chops,A0018,English,L02,Standard,T0001,R59.99,PR005999,20/02/2017,26/02/2017,1234567,16,EC SR ENG.DSF
Pork packs R56.99 kg EC SR EX HAL Eng,Pork packs,A0019,English,L02,Standard,T0001,R56.99,PR005699,20/02/2017,26/02/2017,1234567,13,EC SR ENG.DSF
Pork packs R56.99 kg EC SR EX HAL Eng2,Pork packs,A0019,English,L02,Standard,T0001,R56.99,PR005699,20/02/2017,26/02/2017,1234567,17,EC SR ENG.DSF
