Description,Product,Product Code,Language,Language Code,Theme,Theme Code,Price,Price code,Start Date,End Date,Weekdays,Playing At,Store Listing File
Pork Leg Roast R49.99 kg WC CH CHHY EX HAL Eng,Pork Leg Roast,A0220,English,L02,Standard,T0001,R49.99,PR004999,07/11/2016,13/11/2016,1234567,10,WC CH CHHY ENG.DSF
Pork Leg Roast R49.99 kg WC CH CHHY EX HAL Eng2,Pork Leg Roast,A0220,English,L02,Standard,T0001,R49.99,PR004999,07/11/2016,13/11/2016,1234567,14,WC CH CHHY ENG.DSF
Pork Leg Roast R49.99 kg WC CH CHHY EX HAL Afr,Pork Leg Roast,A0220,Afrikaans,L01,Standard,T0001,R49.99,PR004999,07/11/2016,13/11/2016,1234567,11,WC CH CHHY AFR.DSF
Pork Leg Roast R49.99 kg WC CH CHHY EX HAL Afr2,Pork Leg Roast,A0220,Afrikaans,L01,Standard,T0001,R49.99,PR004999,07/11/2016,13/11/2016,1234567,15,WC CH CHHY AFR.DSF
Championship Boerewors Thick R64.99 kg WC CH CHHY Eng,Championship Boerewors Thick,A0261,English,L02,Standard,T0001,R64.99,PR006499,07/11/2016,13/11/2016,1234567,12,WC CH CHHY ENG.DSF
Championship Boerewors Thick R64.99 kg WC CH CHHY Eng2,Championship Boerewors Thick,A0261,English,L02,Standard,T0001,R64.99,PR006499,07/11/2016,13/11/2016,1234567,16,WC CH CHHY ENG.DSF
Championship Boerewors Thick R64.99 kg WC CH CHHY Afr,Championship Boerewors Thick,A0261,Afrikaans,L01,Standard,T0001,R64.99,PR006499,07/11/2016,13/11/2016,1234567,13,WC CH CHHY AFR.DSF
Championship Boerewors Thick R64.99 kg WC CH CHHY Afr2,Championship Boerewors Thick,A0261,Afrikaans,L01,Standard,T0001,R64.99,PR006499,07/11/2016,13/11/2016,1234567,17,WC CH CHHY AFR.DSF
Texan steak R89.99 kg WC CH CHHY Eng,Texan steak,A0030,English,L02,Standard,T0001,R89.99,PR008999,07/11/2016,13/11/2016,1234567,10,WC CH CHHY ENG.DSF
Texan steak R89.99 kg WC CH CHHY Eng2,Texan steak,A0030,English,L02,Standard,T0001,R89.99,PR008999,07/11/2016,13/11/2016,1234567,14,WC CH CHHY ENG.DSF
Texan steak R89.99 kg WC CH CHHY Afr,Texan steak,A0030,Afrikaans,L01,Standard,T0001,R89.99,PR008999,07/11/2016,13/11/2016,1234567,11,WC CH CHHY AFR.DSF
Texan steak R89.99 kg WC CH CHHY Afr2,Texan steak,A0030,Afrikaans,L01,Standard,T0001,R89.99,PR008999,07/11/2016,13/11/2016,1234567,15,WC CH CHHY AFR.DSF
Corned beef Tongue Afr R59.99 kg WC CH CHHY Eng,Corned beef Tongue Afr,A0192,English,L02,Standard,T0001,R59.99,PR005999,07/11/2016,13/11/2016,1234567,12,WC CH CHHY ENG.DSF
Corned beef Tongue Afr R59.99 kg WC CH CHHY Eng2,Corned beef Tongue Afr,A0192,English,L02,Standard,T0001,R59.99,PR005999,07/11/2016,13/11/2016,1234567,16,WC CH CHHY ENG.DSF
Corned beef Tongue Afr R59.99 kg WC CH CHHY Afr,Corned beef Tongue Afr,A0192,Afrikaans,L01,Standard,T0001,R59.99,PR005999,07/11/2016,13/11/2016,1234567,13,WC CH CHHY AFR.DSF
Corned beef Tongue Afr R59.99 kg WC CH CHHY Afr2,Corned beef Tongue Afr,A0192,Afrikaans,L01,Standard,T0001,R59.99,PR005999,07/11/2016,13/11/2016,1234567,17,WC CH CHHY AFR.DSF
Championship Boerewors Thick R64.99 kg WC SR Eng,Championship Boerewors Thick,A0261,English,L02,Standard,T0001,R64.99,PR006499,09/11/2016,13/11/2016,34567,10,WC SR ENG.DSF
Championship Boerewors Thick R64.99 kg WC SR Eng2,Championship Boerewors Thick,A0261,English,L02,Standard,T0001,R64.99,PR006499,09/11/2016,13/11/2016,34567,14,WC SR ENG.DSF
Championship Boerewors Thick R64.99 kg WC SR Afr,Championship Boerewors Thick,A0261,Afrikaans,L01,Standard,T0001,R64.99,PR006499,09/11/2016,13/11/2016,34567,11,WC SR AFR.DSF
Championship Boerewors Thick R64.99 kg WC SR Afr2,Championship Boerewors Thick,A0261,Afrikaans,L01,Standard,T0001,R64.99,PR006499,09/11/2016,13/11/2016,34567,15,WC SR AFR.DSF
Traditional ground beef R54.99 kg WC SR Eng,Traditional ground beef,A0032,English,L02,Standard,T0001,R54.99,PR005499,09/11/2016,13/11/2016,34567,12,WC SR ENG.DSF
Traditional ground beef R54.99 kg WC SR Eng2,Traditional ground beef,A0032,English,L02,Standard,T0001,R54.99,PR005499,09/11/2016,13/11/2016,34567,16,WC SR ENG.DSF
Traditional ground beef R54.99 kg WC SR Afr,Traditional ground beef,A0032,Afrikaans,L01,Standard,T0001,R54.99,PR005499,09/11/2016,13/11/2016,34567,13,WC SR AFR.DSF
Traditional ground beef R54.99 kg WC SR Afr2,Traditional ground beef,A0032,Afrikaans,L01,Standard,T0001,R54.99,PR005499,09/11/2016,13/11/2016,34567,17,WC SR AFR.DSF
Mutton bangers R39.99 kg WC SR Eng,Mutton bangers,A0069,English,L02,Standard,T0001,R39.99,PR003999,09/11/2016,13/11/2016,34567,10,WC SR ENG.DSF
Mutton bangers R39.99 kg WC SR Eng2,Mutton bangers,A0069,English,L02,Standard,T0001,R39.99,PR003999,09/11/2016,13/11/2016,34567,14,WC SR ENG.DSF
Mutton bangers R39.99 kg WC SR Afr,Mutton bangers,A0069,Afrikaans,L01,Standard,T0001,R39.99,PR003999,09/11/2016,13/11/2016,34567,11,WC SR AFR.DSF
Mutton bangers R39.99 kg WC SR Afr2,Mutton bangers,A0069,Afrikaans,L01,Standard,T0001,R39.99,PR003999,09/11/2016,13/11/2016,34567,15,WC SR AFR.DSF
Grabouw boerewors (thick & thin) R59.99 kg EC SR Eng,Grabouw boerewors (thick & thin),A0074,English,L02,Standard,T0001,R59.99,PR005999,07/11/2016,13/11/2016,1234567,12,EC SR ENG.DSF
Grabouw boerewors (thick & thin) R59.99 kg EC SR Eng2,Grabouw boerewors (thick & thin),A0074,English,L02,Standard,T0001,R59.99,PR005999,07/11/2016,13/11/2016,1234567,16,EC SR ENG.DSF
Grabouw boerewors (thick & thin) R59.99 kg EC SR Afr,Grabouw boerewors (thick & thin),A0074,Afrikaans,L01,Standard,T0001,R59.99,PR005999,07/11/2016,13/11/2016,1234567,13,EC SR AFR.DSF
Grabouw boerewors (thick & thin) R59.99 kg EC SR Afr2,Grabouw boerewors (thick & thin),A0074,Afrikaans,L01,Standard,T0001,R59.99,PR005999,07/11/2016,13/11/2016,1234567,17,EC SR AFR.DSF
Stewing beef R59.99 kg EC SR Eng,Stewing beef,A0059,English,L02,Standard,T0001,R59.99,PR005999,07/11/2016,13/11/2016,1234567,10,EC SR ENG.DSF
Stewing beef R59.99 kg EC SR Eng2,Stewing beef,A0059,English,L02,Standard,T0001,R59.99,PR005999,07/11/2016,13/11/2016,1234567,14,EC SR ENG.DSF
Stewing beef R59.99 kg EC SR Afr,Stewing beef,A0059,Afrikaans,L01,Standard,T0001,R59.99,PR005999,07/11/2016,13/11/2016,1234567,11,EC SR AFR.DSF
Stewing beef R59.99 kg EC SR Afr2,Stewing beef,A0059,Afrikaans,L01,Standard,T0001,R59.99,PR005999,07/11/2016,13/11/2016,1234567,15,EC SR AFR.DSF
Traditional ground beef R52.99 kg EC SR Eng,Traditional ground beef,A0032,English,L02,Standard,T0001,R52.99,PR005299,07/11/2016,13/11/2016,1234567,12,EC SR ENG.DSF
Traditional ground beef R52.99 kg EC SR Eng2,Traditional ground beef,A0032,English,L02,Standard,T0001,R52.99,PR005299,07/11/2016,13/11/2016,1234567,16,EC SR ENG.DSF
Traditional ground beef R52.99 kg EC SR Afr,Traditional ground beef,A0032,Afrikaans,L01,Standard,T0001,R52.99,PR005299,07/11/2016,13/11/2016,1234567,13,EC SR AFR.DSF
Traditional ground beef R52.99 kg EC SR Afr2,Traditional ground beef,A0032,Afrikaans,L01,Standard,T0001,R52.99,PR005299,07/11/2016,13/11/2016,1234567,17,EC SR AFR.DSF
Mutton packs R79.99 kg EC SR Eng,Mutton packs,A0053,English,L02,Standard,T0001,R79.99,PR007999,07/11/2016,13/11/2016,1234567,10,EC SR ENG.DSF
Mutton packs R79.99 kg EC SR Eng2,Mutton packs,A0053,English,L02,Standard,T0001,R79.99,PR007999,07/11/2016,13/11/2016,1234567,14,EC SR ENG.DSF
Mutton packs R79.99 kg EC SR Afr,Mutton packs,A0053,Afrikaans,L01,Standard,T0001,R79.99,PR007999,07/11/2016,13/11/2016,1234567,11,EC SR AFR.DSF
Mutton packs R79.99 kg EC SR Afr2,Mutton packs,A0053,Afrikaans,L01,Standard,T0001,R79.99,PR007999,07/11/2016,13/11/2016,1234567,15,EC SR AFR.DSF
All Roast Beef R76.99 kg EC CH CHHY Eng,All Roast Beef,A0201,English,L02,Standard,T0001,R76.99,PR007699,07/11/2016,13/11/2016,1234567,12,EC CH CHHY ENG.DSF
All Roast Beef R76.99 kg EC CH CHHY Eng2,All Roast Beef,A0201,English,L02,Standard,T0001,R76.99,PR007699,07/11/2016,13/11/2016,1234567,16,EC CH CHHY ENG.DSF
All Roast Beef R76.99 kg EC CH CHHY Afr,All Roast Beef,A0201,Afrikaans,L01,Standard,T0001,R76.99,PR007699,07/11/2016,13/11/2016,1234567,13,EC CH CHHY AFR.DSF
All Roast Beef R76.99 kg EC CH CHHY Afr2,All Roast Beef,A0201,Afrikaans,L01,Standard,T0001,R76.99,PR007699,07/11/2016,13/11/2016,1234567,17,EC CH CHHY AFR.DSF
Pork braai chops R49.99 kg EC CH CHHY EX HAL Eng,Pork braai chops,A0018,English,L02,Standard,T0001,R49.99,PR004999,07/11/2016,13/11/2016,1234567,10,EC CH CHHY ENG.DSF
Pork braai chops R49.99 kg EC CH CHHY EX HAL Eng2,Pork braai chops,A0018,English,L02,Standard,T0001,R49.99,PR004999,07/11/2016,13/11/2016,1234567,14,EC CH CHHY ENG.DSF
Pork braai chops R49.99 kg EC CH CHHY EX HAL Afr,Pork braai chops,A0018,Afrikaans,L01,Standard,T0001,R49.99,PR004999,07/11/2016,13/11/2016,1234567,11,EC CH CHHY AFR.DSF
Pork braai chops R49.99 kg EC CH CHHY EX HAL Afr2,Pork braai chops,A0018,Afrikaans,L01,Standard,T0001,R49.99,PR004999,07/11/2016,13/11/2016,1234567,15,EC CH CHHY AFR.DSF
Beef potjiekos R49.99 kg KZN SR Eng,Beef potjiekos,A0033,English,L02,Standard,T0001,R49.99,PR004999,09/11/2016,09/11/2016,3,12,KZN SR ENG.DSF
Beef potjiekos R49.99 kg KZN SR Eng2,Beef potjiekos,A0033,English,L02,Standard,T0001,R49.99,PR004999,09/11/2016,09/11/2016,3,16,KZN SR ENG.DSF
Bulk stewing beef R59.99 kg KZN SR Eng,Bulk stewing beef,A0039,English,L02,Standard,T0001,R59.99,PR005999,07/11/2016,13/11/2016,1234567,13,KZN SR ENG.DSF
Bulk stewing beef R59.99 kg KZN SR Eng2,Bulk stewing beef,A0039,English,L02,Standard,T0001,R59.99,PR005999,07/11/2016,13/11/2016,1234567,17,KZN SR ENG.DSF
Quality Wors R44.99 kg KZN SR Eng,Quality Wors,A0179,English,L02,Standard,T0001,R44.99,PR004499,07/11/2016,13/11/2016,1234567,10,KZN SR ENG.DSF
Quality Wors R44.99 kg KZN SR Eng2,Quality Wors,A0179,English,L02,Standard,T0001,R44.99,PR004499,07/11/2016,13/11/2016,1234567,14,KZN SR ENG.DSF
Traditional ground beef R46.99 kg KZN SR Eng,Traditional ground beef,A0032,English,L02,Standard,T0001,R46.99,PR004699,07/11/2016,13/11/2016,1234567,11,KZN SR ENG.DSF
Traditional ground beef R46.99 kg KZN SR Eng2,Traditional ground beef,A0032,English,L02,Standard,T0001,R46.99,PR004699,07/11/2016,13/11/2016,1234567,15,KZN SR ENG.DSF
Ox Tails R79.99 kg KZN CH CHHY Eng,Ox Tails,A0234,English,L02,Standard,T0001,R79.99,PR007999,07/11/2016,13/11/2016,1234567,12,KZN CH CHHY ENG.DSF
Ox Tails R79.99 kg KZN CH CHHY Eng2,Ox Tails,A0234,English,L02,Standard,T0001,R79.99,PR007999,07/11/2016,13/11/2016,1234567,16,KZN CH CHHY ENG.DSF
Bulk lamb braai chops R89.99 kg KZN CH CHHY Eng,Bulk lamb braai chops,A0036,English,L02,Standard,T0001,R89.99,PR008999,07/11/2016,13/11/2016,1234567,13,KZN CH CHHY ENG.DSF
Bulk lamb braai chops R89.99 kg KZN CH CHHY Eng2,Bulk lamb braai chops,A0036,English,L02,Standard,T0001,R89.99,PR008999,07/11/2016,13/11/2016,1234567,17,KZN CH CHHY ENG.DSF
Extra lean beef mince R69.99 kg KZN CH CHHY Eng,Extra lean beef mince,A0044,English,L02,Standard,T0001,R69.99,PR006999,07/11/2016,13/11/2016,1234567,10,KZN CH CHHY ENG.DSF
Extra lean beef mince R69.99 kg KZN CH CHHY Eng2,Extra lean beef mince,A0044,English,L02,Standard,T0001,R69.99,PR006999,07/11/2016,13/11/2016,1234567,14,KZN CH CHHY ENG.DSF
Mutton bangers R39.9 kg GN SR Eng,Mutton bangers,A0069,English,L02,Standard,T0001,R39.90,PR003990,07/11/2016,13/11/2016,1234567,11,GN SR ENG.DSF
Mutton bangers R39.9 kg GN SR Eng2,Mutton bangers,A0069,English,L02,Standard,T0001,R39.90,PR003990,07/11/2016,13/11/2016,1234567,15,GN SR ENG.DSF
Mutton bangers R39.9 kg GN SR Afr,Mutton bangers,A0069,Afrikaans,L01,Standard,T0001,R39.90,PR003990,07/11/2016,13/11/2016,1234567,12,GN SR AFR.DSF
Mutton bangers R39.9 kg GN SR Afr2,Mutton bangers,A0069,Afrikaans,L01,Standard,T0001,R39.90,PR003990,07/11/2016,13/11/2016,1234567,16,GN SR AFR.DSF
Highnoon burger mince R49.9 kg GN SR Eng,Highnoon burger mince,A0111,English,L02,Standard,T0001,R49.90,PR004990,07/11/2016,13/11/2016,1234567,13,GN SR ENG.DSF
Highnoon burger mince R49.9 kg GN SR Eng2,Highnoon burger mince,A0111,English,L02,Standard,T0001,R49.90,PR004990,07/11/2016,13/11/2016,1234567,17,GN SR ENG.DSF
Highnoon burger mince R49.9 kg GN SR Afr,Highnoon burger mince,A0111,Afrikaans,L01,Standard,T0001,R49.90,PR004990,07/11/2016,13/11/2016,1234567,10,GN SR AFR.DSF
Highnoon burger mince R49.9 kg GN SR Afr2,Highnoon burger mince,A0111,Afrikaans,L01,Standard,T0001,R49.90,PR004990,07/11/2016,13/11/2016,1234567,14,GN SR AFR.DSF
Rooikrantz boerewors R65.0 kg GN CH CHHY Eng,Rooikrantz boerewors,A0023,English,L02,Standard,T0001,R65.00,PR006500,07/11/2016,13/11/2016,1234567,11,GN CH CHHY ENG.DSF
Rooikrantz boerewors R65.0 kg GN CH CHHY Eng2,Rooikrantz boerewors,A0023,English,L02,Standard,T0001,R65.00,PR006500,07/11/2016,13/11/2016,1234567,15,GN CH CHHY ENG.DSF
Rooikrantz boerewors R65.0 kg GN CH CHHY Afr,Rooikrantz boerewors,A0023,Afrikaans,L01,Standard,T0001,R65.00,PR006500,07/11/2016,13/11/2016,1234567,12,GN CH CHHY AFR.DSF
Rooikrantz boerewors R65.0 kg GN CH CHHY Afr2,Rooikrantz boerewors,A0023,Afrikaans,L01,Standard,T0001,R65.00,PR006500,07/11/2016,13/11/2016,1234567,16,GN CH CHHY AFR.DSF
Rooikrantz boerewors thin R65.0 kg GN CH CHHY Eng,Rooikrantz boerewors thin,A0057,English,L02,Standard,T0001,R65.00,PR006500,07/11/2016,13/11/2016,1234567,13,GN CH CHHY ENG.DSF
Rooikrantz boerewors thin R65.0 kg GN CH CHHY Eng2,Rooikrantz boerewors thin,A0057,English,L02,Standard,T0001,R65.00,PR006500,07/11/2016,13/11/2016,1234567,17,GN CH CHHY ENG.DSF
Rooikrantz boerewors thin R65.0 kg GN CH CHHY Afr,Rooikrantz boerewors thin,A0057,Afrikaans,L01,Standard,T0001,R65.00,PR006500,07/11/2016,13/11/2016,1234567,10,GN CH CHHY AFR.DSF
Rooikrantz boerewors thin R65.0 kg GN CH CHHY Afr2,Rooikrantz boerewors thin,A0057,Afrikaans,L01,Standard,T0001,R65.00,PR006500,07/11/2016,13/11/2016,1234567,14,GN CH CHHY AFR.DSF
Lamb potjiekos R75.0 kg GN CH CHHY Eng,Lamb potjiekos,A0116,English,L02,Standard,T0001,R75.00,PR007500,07/11/2016,13/11/2016,1234567,11,GN CH CHHY ENG.DSF
Lamb potjiekos R75.0 kg GN CH CHHY Eng2,Lamb potjiekos,A0116,English,L02,Standard,T0001,R75.00,PR007500,07/11/2016,13/11/2016,1234567,15,GN CH CHHY ENG.DSF
Lamb potjiekos R75.0 kg GN CH CHHY Afr,Lamb potjiekos,A0116,Afrikaans,L01,Standard,T0001,R75.00,PR007500,07/11/2016,13/11/2016,1234567,12,GN CH CHHY AFR.DSF
Lamb potjiekos R75.0 kg GN CH CHHY Afr2,Lamb potjiekos,A0116,Afrikaans,L01,Standard,T0001,R75.00,PR007500,07/11/2016,13/11/2016,1234567,16,GN CH CHHY AFR.DSF
Pork Texan Steak R49.9 kg GN CH CHHY EX HAL Eng,Pork Texan Steak,A0229,English,L02,Standard,T0001,R49.90,PR004990,07/11/2016,13/11/2016,1234567,13,GN CH CHHY ENG.DSF
Pork Texan Steak R49.9 kg GN CH CHHY EX HAL Eng2,Pork Texan Steak,A0229,English,L02,Standard,T0001,R49.90,PR004990,07/11/2016,13/11/2016,1234567,17,GN CH CHHY ENG.DSF
Pork Texan Steak R49.9 kg GN CH CHHY EX HAL Afr,Pork Texan Steak,A0229,Afrikaans,L01,Standard,T0001,R49.90,PR004990,07/11/2016,13/11/2016,1234567,10,GN CH CHHY AFR.DSF
Pork Texan Steak R49.9 kg GN CH CHHY EX HAL Afr2,Pork Texan Steak,A0229,Afrikaans,L01,Standard,T0001,R49.90,PR004990,07/11/2016,13/11/2016,1234567,14,GN CH CHHY AFR.DSF
Beef chicken or pork stir fry R69.9 kg GN CH CHHY EX HAL Eng,Beef chicken or pork stir fry,A0034,English,L02,Standard,T0001,R69.90,PR006990,07/11/2016,13/11/2016,1234567,11,GN CH CHHY ENG.DSF
Beef chicken or pork stir fry R69.9 kg GN CH CHHY EX HAL Eng2,Beef chicken or pork stir fry,A0034,English,L02,Standard,T0001,R69.90,PR006990,07/11/2016,13/11/2016,1234567,15,GN CH CHHY ENG.DSF
Beef chicken or pork stir fry R69.9 kg GN CH CHHY EX HAL Afr,Beef chicken or pork stir fry,A0034,Afrikaans,L01,Standard,T0001,R69.90,PR006990,07/11/2016,13/11/2016,1234567,12,GN CH CHHY AFR.DSF
Beef chicken or pork stir fry R69.9 kg GN CH CHHY EX HAL Afr2,Beef chicken or pork stir fry,A0034,Afrikaans,L01,Standard,T0001,R69.90,PR006990,07/11/2016,13/11/2016,1234567,16,GN CH CHHY AFR.DSF
Spatchcock chicken R45.99 kg NAMIBIA SR Eng,Spatchcock chicken,A0027,English,L02,Standard,T0001,R45.99,PR004599,07/11/2016,13/11/2016,1234567,13,NAMIBIA SR ENG.DSF
Spatchcock chicken R45.99 kg NAMIBIA SR Eng2,Spatchcock chicken,A0027,English,L02,Standard,T0001,R45.99,PR004599,07/11/2016,13/11/2016,1234567,17,NAMIBIA SR ENG.DSF
Spatchcock chicken R45.99 kg NAMIBIA CH CHHY Eng,Spatchcock chicken,A0027,English,L02,Standard,T0001,R45.99,PR004599,07/11/2016,13/11/2016,1234567,10,NAMIBIA CH CHHY ENG.DSF
Spatchcock chicken R45.99 kg NAMIBIA CH CHHY Eng2,Spatchcock chicken,A0027,English,L02,Standard,T0001,R45.99,PR004599,07/11/2016,13/11/2016,1234567,14,NAMIBIA CH CHHY ENG.DSF
