Description,Product,Product Code,Language,Language Code,Theme,Theme Code,Price,Price code,Start Date,End Date,Weekdays,Playing At,Store Listing File
Pork roast R49.99 kg WC CH CHHY EX HAL Eng,Pork roast,A0055,English,L02,Standard,T0001,R49.99,PR004999,14/08/2017,20/08/2017,1234567,10,WC CH CHHY ENG.DSF
Pork roast R49.99 kg WC CH CHHY EX HAL Eng2,Pork roast,A0055,English,L02,Standard,T0001,R49.99,PR004999,14/08/2017,20/08/2017,1234567,14,WC CH CHHY ENG.DSF
Pork roast R49.99 kg WC CH CHHY EX HAL Afr,Pork roast,A0055,Afrikaans,L01,Standard,T0001,R49.99,PR004999,14/08/2017,20/08/2017,1234567,11,WC CH CHHY AFR.DSF
Pork roast R49.99 kg WC CH CHHY EX HAL Afr2,Pork roast,A0055,Afrikaans,L01,Standard,T0001,R49.99,PR004999,14/08/2017,20/08/2017,1234567,15,WC CH CHHY AFR.DSF
Beef goulash R79.99 kg WC CH CHHY Eng,Beef goulash,A0003,English,L02,Standard,T0001,R79.99,PR007999,14/08/2017,20/08/2017,1234567,12,WC CH CHHY ENG.DSF
Beef goulash R79.99 kg WC CH CHHY Eng2,Beef goulash,A0003,English,L02,Standard,T0001,R79.99,PR007999,14/08/2017,20/08/2017,1234567,16,WC CH CHHY ENG.DSF
Beef goulash R79.99 kg WC CH CHHY Afr,Beef goulash,A0003,Afrikaans,L01,Standard,T0001,R79.99,PR007999,14/08/2017,20/08/2017,1234567,13,WC CH CHHY AFR.DSF
Beef goulash R79.99 kg WC CH CHHY Afr2,Beef goulash,A0003,Afrikaans,L01,Standard,T0001,R79.99,PR007999,14/08/2017,20/08/2017,1234567,17,WC CH CHHY AFR.DSF
Pork Texan Steak R59.99 kg WC CH CHHY EX HAL Eng,Pork Texan Steak,A0229,English,L02,Standard,T0001,R59.99,PR005999,14/08/2017,20/08/2017,1234567,10,WC CH CHHY ENG.DSF
Pork Texan Steak R59.99 kg WC CH CHHY EX HAL Eng2,Pork Texan Steak,A0229,English,L02,Standard,T0001,R59.99,PR005999,14/08/2017,20/08/2017,1234567,14,WC CH CHHY ENG.DSF
Pork Texan Steak R59.99 kg WC CH CHHY EX HAL Afr,Pork Texan Steak,A0229,Afrikaans,L01,Standard,T0001,R59.99,PR005999,14/08/2017,20/08/2017,1234567,11,WC CH CHHY AFR.DSF
Pork Texan Steak R59.99 kg WC CH CHHY EX HAL Afr2,Pork Texan Steak,A0229,Afrikaans,L01,Standard,T0001,R59.99,PR005999,14/08/2017,20/08/2017,1234567,15,WC CH CHHY AFR.DSF
Championship Boerewors Thick R69.99 kg EC CH CHHY Eng,Championship Boerewors Thick,A0261,English,L02,Standard,T0001,R69.99,PR006999,14/08/2017,20/08/2017,1234567,12,EC CH CHHY ENG.DSF
Championship Boerewors Thick R69.99 kg EC CH CHHY Eng2,Championship Boerewors Thick,A0261,English,L02,Standard,T0001,R69.99,PR006999,14/08/2017,20/08/2017,1234567,16,EC CH CHHY ENG.DSF
All Roast Beef R79.99 kg EC CH CHHY Eng,All Roast Beef,A0201,English,L02,Standard,T0001,R79.99,PR007999,14/08/2017,20/08/2017,1234567,13,EC CH CHHY ENG.DSF
All Roast Beef R79.99 kg EC CH CHHY Eng2,All Roast Beef,A0201,English,L02,Standard,T0001,R79.99,PR007999,14/08/2017,20/08/2017,1234567,17,EC CH CHHY ENG.DSF
Beef Club and T-Bone R79.99 kg EC CH CHHY Eng,Beef Club and T-Bone,A0215,English,L02,Standard,T0001,R79.99,PR007999,14/08/2017,20/08/2017,1234567,10,EC CH CHHY ENG.DSF
Beef Club and T-Bone R79.99 kg EC CH CHHY Eng2,Beef Club and T-Bone,A0215,English,L02,Standard,T0001,R79.99,PR007999,14/08/2017,20/08/2017,1234567,14,EC CH CHHY ENG.DSF
Pork braai chops R59.99 kg EC CH CHHY EX HAL Eng,Pork braai chops,A0018,English,L02,Standard,T0001,R59.99,PR005999,14/08/2017,20/08/2017,1234567,11,EC CH CHHY ENG.DSF
Pork braai chops R59.99 kg EC CH CHHY EX HAL Eng2,Pork braai chops,A0018,English,L02,Standard,T0001,R59.99,PR005999,14/08/2017,20/08/2017,1234567,15,EC CH CHHY ENG.DSF
Pork bangers R49.99 kg EC SR EX HAL Eng,Pork bangers,A0067,English,L02,Standard,T0001,R49.99,PR004999,14/08/2017,20/08/2017,1234567,12,EC SR ENG.DSF
Pork bangers R49.99 kg EC SR EX HAL Eng2,Pork bangers,A0067,English,L02,Standard,T0001,R49.99,PR004999,14/08/2017,20/08/2017,1234567,16,EC SR ENG.DSF
Beef mince R69.99 kg EC SR Eng,Beef mince,A0004,English,L02,Standard,T0001,R69.99,PR006999,14/08/2017,20/08/2017,1234567,13,EC SR ENG.DSF
Beef mince R69.99 kg EC SR Eng2,Beef mince,A0004,English,L02,Standard,T0001,R69.99,PR006999,14/08/2017,20/08/2017,1234567,17,EC SR ENG.DSF
Beef potjiekos R69.99 kg EC SR Eng,Beef potjiekos,A0033,English,L02,Standard,T0001,R69.99,PR006999,14/08/2017,20/08/2017,1234567,10,EC SR ENG.DSF
Beef potjiekos R69.99 kg EC SR Eng2,Beef potjiekos,A0033,English,L02,Standard,T0001,R69.99,PR006999,14/08/2017,20/08/2017,1234567,14,EC SR ENG.DSF
Pork braai chops R59.99 kg EC SR EX HAL Eng,Pork braai chops,A0018,English,L02,Standard,T0001,R59.99,PR005999,14/08/2017,20/08/2017,1234567,11,EC SR ENG.DSF
Pork braai chops R59.99 kg EC SR EX HAL Eng2,Pork braai chops,A0018,English,L02,Standard,T0001,R59.99,PR005999,14/08/2017,20/08/2017,1234567,15,EC SR ENG.DSF
Beef potjiekos R69.99 kg EC ECP Eng,Beef potjiekos,A0033,English,L02,Standard,T0001,R69.99,PR006999,14/08/2017,20/08/2017,1234567,12,EC ECP ENG.DSF
Beef potjiekos R69.99 kg EC ECP Eng2,Beef potjiekos,A0033,English,L02,Standard,T0001,R69.99,PR006999,14/08/2017,20/08/2017,1234567,16,EC ECP ENG.DSF
Ooskaapse Braaiwors R59.99 kg EC ECP Eng,Ooskaapse Braaiwors,A0267,English,L02,Standard,T0001,R59.99,PR005999,14/08/2017,20/08/2017,1234567,13,EC ECP ENG.DSF
Ooskaapse Braaiwors R59.99 kg EC ECP Eng2,Ooskaapse Braaiwors,A0267,English,L02,Standard,T0001,R59.99,PR005999,14/08/2017,20/08/2017,1234567,17,EC ECP ENG.DSF
Pork braai chops R59.99 kg EC ECP EX HAL Eng,Pork braai chops,A0018,English,L02,Standard,T0001,R59.99,PR005999,14/08/2017,20/08/2017,1234567,10,EC ECP ENG.DSF
Pork braai chops R59.99 kg EC ECP EX HAL Eng2,Pork braai chops,A0018,English,L02,Standard,T0001,R59.99,PR005999,14/08/2017,20/08/2017,1234567,14,EC ECP ENG.DSF
Steak pack R79.99 kg KZN CH CHHY Eng,Steak pack,A0058,English,L02,Standard,T0001,R79.99,PR007999,14/08/2017,20/08/2017,1234567,11,KZN CH CHHY ENG.DSF
Steak pack R79.99 kg KZN CH CHHY Eng2,Steak pack,A0058,English,L02,Standard,T0001,R79.99,PR007999,14/08/2017,20/08/2017,1234567,15,KZN CH CHHY ENG.DSF
Lean beef mince R76.99 kg KZN CH CHHY Eng,Lean beef mince,A0017,English,L02,Standard,T0001,R76.99,PR007699,14/08/2017,20/08/2017,1234567,12,KZN CH CHHY ENG.DSF
Lean beef mince R76.99 kg KZN CH CHHY Eng2,Lean beef mince,A0017,English,L02,Standard,T0001,R76.99,PR007699,14/08/2017,20/08/2017,1234567,16,KZN CH CHHY ENG.DSF
Ox Tails R89.99 kg KZN CH CHHY Eng,Ox Tails,A0234,English,L02,Standard,T0001,R89.99,PR008999,14/08/2017,20/08/2017,1234567,13,KZN CH CHHY ENG.DSF
Ox Tails R89.99 kg KZN CH CHHY Eng2,Ox Tails,A0234,English,L02,Standard,T0001,R89.99,PR008999,14/08/2017,20/08/2017,1234567,17,KZN CH CHHY ENG.DSF
Pork braai chops R69.99 kg KZN CH CHHY EX HAL Eng,Pork braai chops,A0018,English,L02,Standard,T0001,R69.99,PR006999,14/08/2017,20/08/2017,1234567,10,KZN CH CHHY ENG.DSF
Pork braai chops R69.99 kg KZN CH CHHY EX HAL Eng2,Pork braai chops,A0018,English,L02,Standard,T0001,R69.99,PR006999,14/08/2017,20/08/2017,1234567,14,KZN CH CHHY ENG.DSF
Karoo Braaiwors R57.99 kg KZN SR Eng,Karoo Braaiwors,A0265,English,L02,Standard,T0001,R57.99,PR005799,14/08/2017,20/08/2017,1234567,11,KZN SR ENG.DSF
Karoo Braaiwors R57.99 kg KZN SR Eng2,Karoo Braaiwors,A0265,English,L02,Standard,T0001,R57.99,PR005799,14/08/2017,20/08/2017,1234567,15,KZN SR ENG.DSF
Beef potjiekos R64.99 kg KZN SR Eng,Beef potjiekos,A0033,English,L02,Standard,T0001,R64.99,PR006499,14/08/2017,20/08/2017,1234567,12,KZN SR ENG.DSF
Beef potjiekos R64.99 kg KZN SR Eng2,Beef potjiekos,A0033,English,L02,Standard,T0001,R64.99,PR006499,14/08/2017,20/08/2017,1234567,16,KZN SR ENG.DSF
Traditional ground beef R49.99 kg KZN SR Eng,Traditional ground beef,A0032,English,L02,Standard,T0001,R49.99,PR004999,14/08/2017,20/08/2017,1234567,13,KZN SR ENG.DSF
Traditional ground beef R49.99 kg KZN SR Eng2,Traditional ground beef,A0032,English,L02,Standard,T0001,R49.99,PR004999,14/08/2017,20/08/2017,1234567,17,KZN SR ENG.DSF
Tenderised steak R79.99 kg KZN SR Eng,Tenderised steak,A0029,English,L02,Standard,T0001,R79.99,PR007999,14/08/2017,20/08/2017,1234567,10,KZN SR ENG.DSF
Tenderised steak R79.99 kg KZN SR Eng2,Tenderised steak,A0029,English,L02,Standard,T0001,R79.99,PR007999,14/08/2017,20/08/2017,1234567,14,KZN SR ENG.DSF
All Roast Beef R89.99 kg OFS CH CHHY Eng,All Roast Beef,A0201,English,L02,Standard,T0001,R89.99,PR008999,14/08/2017,20/08/2017,1234567,11,OFS CH CHHY ENG.DSF
All Roast Beef R89.99 kg OFS CH CHHY Eng2,All Roast Beef,A0201,English,L02,Standard,T0001,R89.99,PR008999,14/08/2017,20/08/2017,1234567,15,OFS CH CHHY ENG.DSF
All Roast Beef R89.99 kg OFS CH CHHY Afr,All Roast Beef,A0201,Afrikaans,L01,Standard,T0001,R89.99,PR008999,14/08/2017,20/08/2017,1234567,12,OFS CH CHHY AFR.DSF
All Roast Beef R89.99 kg OFS CH CHHY Afr2,All Roast Beef,A0201,Afrikaans,L01,Standard,T0001,R89.99,PR008999,14/08/2017,20/08/2017,1234567,16,OFS CH CHHY AFR.DSF
Rump steak R119.99 kg OFS CH CHHY Eng,Rump steak,A0024,English,L02,Standard,T0001,R119.99,PR011999,14/08/2017,20/08/2017,1234567,13,OFS CH CHHY ENG.DSF
Rump steak R119.99 kg OFS CH CHHY Eng2,Rump steak,A0024,English,L02,Standard,T0001,R119.99,PR011999,14/08/2017,20/08/2017,1234567,17,OFS CH CHHY ENG.DSF
Rump steak R119.99 kg OFS CH CHHY Afr,Rump steak,A0024,Afrikaans,L01,Standard,T0001,R119.99,PR011999,14/08/2017,20/08/2017,1234567,10,OFS CH CHHY AFR.DSF
Rump steak R119.99 kg OFS CH CHHY Afr2,Rump steak,A0024,Afrikaans,L01,Standard,T0001,R119.99,PR011999,14/08/2017,20/08/2017,1234567,14,OFS CH CHHY AFR.DSF
Beef goulash R89.99 kg OFS CH CHHY Eng,Beef goulash,A0003,English,L02,Standard,T0001,R89.99,PR008999,14/08/2017,20/08/2017,1234567,11,OFS CH CHHY ENG.DSF
Beef goulash R89.99 kg OFS CH CHHY Eng2,Beef goulash,A0003,English,L02,Standard,T0001,R89.99,PR008999,14/08/2017,20/08/2017,1234567,15,OFS CH CHHY ENG.DSF
Beef goulash R89.99 kg OFS CH CHHY Afr,Beef goulash,A0003,Afrikaans,L01,Standard,T0001,R89.99,PR008999,14/08/2017,20/08/2017,1234567,12,OFS CH CHHY AFR.DSF
Beef goulash R89.99 kg OFS CH CHHY Afr2,Beef goulash,A0003,Afrikaans,L01,Standard,T0001,R89.99,PR008999,14/08/2017,20/08/2017,1234567,16,OFS CH CHHY AFR.DSF
Cheese Wors R79.99 kg OFS CH CHHY Eng,Cheese Wors,A0222,English,L02,Standard,T0001,R79.99,PR007999,14/08/2017,20/08/2017,1234567,13,OFS CH CHHY ENG.DSF
Cheese Wors R79.99 kg OFS CH CHHY Eng2,Cheese Wors,A0222,English,L02,Standard,T0001,R79.99,PR007999,14/08/2017,20/08/2017,1234567,17,OFS CH CHHY ENG.DSF
Cheese Wors R79.99 kg OFS CH CHHY Afr,Cheese Wors,A0222,Afrikaans,L01,Standard,T0001,R79.99,PR007999,14/08/2017,20/08/2017,1234567,10,OFS CH CHHY AFR.DSF
Cheese Wors R79.99 kg OFS CH CHHY Afr2,Cheese Wors,A0222,Afrikaans,L01,Standard,T0001,R79.99,PR007999,14/08/2017,20/08/2017,1234567,14,OFS CH CHHY AFR.DSF
Beef potjiekos R69.99 kg OFS SR Eng,Beef potjiekos,A0033,English,L02,Standard,T0001,R69.99,PR006999,14/08/2017,20/08/2017,1234567,11,OFS SR ENG.DSF
Beef potjiekos R69.99 kg OFS SR Eng2,Beef potjiekos,A0033,English,L02,Standard,T0001,R69.99,PR006999,14/08/2017,20/08/2017,1234567,15,OFS SR ENG.DSF
Beef potjiekos R69.99 kg OFS SR Afr,Beef potjiekos,A0033,Afrikaans,L01,Standard,T0001,R69.99,PR006999,14/08/2017,20/08/2017,1234567,12,OFS SR AFR.DSF
Beef potjiekos R69.99 kg OFS SR Afr2,Beef potjiekos,A0033,Afrikaans,L01,Standard,T0001,R69.99,PR006999,14/08/2017,20/08/2017,1234567,16,OFS SR AFR.DSF
Highnoon burger mince R64.99 kg OFS SR Eng,Highnoon burger mince,A0111,English,L02,Standard,T0001,R64.99,PR006499,14/08/2017,20/08/2017,1234567,13,OFS SR ENG.DSF
Highnoon burger mince R64.99 kg OFS SR Eng2,Highnoon burger mince,A0111,English,L02,Standard,T0001,R64.99,PR006499,14/08/2017,20/08/2017,1234567,17,OFS SR ENG.DSF
Highnoon burger mince R64.99 kg OFS SR Afr,Highnoon burger mince,A0111,Afrikaans,L01,Standard,T0001,R64.99,PR006499,14/08/2017,20/08/2017,1234567,10,OFS SR AFR.DSF
Highnoon burger mince R64.99 kg OFS SR Afr2,Highnoon burger mince,A0111,Afrikaans,L01,Standard,T0001,R64.99,PR006499,14/08/2017,20/08/2017,1234567,14,OFS SR AFR.DSF
Tenderised steak R79.99 kg OFS SR Eng,Tenderised steak,A0029,English,L02,Standard,T0001,R79.99,PR007999,14/08/2017,20/08/2017,1234567,11,OFS SR ENG.DSF
Tenderised steak R79.99 kg OFS SR Eng2,Tenderised steak,A0029,English,L02,Standard,T0001,R79.99,PR007999,14/08/2017,20/08/2017,1234567,15,OFS SR ENG.DSF
Tenderised steak R79.99 kg OFS SR Afr,Tenderised steak,A0029,Afrikaans,L01,Standard,T0001,R79.99,PR007999,14/08/2017,20/08/2017,1234567,12,OFS SR AFR.DSF
Tenderised steak R79.99 kg OFS SR Afr2,Tenderised steak,A0029,Afrikaans,L01,Standard,T0001,R79.99,PR007999,14/08/2017,20/08/2017,1234567,16,OFS SR AFR.DSF
Championship Boerewors Thick R72.99 kg OFS SR Eng,Championship Boerewors Thick,A0261,English,L02,Standard,T0001,R72.99,PR007299,14/08/2017,20/08/2017,1234567,13,OFS SR ENG.DSF
Championship Boerewors Thick R72.99 kg OFS SR Eng2,Championship Boerewors Thick,A0261,English,L02,Standard,T0001,R72.99,PR007299,14/08/2017,20/08/2017,1234567,17,OFS SR ENG.DSF
Championship Boerewors Thick R72.99 kg OFS SR Afr,Championship Boerewors Thick,A0261,Afrikaans,L01,Standard,T0001,R72.99,PR007299,14/08/2017,20/08/2017,1234567,10,OFS SR AFR.DSF
Championship Boerewors Thick R72.99 kg OFS SR Afr2,Championship Boerewors Thick,A0261,Afrikaans,L01,Standard,T0001,R72.99,PR007299,14/08/2017,20/08/2017,1234567,14,OFS SR AFR.DSF
Championship Boerewors Thick R6.99 100g GN CH CHHY Eng,Championship Boerewors Thick,A0261,English,L02,Standard,T0001,R6.99,PR000699,14/08/2017,20/08/2017,1234567,11,GN CH CHHY ENG.DSF
Championship Boerewors Thick R6.99 100g GN CH CHHY Eng2,Championship Boerewors Thick,A0261,English,L02,Standard,T0001,R6.99,PR000699,14/08/2017,20/08/2017,1234567,15,GN CH CHHY ENG.DSF
Championship Boerewors Thick R6.99 100g GN CH CHHY Afr,Championship Boerewors Thick,A0261,Afrikaans,L01,Standard,T0001,R6.99,PR000699,14/08/2017,20/08/2017,1234567,12,GN CH CHHY AFR.DSF
Championship Boerewors Thick R6.99 100g GN CH CHHY Afr2,Championship Boerewors Thick,A0261,Afrikaans,L01,Standard,T0001,R6.99,PR000699,14/08/2017,20/08/2017,1234567,16,GN CH CHHY AFR.DSF
Cheese Wors R5.99 100g GN CH CHHY Eng,Cheese Wors,A0222,English,L02,Standard,T0001,R5.99,PR000599,14/08/2017,20/08/2017,1234567,13,GN CH CHHY ENG.DSF
Cheese Wors R5.99 100g GN CH CHHY Eng2,Cheese Wors,A0222,English,L02,Standard,T0001,R5.99,PR000599,14/08/2017,20/08/2017,1234567,17,GN CH CHHY ENG.DSF
Cheese Wors R5.99 100g GN CH CHHY Afr,Cheese Wors,A0222,Afrikaans,L01,Standard,T0001,R5.99,PR000599,14/08/2017,20/08/2017,1234567,10,GN CH CHHY AFR.DSF
Cheese Wors R5.99 100g GN CH CHHY Afr2,Cheese Wors,A0222,Afrikaans,L01,Standard,T0001,R5.99,PR000599,14/08/2017,20/08/2017,1234567,14,GN CH CHHY AFR.DSF
Ox Tails R89.9 kg GN CH CHHY Eng,Ox Tails,A0234,English,L02,Standard,T0001,R89.90,PR008990,14/08/2017,20/08/2017,1234567,11,GN CH CHHY ENG.DSF
Ox Tails R89.9 kg GN CH CHHY Eng2,Ox Tails,A0234,English,L02,Standard,T0001,R89.90,PR008990,14/08/2017,20/08/2017,1234567,15,GN CH CHHY ENG.DSF
Ox Tails R89.9 kg GN CH CHHY Afr,Ox Tails,A0234,Afrikaans,L01,Standard,T0001,R89.90,PR008990,14/08/2017,20/08/2017,1234567,12,GN CH CHHY AFR.DSF
Ox Tails R89.9 kg GN CH CHHY Afr2,Ox Tails,A0234,Afrikaans,L01,Standard,T0001,R89.90,PR008990,14/08/2017,20/08/2017,1234567,16,GN CH CHHY AFR.DSF
Beef Club and T-Bone R69.9 kg GN CHHY Eng,Beef Club and T-Bone,A0215,English,L02,Standard,T0001,R69.90,PR006990,14/08/2017,20/08/2017,1234567,13,GN CHHY ENG.DSF
Beef Club and T-Bone R69.9 kg GN CHHY Eng2,Beef Club and T-Bone,A0215,English,L02,Standard,T0001,R69.90,PR006990,14/08/2017,20/08/2017,1234567,17,GN CHHY ENG.DSF
Beef Club and T-Bone R69.9 kg GN CHHY Afr,Beef Club and T-Bone,A0215,Afrikaans,L01,Standard,T0001,R69.90,PR006990,14/08/2017,20/08/2017,1234567,10,GN CHHY AFR.DSF
Beef Club and T-Bone R69.9 kg GN CHHY Afr2,Beef Club and T-Bone,A0215,Afrikaans,L01,Standard,T0001,R69.90,PR006990,14/08/2017,20/08/2017,1234567,14,GN CHHY AFR.DSF
Beef chicken or pork stir fry R69.9 kg GN CH CHHY EX HAL Eng,Beef chicken or pork stir fry,A0034,English,L02,Standard,T0001,R69.90,PR006990,14/08/2017,20/08/2017,1234567,11,GN CH CHHY ENG.DSF
Beef chicken or pork stir fry R69.9 kg GN CH CHHY EX HAL Eng2,Beef chicken or pork stir fry,A0034,English,L02,Standard,T0001,R69.90,PR006990,14/08/2017,20/08/2017,1234567,15,GN CH CHHY ENG.DSF
Beef chicken or pork stir fry R69.9 kg GN CH CHHY EX HAL Afr,Beef chicken or pork stir fry,A0034,Afrikaans,L01,Standard,T0001,R69.90,PR006990,14/08/2017,20/08/2017,1234567,12,GN CH CHHY AFR.DSF
Beef chicken or pork stir fry R69.9 kg GN CH CHHY EX HAL Afr2,Beef chicken or pork stir fry,A0034,Afrikaans,L01,Standard,T0001,R69.90,PR006990,14/08/2017,20/08/2017,1234567,16,GN CH CHHY AFR.DSF
Managers recipe boerewors R32.9 kg GN SR Eng,Managers recipe boerewors,A0050,English,L02,Standard,T0001,R32.90,PR003290,14/08/2017,20/08/2017,1234567,13,GN SR ENG.DSF
Managers recipe boerewors R32.9 kg GN SR Eng2,Managers recipe boerewors,A0050,English,L02,Standard,T0001,R32.90,PR003290,14/08/2017,20/08/2017,1234567,17,GN SR ENG.DSF
Managers recipe boerewors R32.9 kg GN SR Afr,Managers recipe boerewors,A0050,Afrikaans,L01,Standard,T0001,R32.90,PR003290,14/08/2017,20/08/2017,1234567,10,GN SR AFR.DSF
Managers recipe boerewors R32.9 kg GN SR Afr2,Managers recipe boerewors,A0050,Afrikaans,L01,Standard,T0001,R32.90,PR003290,14/08/2017,20/08/2017,1234567,14,GN SR AFR.DSF
Traditional ground beef R54.9 kg GN SR Eng,Traditional ground beef,A0032,English,L02,Standard,T0001,R54.90,PR005490,14/08/2017,20/08/2017,1234567,11,GN SR ENG.DSF
Traditional ground beef R54.9 kg GN SR Eng2,Traditional ground beef,A0032,English,L02,Standard,T0001,R54.90,PR005490,14/08/2017,20/08/2017,1234567,15,GN SR ENG.DSF
Traditional ground beef R54.9 kg GN SR Afr,Traditional ground beef,A0032,Afrikaans,L01,Standard,T0001,R54.90,PR005490,14/08/2017,20/08/2017,1234567,12,GN SR AFR.DSF
Traditional ground beef R54.9 kg GN SR Afr2,Traditional ground beef,A0032,Afrikaans,L01,Standard,T0001,R54.90,PR005490,14/08/2017,20/08/2017,1234567,16,GN SR AFR.DSF
Pork packs R54.9 kg GN SR EX HAL Eng,Pork packs,A0019,English,L02,Standard,T0001,R54.90,PR005490,14/08/2017,20/08/2017,1234567,13,GN SR ENG.DSF
Pork packs R54.9 kg GN SR EX HAL Eng2,Pork packs,A0019,English,L02,Standard,T0001,R54.90,PR005490,14/08/2017,20/08/2017,1234567,17,GN SR ENG.DSF
Pork packs R54.9 kg GN SR EX HAL Afr,Pork packs,A0019,Afrikaans,L01,Standard,T0001,R54.90,PR005490,14/08/2017,20/08/2017,1234567,10,GN SR AFR.DSF
Pork packs R54.9 kg GN SR EX HAL Afr2,Pork packs,A0019,Afrikaans,L01,Standard,T0001,R54.90,PR005490,14/08/2017,20/08/2017,1234567,14,GN SR AFR.DSF
Pork Texan Steak R59.9 kg GN SR EX HAL Eng,Pork Texan Steak,A0229,English,L02,Standard,T0001,R59.90,PR005990,14/08/2017,20/08/2017,1234567,11,GN SR ENG.DSF
Pork Texan Steak R59.9 kg GN SR EX HAL Eng2,Pork Texan Steak,A0229,English,L02,Standard,T0001,R59.90,PR005990,14/08/2017,20/08/2017,1234567,15,GN SR ENG.DSF
Pork Texan Steak R59.9 kg GN SR EX HAL Afr,Pork Texan Steak,A0229,Afrikaans,L01,Standard,T0001,R59.90,PR005990,14/08/2017,20/08/2017,1234567,12,GN SR AFR.DSF
Pork Texan Steak R59.9 kg GN SR EX HAL Afr2,Pork Texan Steak,A0229,Afrikaans,L01,Standard,T0001,R59.90,PR005990,14/08/2017,20/08/2017,1234567,16,GN SR AFR.DSF
Beef bangers R39.9 kg GN SR Eng,Beef bangers,A0068,English,L02,Standard,T0001,R39.90,PR003990,18/08/2017,18/08/2017,5,13,GN SR ENG.DSF
Beef bangers R39.9 kg GN SR Eng2,Beef bangers,A0068,English,L02,Standard,T0001,R39.90,PR003990,18/08/2017,18/08/2017,5,17,GN SR ENG.DSF
Beef bangers R39.9 kg GN SR Afr,Beef bangers,A0068,Afrikaans,L01,Standard,T0001,R39.90,PR003990,18/08/2017,18/08/2017,5,10,GN SR AFR.DSF
Beef bangers R39.9 kg GN SR Afr2,Beef bangers,A0068,Afrikaans,L01,Standard,T0001,R39.90,PR003990,18/08/2017,18/08/2017,5,14,GN SR AFR.DSF
