Description,Product,Product Code,Language,Language Code,Theme,Theme Code,Price,Price code,Start Date,End Date,Weekdays,Playing At,Store Listing File
Beef bangers R56.99 kg WC CH CHHY Eng,Beef bangers,A0068,English,L02,Standard,T0001,R56.99,PR005699,28/08/2017,03/09/2017,1234567,10,WC CH CHHY ENG.DSF
Beef bangers R56.99 kg WC CH CHHY Eng2,Beef bangers,A0068,English,L02,Standard,T0001,R56.99,PR005699,28/08/2017,03/09/2017,1234567,14,WC CH CHHY ENG.DSF
Beef bangers R56.99 kg WC CH CHHY Afr,Beef bangers,A0068,Afrikaans,L01,Standard,T0001,R56.99,PR005699,28/08/2017,03/09/2017,1234567,11,WC CH CHHY AFR.DSF
Beef bangers R56.99 kg WC CH CHHY Afr2,Beef bangers,A0068,Afrikaans,L01,Standard,T0001,R56.99,PR005699,28/08/2017,03/09/2017,1234567,15,WC CH CHHY AFR.DSF
Pork Texan Steak R59.99 kg WC CH CHHY EX HAL Eng,Pork Texan Steak,A0229,English,L02,Standard,T0001,R59.99,PR005999,28/08/2017,03/09/2017,1234567,12,WC CH CHHY ENG.DSF
Pork Texan Steak R59.99 kg WC CH CHHY EX HAL Eng2,Pork Texan Steak,A0229,English,L02,Standard,T0001,R59.99,PR005999,28/08/2017,03/09/2017,1234567,16,WC CH CHHY ENG.DSF
Pork Texan Steak R59.99 kg WC CH CHHY EX HAL Afr,Pork Texan Steak,A0229,Afrikaans,L01,Standard,T0001,R59.99,PR005999,28/08/2017,03/09/2017,1234567,13,WC CH CHHY AFR.DSF
Pork Texan Steak R59.99 kg WC CH CHHY EX HAL Afr2,Pork Texan Steak,A0229,Afrikaans,L01,Standard,T0001,R59.99,PR005999,28/08/2017,03/09/2017,1234567,17,WC CH CHHY AFR.DSF
Beef goulash R79.99 kg WC CH CHHY Eng,Beef goulash,A0003,English,L02,Standard,T0001,R79.99,PR007999,28/08/2017,03/09/2017,1234567,10,WC CH CHHY ENG.DSF
Beef goulash R79.99 kg WC CH CHHY Eng2,Beef goulash,A0003,English,L02,Standard,T0001,R79.99,PR007999,28/08/2017,03/09/2017,1234567,14,WC CH CHHY ENG.DSF
Beef goulash R79.99 kg WC CH CHHY Afr,Beef goulash,A0003,Afrikaans,L01,Standard,T0001,R79.99,PR007999,28/08/2017,03/09/2017,1234567,11,WC CH CHHY AFR.DSF
Beef goulash R79.99 kg WC CH CHHY Afr2,Beef goulash,A0003,Afrikaans,L01,Standard,T0001,R79.99,PR007999,28/08/2017,03/09/2017,1234567,15,WC CH CHHY AFR.DSF
Beef goulash R79.99 kg WC SR Eng,Beef goulash,A0003,English,L02,Standard,T0001,R79.99,PR007999,28/08/2017,03/09/2017,1234567,12,WC SR ENG.DSF
Beef goulash R79.99 kg WC SR Eng2,Beef goulash,A0003,English,L02,Standard,T0001,R79.99,PR007999,28/08/2017,03/09/2017,1234567,16,WC SR ENG.DSF
Beef goulash R79.99 kg WC SR Afr,Beef goulash,A0003,Afrikaans,L01,Standard,T0001,R79.99,PR007999,28/08/2017,03/09/2017,1234567,13,WC SR AFR.DSF
Beef goulash R79.99 kg WC SR Afr2,Beef goulash,A0003,Afrikaans,L01,Standard,T0001,R79.99,PR007999,28/08/2017,03/09/2017,1234567,17,WC SR AFR.DSF
Pork Texan Steak R59.99 kg WC SR EX HAL Eng,Pork Texan Steak,A0229,English,L02,Standard,T0001,R59.99,PR005999,28/08/2017,03/09/2017,1234567,10,WC SR ENG.DSF
Pork Texan Steak R59.99 kg WC SR EX HAL Eng2,Pork Texan Steak,A0229,English,L02,Standard,T0001,R59.99,PR005999,28/08/2017,03/09/2017,1234567,14,WC SR ENG.DSF
Pork Texan Steak R59.99 kg WC SR EX HAL Afr,Pork Texan Steak,A0229,Afrikaans,L01,Standard,T0001,R59.99,PR005999,28/08/2017,03/09/2017,1234567,11,WC SR AFR.DSF
Pork Texan Steak R59.99 kg WC SR EX HAL Afr2,Pork Texan Steak,A0229,Afrikaans,L01,Standard,T0001,R59.99,PR005999,28/08/2017,03/09/2017,1234567,15,WC SR AFR.DSF
Chicken Breast fillet R59.99 kg WC SR Eng,Chicken Breast fillet,A0150,English,L02,Standard,T0001,R59.99,PR005999,28/08/2017,03/09/2017,1234567,12,WC SR ENG.DSF
Chicken Breast fillet R59.99 kg WC SR Eng2,Chicken Breast fillet,A0150,English,L02,Standard,T0001,R59.99,PR005999,28/08/2017,03/09/2017,1234567,16,WC SR ENG.DSF
Chicken Breast fillet R59.99 kg WC SR Afr,Chicken Breast fillet,A0150,Afrikaans,L01,Standard,T0001,R59.99,PR005999,28/08/2017,03/09/2017,1234567,13,WC SR AFR.DSF
Chicken Breast fillet R59.99 kg WC SR Afr2,Chicken Breast fillet,A0150,Afrikaans,L01,Standard,T0001,R59.99,PR005999,28/08/2017,03/09/2017,1234567,17,WC SR AFR.DSF
Championship Boerewors Thick R72.99 kg EC CH CHHY Eng,Championship Boerewors Thick,A0261,English,L02,Standard,T0001,R72.99,PR007299,28/08/2017,03/09/2017,1234567,10,EC CH CHHY ENG.DSF
Championship Boerewors Thick R72.99 kg EC CH CHHY Eng2,Championship Boerewors Thick,A0261,English,L02,Standard,T0001,R72.99,PR007299,28/08/2017,03/09/2017,1234567,14,EC CH CHHY ENG.DSF
Lean beef mince R74.99 kg EC CH CHHY Eng,Lean beef mince,A0017,English,L02,Standard,T0001,R74.99,PR007499,28/08/2017,03/09/2017,1234567,11,EC CH CHHY ENG.DSF
Lean beef mince R74.99 kg EC CH CHHY Eng2,Lean beef mince,A0017,English,L02,Standard,T0001,R74.99,PR007499,28/08/2017,03/09/2017,1234567,15,EC CH CHHY ENG.DSF
Pork packs R49.99 kg EC SR EX HAL Eng,Pork packs,A0019,English,L02,Standard,T0001,R49.99,PR004999,28/08/2017,03/09/2017,1234567,12,EC SR ENG.DSF
Pork packs R49.99 kg EC SR EX HAL Eng2,Pork packs,A0019,English,L02,Standard,T0001,R49.99,PR004999,28/08/2017,03/09/2017,1234567,16,EC SR ENG.DSF
Pork braai chops R59.99 kg EC SR EX HAL Eng,Pork braai chops,A0018,English,L02,Standard,T0001,R59.99,PR005999,28/08/2017,03/09/2017,1234567,13,EC SR ENG.DSF
Pork braai chops R59.99 kg EC SR EX HAL Eng2,Pork braai chops,A0018,English,L02,Standard,T0001,R59.99,PR005999,28/08/2017,03/09/2017,1234567,17,EC SR ENG.DSF
Beef mince R69.99 kg EC SR Eng,Beef mince,A0004,English,L02,Standard,T0001,R69.99,PR006999,28/08/2017,03/09/2017,1234567,10,EC SR ENG.DSF
Beef mince R69.99 kg EC SR Eng2,Beef mince,A0004,English,L02,Standard,T0001,R69.99,PR006999,28/08/2017,03/09/2017,1234567,14,EC SR ENG.DSF
Beef potjiekos R69.99 kg EC ECP Eng,Beef potjiekos,A0033,English,L02,Standard,T0001,R69.99,PR006999,28/08/2017,03/09/2017,1234567,11,EC ECP ENG.DSF
Beef potjiekos R69.99 kg EC ECP Eng2,Beef potjiekos,A0033,English,L02,Standard,T0001,R69.99,PR006999,28/08/2017,03/09/2017,1234567,15,EC ECP ENG.DSF
Ooskaapse Braaiwors R59.99 kg EC ECP Eng,Ooskaapse Braaiwors,A0267,English,L02,Standard,T0001,R59.99,PR005999,28/08/2017,03/09/2017,1234567,12,EC ECP ENG.DSF
Ooskaapse Braaiwors R59.99 kg EC ECP Eng2,Ooskaapse Braaiwors,A0267,English,L02,Standard,T0001,R59.99,PR005999,28/08/2017,03/09/2017,1234567,16,EC ECP ENG.DSF
Beef mince R69.99 kg EC ECP Eng,Beef mince,A0004,English,L02,Standard,T0001,R69.99,PR006999,28/08/2017,03/09/2017,1234567,13,EC ECP ENG.DSF
Beef mince R69.99 kg EC ECP Eng2,Beef mince,A0004,English,L02,Standard,T0001,R69.99,PR006999,28/08/2017,03/09/2017,1234567,17,EC ECP ENG.DSF
Steak House Classic Rump 300g R120.0 kg KZN CH CHHY Eng,Steak House Classic Rump 300g,A0278,English,L02,Standard,T0001,R120.00,PR012000,28/08/2017,03/09/2017,1234567,10,KZN CH CHHY ENG.DSF
Steak House Classic Rump 300g R120.0 kg KZN CH CHHY Eng2,Steak House Classic Rump 300g,A0278,English,L02,Standard,T0001,R120.00,PR012000,28/08/2017,03/09/2017,1234567,14,KZN CH CHHY ENG.DSF
Steak pack R79.99 kg KZN CH CHHY Eng,Steak pack,A0058,English,L02,Standard,T0001,R79.99,PR007999,28/08/2017,03/09/2017,1234567,11,KZN CH CHHY ENG.DSF
Steak pack R79.99 kg KZN CH CHHY Eng2,Steak pack,A0058,English,L02,Standard,T0001,R79.99,PR007999,28/08/2017,03/09/2017,1234567,15,KZN CH CHHY ENG.DSF
Grabouw boerewors (thick & thin) R59.99 kg KZN CH CHHY Eng,Grabouw boerewors (thick & thin),A0074,English,L02,Standard,T0001,R59.99,PR005999,28/08/2017,03/09/2017,1234567,12,KZN CH CHHY ENG.DSF
Grabouw boerewors (thick & thin) R59.99 kg KZN CH CHHY Eng2,Grabouw boerewors (thick & thin),A0074,English,L02,Standard,T0001,R59.99,PR005999,28/08/2017,03/09/2017,1234567,16,KZN CH CHHY ENG.DSF
Pork braai chops R69.99 kg KZN SR EX HAL Eng,Pork braai chops,A0018,English,L02,Standard,T0001,R69.99,PR006999,28/08/2017,03/09/2017,1234567,13,KZN SR ENG.DSF
Pork braai chops R69.99 kg KZN SR EX HAL Eng2,Pork braai chops,A0018,English,L02,Standard,T0001,R69.99,PR006999,28/08/2017,03/09/2017,1234567,17,KZN SR ENG.DSF
Bulk stewing beef R67.99 kg KZN SR Eng,Bulk stewing beef,A0039,English,L02,Standard,T0001,R67.99,PR006799,28/08/2017,03/09/2017,1234567,10,KZN SR ENG.DSF
Bulk stewing beef R67.99 kg KZN SR Eng2,Bulk stewing beef,A0039,English,L02,Standard,T0001,R67.99,PR006799,28/08/2017,03/09/2017,1234567,14,KZN SR ENG.DSF
Mutton braai chops R98.99 kg KZN SR Eng,Mutton braai chops,A0052,English,L02,Standard,T0001,R98.99,PR009899,28/08/2017,03/09/2017,1234567,11,KZN SR ENG.DSF
Mutton braai chops R98.99 kg KZN SR Eng2,Mutton braai chops,A0052,English,L02,Standard,T0001,R98.99,PR009899,28/08/2017,03/09/2017,1234567,15,KZN SR ENG.DSF
Pork bangers R49.99 kg KZN SR EX HAL Eng,Pork bangers,A0067,English,L02,Standard,T0001,R49.99,PR004999,28/08/2017,03/09/2017,1234567,12,KZN SR ENG.DSF
Pork bangers R49.99 kg KZN SR EX HAL Eng2,Pork bangers,A0067,English,L02,Standard,T0001,R49.99,PR004999,28/08/2017,03/09/2017,1234567,16,KZN SR ENG.DSF
Beef Club and T-Bone R79.99 kg KZN SR Eng,Beef Club and T-Bone,A0215,English,L02,Standard,T0001,R79.99,PR007999,28/08/2017,03/09/2017,1234567,13,KZN SR ENG.DSF
Beef Club and T-Bone R79.99 kg KZN SR Eng2,Beef Club and T-Bone,A0215,English,L02,Standard,T0001,R79.99,PR007999,28/08/2017,03/09/2017,1234567,17,KZN SR ENG.DSF
Beef mince R64.99 kg KZN SR Eng,Beef mince,A0004,English,L02,Standard,T0001,R64.99,PR006499,28/08/2017,03/09/2017,1234567,10,KZN SR ENG.DSF
Beef mince R64.99 kg KZN SR Eng2,Beef mince,A0004,English,L02,Standard,T0001,R64.99,PR006499,28/08/2017,03/09/2017,1234567,14,KZN SR ENG.DSF
Tenderised steak R79.99 kg LESOTHO SR Eng,Tenderised steak,A0029,English,L02,Standard,T0001,R79.99,PR007999,28/08/2017,03/09/2017,1234567,11,LESOTHO SR ENG.DSF
Tenderised steak R79.99 kg LESOTHO SR Eng2,Tenderised steak,A0029,English,L02,Standard,T0001,R79.99,PR007999,28/08/2017,03/09/2017,1234567,15,LESOTHO SR ENG.DSF
Beef potjiekos R74.99 kg LESOTHO SR Eng,Beef potjiekos,A0033,English,L02,Standard,T0001,R74.99,PR007499,28/08/2017,03/09/2017,1234567,12,LESOTHO SR ENG.DSF
Beef potjiekos R74.99 kg LESOTHO SR Eng2,Beef potjiekos,A0033,English,L02,Standard,T0001,R74.99,PR007499,28/08/2017,03/09/2017,1234567,16,LESOTHO SR ENG.DSF
Beef sosaties R6.99 100g GN CH CHHY Eng,Beef sosaties,A0006,English,L02,Standard,T0001,R6.99,PR000699,28/08/2017,03/09/2017,1234567,13,GN CH CHHY ENG.DSF
Beef sosaties R6.99 100g GN CH CHHY Eng2,Beef sosaties,A0006,English,L02,Standard,T0001,R6.99,PR000699,28/08/2017,03/09/2017,1234567,17,GN CH CHHY ENG.DSF
Beef sosaties R6.99 100g GN CH CHHY Afr,Beef sosaties,A0006,Afrikaans,L01,Standard,T0001,R6.99,PR000699,28/08/2017,03/09/2017,1234567,10,GN CH CHHY AFR.DSF
Beef sosaties R6.99 100g GN CH CHHY Afr2,Beef sosaties,A0006,Afrikaans,L01,Standard,T0001,R6.99,PR000699,28/08/2017,03/09/2017,1234567,14,GN CH CHHY AFR.DSF
Chicken sosaties R6.99 100g GN CH CHHY Eng,Chicken sosaties,A0009,English,L02,Standard,T0001,R6.99,PR000699,28/08/2017,03/09/2017,1234567,11,GN CH CHHY ENG.DSF
Chicken sosaties R6.99 100g GN CH CHHY Eng2,Chicken sosaties,A0009,English,L02,Standard,T0001,R6.99,PR000699,28/08/2017,03/09/2017,1234567,15,GN CH CHHY ENG.DSF
Chicken sosaties R6.99 100g GN CH CHHY Afr,Chicken sosaties,A0009,Afrikaans,L01,Standard,T0001,R6.99,PR000699,28/08/2017,03/09/2017,1234567,12,GN CH CHHY AFR.DSF
Chicken sosaties R6.99 100g GN CH CHHY Afr2,Chicken sosaties,A0009,Afrikaans,L01,Standard,T0001,R6.99,PR000699,28/08/2017,03/09/2017,1234567,16,GN CH CHHY AFR.DSF
Pork sosaties R6.99 100g GN CH CHHY EX HAL Eng,Pork sosaties,A0021,English,L02,Standard,T0001,R6.99,PR000699,28/08/2017,03/09/2017,1234567,13,GN CH CHHY ENG.DSF
Pork sosaties R6.99 100g GN CH CHHY EX HAL Eng2,Pork sosaties,A0021,English,L02,Standard,T0001,R6.99,PR000699,28/08/2017,03/09/2017,1234567,17,GN CH CHHY ENG.DSF
Pork sosaties R6.99 100g GN CH CHHY EX HAL Afr,Pork sosaties,A0021,Afrikaans,L01,Standard,T0001,R6.99,PR000699,28/08/2017,03/09/2017,1234567,10,GN CH CHHY AFR.DSF
Pork sosaties R6.99 100g GN CH CHHY EX HAL Afr2,Pork sosaties,A0021,Afrikaans,L01,Standard,T0001,R6.99,PR000699,28/08/2017,03/09/2017,1234567,14,GN CH CHHY AFR.DSF
Half lamb R99.9 kg GN CHHY Eng,Half lamb,A0046,English,L02,Standard,T0001,R99.90,PR009990,28/08/2017,03/09/2017,1234567,11,GN CHHY ENG.DSF
Half lamb R99.9 kg GN CHHY Eng2,Half lamb,A0046,English,L02,Standard,T0001,R99.90,PR009990,28/08/2017,03/09/2017,1234567,15,GN CHHY ENG.DSF
Half lamb R99.9 kg GN CHHY Afr,Half lamb,A0046,Afrikaans,L01,Standard,T0001,R99.90,PR009990,28/08/2017,03/09/2017,1234567,12,GN CHHY AFR.DSF
Half lamb R99.9 kg GN CHHY Afr2,Half lamb,A0046,Afrikaans,L01,Standard,T0001,R99.90,PR009990,28/08/2017,03/09/2017,1234567,16,GN CHHY AFR.DSF
Beef Club and T-Bone R79.9 kg GN CHHY Eng,Beef Club and T-Bone,A0215,English,L02,Standard,T0001,R79.90,PR007990,28/08/2017,03/09/2017,1234567,13,GN CHHY ENG.DSF
Beef Club and T-Bone R79.9 kg GN CHHY Eng2,Beef Club and T-Bone,A0215,English,L02,Standard,T0001,R79.90,PR007990,28/08/2017,03/09/2017,1234567,17,GN CHHY ENG.DSF
Beef Club and T-Bone R79.9 kg GN CHHY Afr,Beef Club and T-Bone,A0215,Afrikaans,L01,Standard,T0001,R79.90,PR007990,28/08/2017,03/09/2017,1234567,10,GN CHHY AFR.DSF
Beef Club and T-Bone R79.9 kg GN CHHY Afr2,Beef Club and T-Bone,A0215,Afrikaans,L01,Standard,T0001,R79.90,PR007990,28/08/2017,03/09/2017,1234567,14,GN CHHY AFR.DSF
Rump steak R99.9 kg GN CHHY Eng,Rump steak,A0024,English,L02,Standard,T0001,R99.90,PR009990,28/08/2017,03/09/2017,1234567,11,GN CHHY ENG.DSF
Rump steak R99.9 kg GN CHHY Eng2,Rump steak,A0024,English,L02,Standard,T0001,R99.90,PR009990,28/08/2017,03/09/2017,1234567,15,GN CHHY ENG.DSF
Rump steak R99.9 kg GN CHHY Afr,Rump steak,A0024,Afrikaans,L01,Standard,T0001,R99.90,PR009990,28/08/2017,03/09/2017,1234567,12,GN CHHY AFR.DSF
Rump steak R99.9 kg GN CHHY Afr2,Rump steak,A0024,Afrikaans,L01,Standard,T0001,R99.90,PR009990,28/08/2017,03/09/2017,1234567,16,GN CHHY AFR.DSF
Beef potjiekos R69.9 kg GN CHHY Eng,Beef potjiekos,A0033,English,L02,Standard,T0001,R69.90,PR006990,28/08/2017,03/09/2017,1234567,13,GN CHHY ENG.DSF
Beef potjiekos R69.9 kg GN CHHY Eng2,Beef potjiekos,A0033,English,L02,Standard,T0001,R69.90,PR006990,28/08/2017,03/09/2017,1234567,17,GN CHHY ENG.DSF
Beef potjiekos R69.9 kg GN CHHY Afr,Beef potjiekos,A0033,Afrikaans,L01,Standard,T0001,R69.90,PR006990,28/08/2017,03/09/2017,1234567,10,GN CHHY AFR.DSF
Beef potjiekos R69.9 kg GN CHHY Afr2,Beef potjiekos,A0033,Afrikaans,L01,Standard,T0001,R69.90,PR006990,28/08/2017,03/09/2017,1234567,14,GN CHHY AFR.DSF
Pork braai chops R59.9 kg GN SR EX HAL Eng,Pork braai chops,A0018,English,L02,Standard,T0001,R59.90,PR005990,28/08/2017,03/09/2017,1234567,11,GN SR ENG.DSF
Pork braai chops R59.9 kg GN SR EX HAL Eng2,Pork braai chops,A0018,English,L02,Standard,T0001,R59.90,PR005990,28/08/2017,03/09/2017,1234567,15,GN SR ENG.DSF
Pork braai chops R59.9 kg GN SR EX HAL Afr,Pork braai chops,A0018,Afrikaans,L01,Standard,T0001,R59.90,PR005990,28/08/2017,03/09/2017,1234567,12,GN SR AFR.DSF
Pork braai chops R59.9 kg GN SR EX HAL Afr2,Pork braai chops,A0018,Afrikaans,L01,Standard,T0001,R59.90,PR005990,28/08/2017,03/09/2017,1234567,16,GN SR AFR.DSF
Karoo Braaiwors R56.9 kg GN SR Eng,Karoo Braaiwors,A0265,English,L02,Standard,T0001,R56.90,PR005690,28/08/2017,03/09/2017,1234567,13,GN SR ENG.DSF
Karoo Braaiwors R56.9 kg GN SR Eng2,Karoo Braaiwors,A0265,English,L02,Standard,T0001,R56.90,PR005690,28/08/2017,03/09/2017,1234567,17,GN SR ENG.DSF
Karoo Braaiwors R56.9 kg GN SR Afr,Karoo Braaiwors,A0265,Afrikaans,L01,Standard,T0001,R56.90,PR005690,28/08/2017,03/09/2017,1234567,10,GN SR AFR.DSF
Karoo Braaiwors R56.9 kg GN SR Afr2,Karoo Braaiwors,A0265,Afrikaans,L01,Standard,T0001,R56.90,PR005690,28/08/2017,03/09/2017,1234567,14,GN SR AFR.DSF
Steak pack R79.9 kg GN SR Eng,Steak pack,A0058,English,L02,Standard,T0001,R79.90,PR007990,28/08/2017,03/09/2017,1234567,11,GN SR ENG.DSF
Steak pack R79.9 kg GN SR Eng2,Steak pack,A0058,English,L02,Standard,T0001,R79.90,PR007990,28/08/2017,03/09/2017,1234567,15,GN SR ENG.DSF
Steak pack R79.9 kg GN SR Afr,Steak pack,A0058,Afrikaans,L01,Standard,T0001,R79.90,PR007990,28/08/2017,03/09/2017,1234567,12,GN SR AFR.DSF
Steak pack R79.9 kg GN SR Afr2,Steak pack,A0058,Afrikaans,L01,Standard,T0001,R79.90,PR007990,28/08/2017,03/09/2017,1234567,16,GN SR AFR.DSF
Highnoon burger mince R56.9 kg GN SR Eng,Highnoon burger mince,A0111,English,L02,Standard,T0001,R56.90,PR005690,28/08/2017,03/09/2017,1234567,13,GN SR ENG.DSF
Highnoon burger mince R56.9 kg GN SR Eng2,Highnoon burger mince,A0111,English,L02,Standard,T0001,R56.90,PR005690,28/08/2017,03/09/2017,1234567,17,GN SR ENG.DSF
Highnoon burger mince R56.9 kg GN SR Afr,Highnoon burger mince,A0111,Afrikaans,L01,Standard,T0001,R56.90,PR005690,28/08/2017,03/09/2017,1234567,10,GN SR AFR.DSF
Highnoon burger mince R56.9 kg GN SR Afr2,Highnoon burger mince,A0111,Afrikaans,L01,Standard,T0001,R56.90,PR005690,28/08/2017,03/09/2017,1234567,14,GN SR AFR.DSF
Karoo Braaiwors R49.9 kg GN SR Eng,Karoo Braaiwors,A0265,English,L02,Standard,T0001,R49.90,PR004990,01/09/2017,01/09/2017,5,11,GN SR ENG.DSF
Karoo Braaiwors R49.9 kg GN SR Eng2,Karoo Braaiwors,A0265,English,L02,Standard,T0001,R49.90,PR004990,01/09/2017,01/09/2017,5,15,GN SR ENG.DSF
Karoo Braaiwors R49.9 kg GN SR Afr,Karoo Braaiwors,A0265,Afrikaans,L01,Standard,T0001,R49.90,PR004990,01/09/2017,01/09/2017,5,12,GN SR AFR.DSF
Karoo Braaiwors R49.9 kg GN SR Afr2,Karoo Braaiwors,A0265,Afrikaans,L01,Standard,T0001,R49.90,PR004990,01/09/2017,01/09/2017,5,16,GN SR AFR.DSF
Pork Texan Steak R59.99 kg NAMIBIA CH CHHY EX HAL Eng,Pork Texan Steak,A0229,English,L02,Standard,T0001,R59.99,PR005999,28/08/2017,03/09/2017,1234567,13,NAMIBIA CH CHHY ENG.DSF
Pork Texan Steak R59.99 kg NAMIBIA CH CHHY EX HAL Eng2,Pork Texan Steak,A0229,English,L02,Standard,T0001,R59.99,PR005999,28/08/2017,03/09/2017,1234567,17,NAMIBIA CH CHHY ENG.DSF
Pork steaks R64.99 kg NAMIBIA CH CHHY EX HAL Eng,Pork steaks,A0105,English,L02,Standard,T0001,R64.99,PR006499,28/08/2017,03/09/2017,1234567,10,NAMIBIA CH CHHY ENG.DSF
Pork steaks R64.99 kg NAMIBIA CH CHHY EX HAL Eng2,Pork steaks,A0105,English,L02,Standard,T0001,R64.99,PR006499,28/08/2017,03/09/2017,1234567,14,NAMIBIA CH CHHY ENG.DSF
Lean beef mince R66.99 kg NAMIBIA CH CHHY Eng,Lean beef mince,A0017,English,L02,Standard,T0001,R66.99,PR006699,28/08/2017,03/09/2017,1234567,11,NAMIBIA CH CHHY ENG.DSF
Lean beef mince R66.99 kg NAMIBIA CH CHHY Eng2,Lean beef mince,A0017,English,L02,Standard,T0001,R66.99,PR006699,28/08/2017,03/09/2017,1234567,15,NAMIBIA CH CHHY ENG.DSF
Pork packs R59.99 kg NAMIBIA SR EX HAL Eng,Pork packs,A0019,English,L02,Standard,T0001,R59.99,PR005999,28/08/2017,03/09/2017,1234567,12,NAMIBIA SR ENG.DSF
Pork packs R59.99 kg NAMIBIA SR EX HAL Eng2,Pork packs,A0019,English,L02,Standard,T0001,R59.99,PR005999,28/08/2017,03/09/2017,1234567,16,NAMIBIA SR ENG.DSF
Pork Texan Steak R59.99 kg NAMIBIA SR EX HAL Eng,Pork Texan Steak,A0229,English,L02,Standard,T0001,R59.99,PR005999,28/08/2017,03/09/2017,1234567,13,NAMIBIA SR ENG.DSF
Pork Texan Steak R59.99 kg NAMIBIA SR EX HAL Eng2,Pork Texan Steak,A0229,English,L02,Standard,T0001,R59.99,PR005999,28/08/2017,03/09/2017,1234567,17,NAMIBIA SR ENG.DSF
Traditional ground beef R49.99 kg NAMIBIA SR Eng,Traditional ground beef,A0032,English,L02,Standard,T0001,R49.99,PR004999,28/08/2017,03/09/2017,1234567,10,NAMIBIA SR ENG.DSF
Traditional ground beef R49.99 kg NAMIBIA SR Eng2,Traditional ground beef,A0032,English,L02,Standard,T0001,R49.99,PR004999,28/08/2017,03/09/2017,1234567,14,NAMIBIA SR ENG.DSF
